zachs_karate_kr.txt	[0.750856, 0.997623; 0.997617, 0.403892]	6
lesmiserables_kr.txt	[0.931149, 0.81263; 0.811912, 0.332507]	7
word_adjacencies_kr.txt	[0.768253, 0.913832; 0.921866, 0.177055]	7
facebook_combined_kr.txt	[0.9999, 0.689384; 0.688448, 0.350882]	12
ecoli_kr.txt	[0.559434, 0.857674; 0.859308, 0.177735]	11
