\relax 
\providecommand\HyperFirstAtBeginDocument{\AtBeginDocument}
\HyperFirstAtBeginDocument{\ifx\hyper@anchor\@undefined
\global\let\oldcontentsline\contentsline
\gdef\contentsline#1#2#3#4{\oldcontentsline{#1}{#2}{#3}}
\global\let\oldnewlabel\newlabel
\gdef\newlabel#1#2{\newlabelxx{#1}#2}
\gdef\newlabelxx#1#2#3#4#5#6{\oldnewlabel{#1}{{#2}{#3}}}
\AtEndDocument{\ifx\hyper@anchor\@undefined
\let\contentsline\oldcontentsline
\let\newlabel\oldnewlabel
\fi}
\fi}
\global\let\hyper@last\relax 
\gdef\HyperFirstAtBeginDocument#1{#1}
\providecommand\HyField@AuxAddToFields[1]{}
\citation{song2005self}
\citation{song2005self}
\citation{skeletons}
\citation{leskovec-kronecker}
\citation{shrinkingdiameter}
\citation{hgpaper}
\@writefile{toc}{\contentsline {section}{\numberline {1}Introduction}{1}{section.1}}
\@writefile{toc}{\contentsline {section}{\numberline {2} Summary of Current Literature}{1}{section.2}}
\citation{leskovec-kronecker}
\citation{leskovec-kronecker}
\citation{Kim_thenetwork}
\citation{shrinkingdiameter}
\@writefile{toc}{\contentsline {subsection}{\numberline {2.1}Fractal Graph Models}{2}{subsection.2.1}}
\@writefile{toc}{\contentsline {subsubsection}{\numberline {2.1.1}Kronecker Graphs}{2}{subsubsection.2.1.1}}
\@writefile{toc}{\contentsline {subsubsection}{\numberline {2.1.2}Forest Fire}{2}{subsubsection.2.1.2}}
\citation{hgpaper}
\citation{song2007calculate}
\citation{skeletons}
\@writefile{toc}{\contentsline {subsubsection}{\numberline {2.1.3}Hyper-Geometric Model}{3}{subsubsection.2.1.3}}
\@writefile{lof}{\contentsline {figure}{\numberline {1}{\ignorespaces hyperbolic space with hierarchical structure\relax }}{3}{figure.caption.1}}
\@writefile{toc}{\contentsline {subsection}{\numberline {2.2}Graph Analysis}{3}{subsection.2.2}}
\@writefile{toc}{\contentsline {section}{\numberline {3} Hypothesis }{3}{section.3}}
\@writefile{toc}{\contentsline {section}{\numberline {4}Methods}{4}{section.4}}
\@writefile{toc}{\contentsline {subsection}{\numberline {4.1}Model Selection and Fitting}{4}{subsection.4.1}}
\@writefile{toc}{\contentsline {subsubsection}{\numberline {4.1.1}KRONFIT/KRONEM}{4}{subsubsection.4.1.1}}
\@writefile{toc}{\contentsline {subsubsection}{\numberline {4.1.2}FOREST FIRE}{4}{subsubsection.4.1.2}}
\@writefile{toc}{\contentsline {subsubsection}{\numberline {4.1.3} HYPERBOLIC GEOMETRIC}{5}{subsubsection.4.1.3}}
\@writefile{toc}{\contentsline {subsection}{\numberline {4.2}Data Choice and Selection}{5}{subsection.4.2}}
\@writefile{toc}{\contentsline {subsection}{\numberline {4.3}Analysis Process}{5}{subsection.4.3}}
\citation{song2007calculate}
\citation{locci2009computing}
\@writefile{toc}{\contentsline {subsection}{\numberline {4.4}Algorithmic Implementations}{6}{subsection.4.4}}
\@writefile{toc}{\contentsline {subsubsection}{\numberline {4.4.1}Standard Algorithms}{6}{subsubsection.4.4.1}}
\@writefile{toc}{\contentsline {subsubsection}{\numberline {4.4.2}Skeleton}{6}{subsubsection.4.4.2}}
\@writefile{toc}{\contentsline {subsubsection}{\numberline {4.4.3}Box-Counting}{6}{subsubsection.4.4.3}}
\@writefile{toc}{\contentsline {subsubsection}{\numberline {4.4.4}PageRank}{7}{subsubsection.4.4.4}}
\@writefile{toc}{\contentsline {subsubsection}{\numberline {4.4.5}Community Detection Algorithms}{7}{subsubsection.4.4.5}}
\@writefile{toc}{\contentsline {subsection}{\numberline {4.5}Testing Harness}{8}{subsection.4.5}}
\@writefile{toc}{\contentsline {section}{\numberline {5}Results}{8}{section.5}}
\@writefile{lof}{\contentsline {figure}{\numberline {2}{\ignorespaces power grid plots\relax }}{8}{figure.caption.2}}
\@writefile{lof}{\contentsline {figure}{\numberline {3}{\ignorespaces facebook plots\relax }}{8}{figure.caption.3}}
\@writefile{toc}{\contentsline {section}{\numberline {6}Discussion}{8}{section.6}}
\@writefile{toc}{\contentsline {subsection}{\numberline {6.1}The Forest Fire (FF) model}{9}{subsection.6.1}}
\@writefile{toc}{\contentsline {subsection}{\numberline {6.2}The Hyper Geometric Model}{9}{subsection.6.2}}
\@writefile{toc}{\contentsline {subsection}{\numberline {6.3}Kronecker}{9}{subsection.6.3}}
\citation{*}
\bibstyle{plain}
\bibdata{fractal}
\@writefile{toc}{\contentsline {section}{\numberline {7}Further Work}{10}{section.7}}
\@writefile{toc}{\contentsline {subsection}{\numberline {7.1}Network Models}{10}{subsection.7.1}}
\@writefile{toc}{\contentsline {subsection}{\numberline {7.2}Network Analysis Methods}{10}{subsection.7.2}}
\@writefile{toc}{\contentsline {subsection}{\numberline {7.3}Expand Selection of Datasets}{10}{subsection.7.3}}
\@writefile{toc}{\contentsline {subsection}{\numberline {7.4}Further Investigation of Forest Fire and Autonomous Systems}{10}{subsection.7.4}}
\bibcite{bonato2012}{{1}{}{{}}{{}}}
\bibcite{gephi-data}{{2}{}{{}}{{}}}
\bibcite{skeletons}{{3}{}{{}}{{}}}
\bibcite{Kim_thenetwork}{{4}{}{{}}{{}}}
\bibcite{hgpaper}{{5}{}{{}}{{}}}
\bibcite{leskovec-kronecker}{{6}{}{{}}{{}}}
\bibcite{shrinkingdiameter}{{7}{}{{}}{{}}}
\bibcite{bigclam}{{8}{}{{}}{{}}}
\bibcite{locci2009computing}{{9}{}{{}}{{}}}
\bibcite{makse-data}{{10}{}{{}}{{}}}
\bibcite{snap-data}{{11}{}{{}}{{}}}
\bibcite{song2007calculate}{{12}{}{{}}{{}}}
\bibcite{song2005self}{{13}{}{{}}{{}}}
\@writefile{toc}{\contentsline {section}{\numberline {8}Appendices}{11}{section.8}}
\@writefile{toc}{\contentsline {subsection}{\numberline {8.1}Mathematically Concise Definition of Hyperbolic Geometric Model}{11}{subsection.8.1}}
\@writefile{toc}{\contentsline {subsection}{\numberline {8.2}Mathematically Concise Definition of Stochastic Kronecker Graph Model}{12}{subsection.8.2}}
\@writefile{toc}{\contentsline {subsection}{\numberline {8.3}Concise Overview of KRONFIT}{12}{subsection.8.3}}
\@writefile{toc}{\contentsline {subsection}{\numberline {8.4}Concise Overview of KRONEM}{12}{subsection.8.4}}
\providecommand\NAT@force@numbers{}\NAT@force@numbers
\@writefile{toc}{\contentsline {subsection}{\numberline {8.5}Forest Fire Statistics}{13}{subsection.8.5}}
\@writefile{lof}{\contentsline {figure}{\numberline {4}{\ignorespaces 8.7.1, 8.7.2, 8.7.3, 8.7.4 from top left to bottom right\relax }}{13}{figure.caption.6}}
\@writefile{toc}{\contentsline {subsection}{\numberline {8.6}Page Rank Pseudocode}{13}{subsection.8.6}}
