0	1
0	2
0	3
0	4
0	5
0	6
0	7
0	8
0	9
0	10
0	11
0	12
0	13
0	14
0	15
0	16
0	17
0	18
0	19
0	20
0	21
0	22
0	23
0	24
0	25
0	26
0	27
0	28
0	30
0	31
0	32
0	33
0	34
0	35
0	36
0	37
0	38
0	39
0	40
0	42
2	1
2	3
3	1
3	18
3	4
3	39
4	1
4	2
4	5
4	6
4	7
4	8
4	9
4	10
4	11
4	13
4	15
4	16
4	17
4	20
4	22
4	23
4	24
4	25
4	26
4	27
4	28
4	29
4	31
4	35
4	36
4	37
4	38
4	40
4	41
4	42
6	1
6	5
7	1
7	5
8	1
8	2
8	5
8	9
9	1
9	5
10	1
10	5
11	1
12	1
12	5
12	13
13	1
13	14
14	1
14	5
14	15
15	16
15	1
15	5
16	1
16	5
17	1
17	4
18	1
19	1
19	20
19	5
20	1
20	29
20	21
21	1
21	5
21	22
22	1
22	5
23	1
23	5
24	25
24	5
24	1
25	1
25	5
26	1
26	27
26	5
27	1
27	5
28	5
28	21
29	1
30	1
30	5
31	32
31	1
31	41
32	1
32	2
33	1
34	1
34	5
35	1
35	5
36	1
36	5
37	1
37	5
38	1
38	4
39	1
39	5
40	32
40	5
41	1
41	5
