18	0
18	1
31	0
31	1
48	0
48	1
48	28
51	0
51	1
51	16
73	0
73	1
73	10
73	9
77	0
77	1
77	22
77	7
83	0
83	1
96	0
96	1
96	55
98	0
98	1
98	36
102	0
102	1
104	0
104	1
112	0
112	1
113	0
113	1
113	7
137	0
137	1
137	110
143	0
143	1
162	0
162	1
166	0
166	1
175	0
175	1
175	12
178	0
178	1
178	54
182	0
182	1
186	0
186	1
187	0
187	1
187	52
192	0
192	1
198	0
198	1
198	52
216	0
216	1
216	54
220	0
220	1
239	0
239	1
239	6
240	0
240	1
240	25
246	0
246	1
251	0
251	1
251	110
256	0
256	1
256	167
259	0
259	1
259	204
274	0
274	1
274	46
284	0
284	1
285	0
285	1
285	176
288	0
288	1
288	6
288	79
298	0
298	1
298	9
298	101
298	32
300	0
300	1
300	264
300	6
300	79
301	0
301	1
301	101
301	9
307	0
307	1
307	52
316	0
316	1
316	117
316	110
317	0
317	1
317	110
321	0
321	1
321	231
327	0
327	1
327	40
329	0
329	1
336	0
336	1
347	0
347	1
349	0
349	1
349	25
353	0
353	1
353	6
355	0
355	1
355	25
356	0
356	1
356	5
356	167
359	0
359	1
361	0
361	1
361	82
361	12
363	0
363	1
363	42
364	0
364	1
364	5
364	161
370	0
370	1
370	63
370	25
377	0
377	1
377	62
381	0
381	1
381	44
382	0
382	1
384	0
384	1
384	12
384	60
385	0
385	1
385	6
385	79
388	0
388	1
394	0
394	1
394	124
394	5
399	0
399	1
399	55
404	0
404	1
404	70
406	0
406	1
406	44
406	81
406	25
408	0
408	1
408	124
408	5
408	161
410	0
410	1
410	17
412	0
412	1
412	7
416	0
416	1
416	99
416	101
416	32
416	9
419	0
419	1
419	16
422	0
422	1
428	0
428	1
430	0
430	1
430	109
432	0
432	5
433	0
433	5
436	0
437	0
438	0
441	0
443	0
444	0
445	0
450	0
450	1
450	90
453	0
453	1
453	169
453	40
458	0
458	1
459	0
459	1
459	151
460	0
460	1
460	40
463	0
463	1
466	0
467	0
467	1
468	0
468	127
469	0
470	0
471	0
474	0
474	78
475	0
476	0
479	0
480	0
480	44
481	0
482	0
483	0
483	1
484	0
484	1
484	226
484	44
486	0
486	1
486	44
488	0
488	1
488	44
489	0
489	1
489	44
490	0
492	0
493	0
493	25
493	44
493	1
495	0
495	25
495	44
495	1
495	81
496	0
496	25
496	44
496	81
497	0
497	55
500	0
500	225
501	0
502	0
502	1
502	52
503	0
503	167
504	0
506	0
506	55
507	0
507	55
508	0
508	55
509	0
509	174
509	55
510	0
510	127
510	55
511	0
511	127
511	55
512	0
514	0
515	0
516	0
517	0
519	0
520	0
520	78
524	0
525	0
525	63
527	0
528	0
528	172
529	0
530	0
530	1
530	478
530	215
531	0
532	0
532	68
533	0
533	70
535	0
535	225
536	0
537	0
537	1
537	52
539	0
539	538
540	0
544	0
545	0
546	0
546	225
548	0
548	25
548	1
550	0
550	1
550	25
551	0
551	25
551	549
552	0
552	25
552	549
554	0
554	84
555	0
557	0
558	0
558	25
558	44
558	88
559	0
560	0
561	0
564	0
565	0
566	0
567	0
567	110
568	0
569	0
570	0
571	0
572	0
573	0
574	0
574	1
574	226
575	0
576	0
577	0
578	0
579	0
580	0
581	0
582	0
583	0
585	0
585	584
586	0
586	110
587	0
587	110
589	0
589	588
589	5
591	0
592	0
593	0
593	1
594	0
595	0
595	1
595	25
598	0
598	1
599	0
599	1
599	35
600	0
600	1
600	213
600	25
601	0
603	0
603	1
604	0
606	0
606	117
607	0
608	0
609	0
609	1
609	63
610	0
611	0
614	0
615	0
615	122
616	0
616	133
618	0
619	0
620	0
620	1
621	0
622	0
623	0
623	44
624	0
625	0
625	129
626	0
626	133
627	0
627	1
628	0
628	1
629	0
629	1
631	0
631	1
632	0
632	1
633	0
633	1
633	249
634	0
634	1
634	179
635	0
635	1
636	0
636	1
636	179
637	0
637	1
638	0
638	1
639	0
639	1
640	0
640	1
641	0
641	1
642	0
642	1
643	0
643	1
644	0
644	1
644	179
645	0
645	1
645	261
646	0
646	1
646	179
647	0
647	1
648	0
648	1
649	0
649	1
649	249
650	0
650	1
651	0
651	1
651	179
653	0
653	1
653	261
654	0
654	1
656	0
656	1
657	0
657	1
658	0
658	1
660	0
660	1
661	0
661	1
662	0
662	1
663	0
663	1
664	0
664	1
665	0
665	1
667	0
668	0
670	0
671	0
672	0
673	0
675	0
676	0
677	0
677	1
678	0
678	1
680	0
680	1
681	0
681	1
683	0
683	1
683	44
683	255
684	0
684	1
685	0
685	1
685	226
686	0
686	1
688	0
688	1
689	0
689	1
690	0
690	1
690	44
691	0
691	1
692	0
692	1
694	0
694	1
695	0
695	1
695	255
696	0
696	1
697	0
697	1
698	0
698	1
698	255
699	0
699	1
699	44
700	0
700	1
700	255
702	0
702	1
703	0
703	1
704	0
704	1
705	0
705	1
705	215
706	0
706	1
707	0
709	0
710	0
711	0
712	0
712	44
712	78
713	0
714	0
714	78
715	0
716	0
718	0
718	1
719	0
720	0
720	314
721	0
722	0
723	0
724	0
724	78
725	0
725	44
726	0
726	215
727	0
727	161
727	124
727	5
728	0
728	161
728	124
728	5
729	0
729	124
729	5
730	0
731	0
732	0
733	0
734	0
735	0
737	0
738	0
738	172
740	0
740	190
742	0
743	0
743	84
744	0
745	0
746	0
747	0
747	249
748	0
748	124
748	5
749	0
750	0
752	0
752	28
753	0
754	0
756	0
757	0
758	0
759	0
759	190
760	0
760	190
761	0
761	190
762	0
762	1
762	16
763	0
764	0
766	0
767	0
768	0
769	0
770	0
771	0
773	0
774	0
774	330
775	0
776	0
777	0
778	0
778	215
779	0
780	0
781	0
782	0
782	219
784	0
785	0
786	0
787	0
787	225
788	0
788	225
789	0
789	225
790	0
791	0
792	0
793	0
794	0
795	0
796	0
797	0
799	0
799	167
800	0
800	167
801	0
801	235
802	0
802	235
803	0
804	0
805	0
806	0
807	0
808	0
809	0
810	0
812	0
813	0
814	0
815	0
816	0
817	0
818	0
819	0
820	0
821	0
821	341
822	0
823	0
825	0
826	0
827	0
828	0
829	0
830	0
831	0
833	0
834	0
835	0
835	44
835	78
837	0
839	0
840	0
841	0
842	0
843	0
844	0
844	303
845	0
846	0
847	0
848	0
849	0
850	0
851	0
852	0
853	0
854	0
854	122
855	0
856	0
857	0
858	0
859	0
859	398
860	0
861	0
862	0
863	0
863	314
864	0
866	0
867	0
868	0
869	0
870	0
871	0
872	0
873	0
874	0
875	0
876	0
876	1
877	0
878	0
879	0
880	0
881	0
882	0
883	0
884	0
884	249
885	0
886	0
887	0
888	0
889	0
890	0
891	0
892	0
893	0
893	1
893	52
894	0
895	0
895	1
897	0
898	0
899	0
900	0
901	0
902	0
903	0
904	0
905	0
905	124
905	5
906	0
907	0
907	122
908	0
909	0
910	0
911	0
912	0
913	0
914	0
915	0
916	0
917	0
918	0
918	1
918	52
919	0
920	0
921	0
923	0
924	0
925	0
926	0
927	0
928	0
929	0
930	0
931	0
932	0
933	0
934	0
935	0
936	0
937	0
938	0
939	0
940	0
941	0
942	0
942	124
942	5
943	0
943	1
943	52
944	0
945	0
945	54
946	0
947	0
948	0
949	0
950	0
951	0
952	0
953	0
954	0
955	0
956	0
956	5
957	0
958	0
959	0
959	1
959	52
960	0
960	122
961	0
962	0
963	0
964	0
964	1
965	0
966	0
967	0
968	0
969	0
970	0
971	0
972	0
973	0
974	0
975	0
976	0
977	0
978	0
979	0
980	0
980	395
981	0
982	0
983	0
984	0
985	0
986	0
987	0
988	0
989	0
990	0
992	0
993	0
994	1
995	1
995	7
996	1
996	39
997	1
998	1
999	1
1000	1
1002	1
1004	1
1004	7
1006	1
1007	1
1009	1
1009	17
1010	1
1010	12
1010	177
1013	1
1013	17
1014	1
1014	17
1015	1
1017	1
1018	1
1019	1
1020	1
1021	1
1023	1
1024	1
1024	17
1025	1
1025	17
1026	1
1029	1
1029	351
1030	1
1033	1
1034	1
1035	1
1035	17
1035	39
1036	1
1037	1
1037	164
1038	1
1038	47
1039	1
1039	17
1040	1
1040	7
1041	1
1043	1
1045	1
1045	53
1046	1
1048	1
1049	1
1050	1
1050	39
1051	1
1052	1
1053	1
1053	12
1055	1
1055	12
1056	1
1057	1
1058	1
1058	12
1059	1
1059	39
1060	1
1061	1
1062	1
1062	82
1062	12
1063	1
1063	114
1065	1
1066	1
1067	1
1067	39
1068	1
1069	1
1070	1
1072	1
1075	1
1076	1
1076	245
1076	53
1077	1
1079	1
1081	1
1082	1
1083	1
1083	250
1084	1
1087	1
1089	1
1090	1
1090	47
1091	24
1091	1
1092	1
1093	1
1094	1
1095	1
1095	12
1097	1
1098	1
1100	1
1101	1
1101	15
1102	1
1103	80
1103	1
1104	1
1105	1
1106	1
1107	1
1109	1
1109	1078
1110	1
1111	1
1112	1
1113	1
1113	17
1114	1
1114	15
1115	1
1117	1
1118	1
1119	1
1122	1
1124	1
1124	309
1126	1
1127	1
1128	1
1130	1
1131	1
1133	1
1136	1
1136	12
1137	1
1140	1
1143	1
1144	1
1145	1
1146	1
1147	1
1148	1
1149	1
1149	39
1150	1
1153	1
1154	32
1154	1
1155	1
1156	1
1157	1
1158	1
1158	9
1158	89
1159	1
1159	12
1160	208
1160	1
1161	1
1162	1
1162	7
1163	1
1164	1
1165	1
1166	1
1167	1
1168	1
1169	1
1170	1
1170	39
1171	1
1172	1
1173	1
1174	1
1174	17
1175	1
1176	1
1177	1
1178	1
1178	263
1179	224
1179	1
1180	32
1180	1
1181	1
1181	82
1181	12
1182	1
1183	1
1188	1
1188	7
1189	1
1189	53
1192	1
1192	281
1193	1
1193	47
1194	1
1194	12
1195	1
1196	1
1196	17
1197	80
1197	1
1199	1
1200	1
1202	1
1205	1
1205	15
1207	400
1207	1
1208	80
1208	1
1209	1
1210	224
1210	1
1211	1
1212	1
1213	1
1214	1
1216	1
1217	1
1217	17
1220	1
1221	1
1222	1
1222	237
1223	1
1224	1
1224	39
1228	1
1228	114
1229	1
1229	7
1231	1
1232	1
1234	1
1235	32
1235	1
1237	1
1238	1
1239	32
1239	1
1240	1
1241	1
1243	1
1244	1
1246	120
1246	1
1247	1032
1247	1
1248	1
1248	93
1248	393
1249	168
1249	1
1250	1
1250	351
1252	1
1254	1
1254	17
1256	1
1256	351
1259	1
1259	17
1260	1
1260	17
1261	1
1262	1
1262	53
1263	80
1263	1
1263	1016
1264	1
1266	1
1267	1
1268	1
1268	203
1268	17
1269	1
1270	1
1271	1
1272	1
1272	82
1272	12
1273	1
1274	1
1275	32
1275	1
1275	99
1276	1
1280	1
1281	1
1282	1
1283	1
1287	1
1287	53
1288	1
1288	250
1289	1
1289	53
1290	1
1291	1
1292	1
1294	1
1294	283
1295	1
1296	1
1298	1
1300	1
1300	7
1301	1
1302	1032
1302	1
1303	1
1304	1
1305	1
1306	208
1306	1
1308	1
1308	17
1309	1
1309	12
1310	1
1310	47
1311	1
1312	1
1313	1
1313	17
1314	1
1314	39
1316	1
1317	1
1318	1
1318	101
1318	9
1319	1
1321	1
1322	1
1323	1
1327	1
1327	12
1329	1
1330	1
1331	1
1331	47
1335	1
1336	1
1338	1
1339	1
1339	1204
1340	1
1341	1
1342	1
1342	47
1343	1
1343	17
1344	1
1345	1
1345	17
1346	1
1348	1
1348	17
1349	1
1350	1
1352	1
1353	1
1354	1
1355	1
1355	17
1356	1
1356	334
1356	7
1357	1
1358	1
1361	1
1361	82
1361	12
1362	1
1362	65
1364	1
1364	17
1366	1
1367	1
1367	17
1368	1
1368	12
1369	1
1370	1
1371	1
1373	1
1373	47
1374	1
1375	1
1375	62
1376	1
1376	114
1377	1
1378	1
1378	17
1381	1
1382	1
1382	114
1385	1
1386	1
1386	7
1387	1
1388	1
1389	1
1391	1
1392	1
1393	1
1393	53
1394	1
1396	1
1397	1
1398	1
1398	46
1399	1
1400	1
1400	17
1401	1
1401	9
1404	1
1405	1
1407	1
1408	1
1409	1
1410	1
1410	177
1411	1
1411	17
1415	1
1417	1
1418	1
1418	17
1421	1
1421	17
1423	1
1424	1
1424	12
1425	1
1426	1
1427	1
1427	426
1428	32
1428	1
1429	32
1429	1
1431	1
1434	1
1436	1
1436	17
1437	168
1437	1
1438	1
1438	140
1438	103
1439	1
1441	1
1441	53
1442	1
1442	221
1442	7
1444	1
1445	1
1445	17
1446	1
1449	1
1452	1
1453	1
1453	17
1454	1
1454	75
1454	47
1455	1
1456	1
1457	1
1458	1
1459	1
1460	1
1460	17
1461	32
1461	1
1461	202
1462	1
1465	1
1467	1
1468	1
1468	7
1469	1
1471	1
1472	1
1472	75
1472	47
1473	1
1475	1
1475	17
1476	1
1476	82
1476	12
1478	1
1478	12
1480	1
1481	1
1482	1
1482	101
1482	9
1483	1
1483	17
1484	80
1484	1
1485	1
1485	47
1487	1
1489	1
1489	17
1490	1
1490	17
1491	1
1492	1
1492	346
1493	1
1493	17
1494	208
1494	1
1494	12
1495	1
1497	1
1498	1
1499	1
1499	82
1499	12
1500	1
1501	1
1502	1
1503	1
1503	7
1506	1
1507	1
1508	1
1508	114
1509	1116
1509	1
1509	12
1511	1
1512	1
1512	114
1513	1
1513	3
1513	156
1513	369
1514	1
1514	205
1516	1
1516	17
1517	1
1518	1
1519	1
1519	1042
1520	1
1521	1
1521	12
1522	1
1522	245
1522	53
1524	1
1524	27
1524	9
1525	1
1525	11
1525	21
1526	1
1526	12
1527	1
1527	17
1528	1
1529	1
1531	1
1531	12
1533	1
1534	1
1535	1
1535	46
1536	1096
1536	1
1536	59
1537	1
1538	1
1539	1
1540	1
1541	1
1541	311
1542	1
1543	1032
1543	1
1544	1
1545	1
1545	47
1546	1
1546	7
1547	1
1547	7
1548	1
1548	114
1549	1
1550	1
1551	1
1552	1
1552	17
1553	1
1554	1
1555	1
1556	1
1557	1
1558	1
1559	1
1561	1
1562	1
1562	17
1563	1
1563	334
1563	7
1564	1
1565	1
1565	39
1566	1
1566	7
1567	1
1568	1
1569	1
1570	1
1571	1
1572	1
1574	1
1574	101
1574	9
1575	1
1577	1
1578	1
1578	114
1578	223
1579	1
1580	1
1582	1
1583	1
1583	12
1585	1
1586	1
1587	1
1587	53
1588	1
1589	1
1590	1
1590	12
1591	1
1592	1
1592	17
1593	103
1593	1
1593	115
1593	65
1594	1
1595	1
1597	1
1597	159
1598	1
1598	203
1598	17
1600	1
1600	7
1601	32
1601	1
1601	202
1603	1
1604	1
1605	1
1605	17
1608	1
1609	1
1609	101
1609	9
1611	1
1613	1
1614	1
1614	12
1615	312
1615	1
1616	1
1617	32
1617	1
1618	1
1620	1
1621	1
1622	1
1623	1
1624	1
1624	12
1625	1
1626	1360
1626	1
1626	47
1627	1
1628	1
1629	1
1630	1
1631	1
1631	250
1632	1
1633	1
1635	1
1636	1
1637	1
1637	10
1638	1
1639	1
1640	1
1641	1
1642	1
1642	17
1643	1
1644	1
1645	1
1646	1
1646	12
1647	1
1647	12
1648	1
1649	1
1650	1
1650	221
1650	7
1651	1
1652	1
1653	1
1653	82
1653	12
1654	1
1656	1
1656	17
1657	1
1658	1
1660	1
1660	82
1660	12
1661	1
1662	1
1663	1
1663	65
1664	1
1665	1
1665	15
1666	1
1668	1
1668	9
1669	1
1669	250
1672	1
1672	19
1672	95
1673	1
1677	1
1677	2
1679	1
1679	2
1680	1
1683	1
1684	1
1684	218
1685	1
1687	1
1687	1686
1688	1
1688	1686
1689	3
1690	3
1691	3
1692	3
1693	1
1695	1
1695	1694
1696	1
1696	1694
1697	209
1697	19
1698	5
1700	1
1701	1
1701	227
1702	1
1702	7
1703	1
1703	7
1704	1
1704	7
1705	16
1705	1
1706	160
1706	1
1707	383
1708	1
1710	33
1710	1709
1710	1
1712	200
1712	1
1713	1
1713	1422
1714	1
1714	1422
1715	1
1716	1
1717	8
1718	8
1720	1
1721	1
1723	1
1723	2
1724	1
1725	1
1726	1
1733	1
1734	1
1737	1
1737	107
1738	1
1738	107
1739	1
1740	1
1740	107
1741	1
1745	1
1746	1
1747	1
1748	1
1749	1
1750	1
1751	1
1751	210
1752	1
1753	1
1753	210
1754	1
1755	1
1755	107
1756	1
1756	1730
1757	1
1759	1
1760	1
1760	191
1762	1
1763	1
1764	42
1765	1
1767	9
1768	9
1769	9
1771	1
1772	360
1773	24
1773	1
1775	10
1776	1
1777	1
1780	11
1782	1
1782	11
1782	1435
1785	1
1785	13
1786	1
1786	13
1788	25
1788	44
1790	14
1791	1
1791	14
1792	1
1792	14
1793	1
1794	1
1795	21
1796	11
1796	1515
1797	180
1798	16
1798	1
1799	16
1799	1
1802	1
1802	36
1803	1
1803	19
1804	1
1804	442
1805	1
1806	40
1808	1
1808	19
1810	1
1810	19
1811	1
1811	19
1811	1809
1813	1
1813	19
1815	1
1816	1
1817	101
1819	1
1819	286
1821	9
1822	1
1822	123
1822	121
1823	1
1824	75
1825	11
1825	21
1826	1
1826	11
1826	396
1826	21
1827	1
1827	11
1827	21
1828	11
1828	21
1831	21
1832	1
1832	11
1832	21
1832	1515
1833	396
1833	21
1834	21
1837	1
1837	313
1838	1
1838	36
1840	1
1840	23
1842	1
1842	23
1844	23
1845	1
1845	23
1847	1
1847	25
1854	24
1854	1
1855	24
1855	1
1860	1
1861	25
1861	1
1862	25
1863	1
1863	25
1864	25
1865	25
1866	25
1866	447
1867	25
1867	1
1868	9
1869	1
1870	10
1871	1
1871	14
1873	1
1874	1
1875	1
1875	45
1876	1
1876	151
1879	1
1880	1
1881	1
1881	154
1882	40
1882	1
1883	1
1888	1
1889	1
1890	1
1891	1
1891	173
1891	126
1892	1
1894	1
1895	1
1897	1
1899	1
1901	1
1902	1
1905	1
1906	1
1906	173
1907	1
1907	335
1908	1
1908	154
1909	1
1911	1
1912	1
1913	1
1914	1
1915	1
1915	45
1916	1
1917	1
1918	1
1918	45
1920	1
1921	1
1922	1
1923	1
1924	1
1925	1
1925	45
1926	1
1927	1
1928	1
1929	1
1929	151
1931	40
1931	1
1932	1
1932	305
1933	1
1933	234
1934	1
1935	1
1936	1
1936	154
1939	1
1940	296
1940	1
1941	1
1942	1
1943	1
1944	1
1945	1
1946	1
1946	335
1946	151
1952	1
1953	1
1955	1
1956	1
1958	1
1960	1
1961	1
1962	1
1963	1
1963	45
1964	1
1965	1
1966	1
1966	1954
1966	45
1966	409
1967	1
1968	1
1968	45
1969	1
1970	1
1970	45
1971	1
1972	1
1973	1
1973	139
1975	1
1976	1
1977	1
1978	1
1979	1
1980	1
1981	1
1981	45
1982	1
1982	45
1983	1
1984	1
1985	1
1986	1
1987	1
1987	242
1988	1
1990	1
1991	1
1992	1
1993	40
1993	1
1994	1
1996	1
1997	1
1998	1
1999	1
2000	1
2000	45
2002	40
2002	1
2005	1
2006	1
2008	1
2009	1
2009	151
2010	1
2012	1
2013	1
2014	1
2015	1
2016	1
2018	1
2019	1
2021	1
2022	1
2022	1954
2022	409
2024	1
2025	1
2026	1
2026	45
2027	1
2028	40
2028	1
2029	1
2030	1
2031	1
2031	173
2032	1
2033	1
2035	1
2036	1
2036	45
2037	1
2037	45
2038	1
2039	40
2039	1
2040	1
2041	1
2042	1
2042	228
2044	1
2044	139
2046	1
2047	1
2048	1
2049	296
2049	1
2051	1
2052	1
2053	1
2054	1
2055	1
2056	1
2056	189
2057	1
2058	1
2059	1
2062	1
2064	115
2065	1
2065	85
2066	5
2067	40
2068	1
2069	1
2070	9
2071	1
2072	1
2073	383
2075	176
2076	1
2077	1
2079	3
2080	326
2081	1
2083	1
2083	100
2084	1
2086	9
2086	1099
2089	1
2089	19
2092	49
2093	9
2093	27
2094	9
2094	27
2095	1
2095	27
2095	9
2097	1
2097	7
2098	202
2099	89
2102	1
2102	29
2103	1
2103	29
2105	1
2105	29
2107	1581
2107	38
2108	9
2109	1
2109	19
2110	1
2111	1
2111	36
2112	25
2112	44
2114	1
2115	304
2116	1
2117	40
2117	2003
2118	1
2118	2
2119	1
2119	286
2124	144
2124	123
2126	1
2128	1
2129	1
2130	144
2130	1
2131	1
2135	9
2138	2136
2138	33
2138	1
2141	1
2142	1
2145	1
2145	69
2145	14
2148	1
2148	19
2149	1
2152	34
2153	34
2155	1
2155	2154
2156	1
2158	35
2159	1
2159	35
2160	35
2161	1
2162	1
2163	1
2163	19
2164	1
2164	19
2165	1
2165	19
2166	1
2166	19
2169	1
2169	36
2170	1
2170	36
2171	1
2171	36
2172	1
2172	36
2174	1
2174	36
2175	1
2175	36
2176	1
2176	36
2177	1
2177	36
2178	1
2178	36
2180	1
2180	36
2182	1
2182	36
2183	3
2184	3
2188	3
2188	156
2189	3
2191	3
2192	369
2192	3
2193	3
2194	3
2195	3
2197	3
2200	3
2201	3
2202	3
2203	3
2204	3
2205	3
2206	3
2207	3
2207	156
2207	2198
2208	3
2209	3
2209	196
2210	1
2210	13
2211	248
2212	1
2212	36
2213	1
2215	1
2216	1
2218	1
2218	36
2219	1
2219	76
2220	1
2221	1
2222	1
2223	1
2224	1
2225	1
2226	38
2227	38
2228	1
2228	76
2229	40
2230	1
2232	40
2233	40
2235	40
2235	1948
2236	40
2236	287
2237	40
2237	287
2238	40
2239	40
2239	287
2240	40
2241	40
2242	40
2243	40
2245	1
2245	67
2246	1
2247	1
2247	11
2248	153
2248	1
2249	1
2251	41
2252	41
2254	1
2254	52
2256	1
2257	1
2258	1
2259	44
2261	1
2261	44
2262	44
2263	44
2264	1
2266	1
2267	1
2268	402
2269	1
2270	25
2270	44
2271	25
2271	44
2271	81
2272	25
2272	44
2273	85
2274	1
2275	12
2276	33
2276	1
2277	1
2278	136
2279	1
2279	36
2281	335
2282	47
2284	3
2285	1464
2285	1
2287	46
2288	1
2289	1
2291	1
2293	1
2294	1
2295	1
2295	36
2298	1
2300	9
2300	1
2301	65
2302	38
2303	1
2303	52
2304	1
2304	91
2304	52
2305	65
2306	49
2307	49
2310	1
2311	1
2311	221
2312	32
2312	202
2313	50
2314	50
2315	1
2316	1
2317	373
2319	1
2322	1
2323	1
2323	1372
2324	1
2325	207
2328	1
2329	335
2330	1
2330	69
2332	1
2332	52
2334	1
2334	52
2335	1
2335	52
2336	1
2337	1
2338	1
2340	7
2341	7
2342	1215
2342	7
2343	7
2344	7
2345	7
2347	1
2349	1
2352	1
2353	1
2354	1
2355	1
2357	1
2358	1
2360	1
2361	1
2362	1
2363	1
2364	1
2368	1
2369	1
2370	1
2372	1
2373	1
2374	1
2375	1
2375	2350
2376	1
2379	1
2380	1
2381	1
2381	85
2383	1
2384	1
2385	1
2385	85
2386	1
2386	2365
2387	1
2388	1
2389	144
2390	1
2391	1
2393	435
2395	1
2396	1
2397	115
2399	169
2400	1
2401	183
2402	1
2403	1
2406	1
2408	62
2409	1
2409	25
2410	1
2413	1
2413	36
2415	36
2416	36
2417	1
2417	36
2418	1
2418	2411
2418	36
2419	1
2419	36
2420	1
2421	1
2421	7
2422	11
2423	1
2423	29
2424	1
2425	1
2426	1
2427	136
2428	1
2429	207
2430	1
2431	1
2431	214
2432	9
2433	1
2433	270
2433	33
2434	42
2435	42
2436	42
2437	273
2437	42
2438	9
2439	169
2440	269
2441	1
2442	9
2442	27
2443	1
2443	227
2444	1
2446	1
2447	1
2448	1
2448	118
2450	1
2452	56
2453	56
2454	56
2455	56
2457	1
2457	2
2459	21
2462	1
2462	2
2463	1
2463	36
2464	57
2465	1
2467	1
2468	1
2468	518
2469	1
2470	1
2470	1599
2471	1
2471	173
2473	1
2474	1
2476	1
2476	13
2477	1
2478	1
2479	1
2480	1
2481	1
2482	1
2484	1
2484	76
2485	304
2486	1
2486	420
2486	76
2487	1
2487	67
2487	521
2493	1
2493	2492
2494	1
2494	2492
2495	1
2496	1
2498	1
2499	62
2500	1
2502	1
2503	1
2504	63
2505	63
2506	63
2507	172
2508	25
2509	8
2509	1
2514	101
2514	1071
2515	1
2517	1
2517	23
2518	6
2518	79
2519	40
2520	40
2521	1
2522	1
2523	64
2523	1671
2524	1
2526	1
2526	2525
2529	65
2531	65
2532	65
2532	1
2536	1
2537	1
2537	66
2540	1
2542	1
2543	28
2544	386
2544	171
2545	1
2546	1
2546	2
2547	1
2548	25
2548	44
2549	1
2550	1
2553	1
2555	49
2555	1
2556	1
2557	21
2558	1
2558	36
2560	11
2560	21
2562	11
2562	21
2563	11
2563	21
2564	11
2564	21
2565	11
2565	21
2566	1
2566	11
2566	21
2567	1
2568	1
2568	268
2568	153
2569	1
2570	1784
2570	1
2571	1784
2571	1
2571	13
2572	64
2572	1
2572	71
2573	1
2574	1
2574	52
2574	257
2575	1
2575	173
2578	1
2578	2577
2579	1
2580	1
2582	1
2582	2
2582	2581
2583	1
2583	2
2583	2581
2584	1
2585	1
2585	228
2587	1
2587	218
2588	1
2588	218
2589	264
2589	6
2591	1
2594	1
2596	9
2597	1
2597	36
2598	304
2599	1
2599	337
2600	1
2601	1
2602	1
2603	21
2604	1
2604	11
2604	21
2605	1
2605	11
2605	21
2606	1
2606	11
2606	21
2607	1
2607	11
2607	21
2608	21
2610	21
2611	1
2611	11
2611	21
2613	21
2614	1
2614	11
2614	21
2615	72
2615	1
2616	1
2617	1
2618	1
2618	74
2619	74
2620	1
2620	74
2621	74
2622	1
2622	74
2623	2512
2623	1
2623	74
2626	74
2628	1
2628	52
2628	257
2629	1
2629	52
2629	257
2630	1
2630	52
2630	257
2631	1
2631	52
2631	257
2632	1
2633	1
2633	189
2635	1
2635	76
2636	1
2636	306
2637	88
2638	9
2639	1
2639	1849
2640	276
2641	1
2642	103
2643	1
2644	1
2646	144
2646	123
2648	9
2649	1
2649	323
2650	9
2651	75
2652	75
2653	383
2654	1
2654	2
2654	1201
2655	65
2656	1
2656	76
2658	1
2658	76
2659	1
2660	114
2661	1
2662	1
2662	76
2663	1
2664	1
2665	1
2666	1
2666	76
2667	151
2668	1
2669	1
2670	1
2670	36
2673	242
2675	97
2677	1
2678	9
2679	1
2679	34
2680	1
2680	34
2680	19
2681	34
2683	34
2684	1
2686	1
2687	1
2687	173
2688	1
2688	389
2688	7
2689	1
2689	7
2690	1
2691	1
2692	1
2693	1
2693	7
2694	1
2695	1
2695	7
2696	1
2697	1
2698	1
2698	7
2699	1
2700	1
2701	1
2702	1
2703	1
2704	1
2704	7
2705	1
2705	22
2706	1
2707	1
2707	221
2708	1
2709	1
2710	1
2711	1
2712	1
2713	1
2713	7
2714	1
2715	1
2716	1
2716	7
2718	1
2718	50
2719	1
2719	7
2720	1
2721	1
2721	7
2722	1
2722	7
2723	1
2724	1
2725	1
2726	1
2726	7
2727	1
2727	7
2728	1
2729	1
2730	1
2731	1
2731	7
2732	1
2733	1
2734	1
2735	1
2735	7
2736	1
2736	290
2737	1
2738	1
2739	11
2740	32
2740	202
2741	1
2743	1
2744	1
2744	420
2744	76
2747	40
2748	40
2749	40
2750	40
2751	40
2752	1
2752	332
2753	1
2754	79
2756	46
2757	1
2758	25
2760	1
2761	1
2762	1
2763	344
2763	290
2765	1
2765	118
2767	1
2768	1
2770	1
2770	451
2771	1
2771	337
2772	1
2773	1
2774	1
2774	19
2775	80
2776	1
2778	338
2779	1
2780	1
2781	25
2782	25
2783	25
2784	25
2785	25
2786	25
2787	1
2787	1678
2788	1
2788	195
2789	1
2790	1634
2790	21
2793	101
2793	1071
2794	1
2795	1
2795	76
2797	1
2798	1
2798	85
2799	1
2800	1
2801	413
2802	1
2803	157
2804	1
2804	2
2805	121
2806	1
2806	411
2808	1
2810	1
2811	1
2811	87
2812	1
2812	87
2814	1073
2814	292
2814	269
2815	40
2816	40
2817	40
2819	40
2819	333
2820	40
2821	40
2821	1
2823	40
2824	40
2825	40
2826	40
2826	1
2827	40
2828	40
2829	40
2831	1
2831	1074
2831	11
2832	1
2833	1
2835	1
2836	1
2837	1
2838	8
2838	1
2838	191
2839	1
2841	2840
2841	1
2842	1
2843	139
2844	1
2844	76
2845	1
2846	32
2847	89
2847	9
2848	89
2849	89
2849	9
2851	90
2852	90
2853	25
2853	44
2854	25
2854	44
2855	44
2856	369
2857	1
2858	1
2859	1
2859	2
2860	1
2861	1
2862	1
2864	200
2864	1
2864	36
2865	1
2865	118
2866	9
2867	1
2867	52
2868	1
2869	9
2871	1
2871	67
2872	1
2873	1
2875	1
2877	92
2878	92
2879	92
2880	1
2881	1
2881	93
2882	1
2883	342
2884	40
2885	1
2886	1
2887	71
2888	71
2889	32
2891	114
2893	1
2893	118
2894	47
2896	1
2897	348
2898	1
2899	1
2899	2460
2903	1
2904	1
2906	1
2907	1
2908	1
2909	205
2910	1
2912	185
2912	1
2913	1
2914	1
2915	1
2916	1
2917	1
2918	1
2919	1
2919	366
2920	1
2921	1
2922	1
2923	1
2924	1
2925	94
2926	1
2926	94
2927	1
2929	1
2931	1
2931	95
2932	1
2932	19
2932	95
2934	1
2935	1
2935	29
2936	1
2939	1
2940	1
2940	118
2941	1
2942	25
2943	1
2944	334
2945	1
2945	2
2946	36
2947	9
2948	1
2949	1
2949	97
2950	1
2951	10
2952	1
2952	151
2953	1
2953	36
2954	1
2955	1
2956	3
2957	1464
2957	1
2959	1
2960	331
2961	2392
2961	1
2964	1
2965	45
2968	1
2970	1
2970	254
2971	100
2972	1
2972	100
2974	1
2975	1
2976	1
2977	1
2977	2538
2978	25
2979	1
2979	2
2979	2283
2980	1
2981	1
2983	9
2983	27
2984	9
2984	27
2985	9
2985	27
2986	9
2986	27
2987	1
2989	1
2991	1
2992	1
2993	11
2994	1
2995	11
2996	1
2996	36
2997	64
2998	207
2999	1
3000	1
3001	335
3002	1
3004	65
3006	65
3006	342
3006	1
3007	1088
3007	1
3008	1088
3008	1
3009	1088
3009	1
3010	1088
3010	1
3012	1
3013	1
3015	32
3016	1
3018	1
3019	88
3020	1
3021	47
3022	1
3022	103
3023	103
3024	1
3024	103
3025	1
3025	103
3027	1
3027	140
3027	103
3028	415
3029	160
3029	1
3030	1
3031	64
3032	1
3033	1
3033	14
3034	348
3035	136
3035	1129
3036	1
3038	142
3039	142
3040	1
3042	415
3043	1
3044	80
3045	105
3046	89
3046	9
3048	1
3049	1
3051	171
3052	1
3052	76
3053	9
3054	1
3055	1
3057	7
3058	7
3060	1
3060	3059
3060	36
3062	1464
3062	1
3062	76
3063	1
3064	1
3064	13
3065	42
3067	1
3068	1
3068	2
3068	267
3069	1
3070	1
3071	1
3072	1
3073	1
3074	75
3075	80
3076	80
3077	1
3079	90
3081	71
3082	1
3083	46
3084	46
3085	1
3086	1
3086	2
3086	374
3087	1
3087	292
3088	9
3091	1
3092	1
3093	1
3094	1
3095	1
3096	36
3098	15
3099	1
3100	1
3100	107
3101	47
3102	1
3102	116
3103	1
3103	25
3104	1
3105	1
3106	304
3106	1
3107	1
3108	1
3109	1
3110	1
3113	3112
3113	108
3114	3112
3114	108
3115	1
3116	337
3116	1
3117	1
3117	36
3119	139
3119	1910
3120	1
3121	1
3122	1
3122	118
3122	270
3124	1
3125	222
3127	1
3128	226
3130	121
3131	1
3132	110
3133	110
3134	110
3136	1
3136	19
3138	1
3139	1
3140	1
3141	1
3142	1
3142	111
3143	1
3143	91
3143	52
3144	1
3144	91
3144	52
3148	1
3149	1
3150	10
3151	1
3152	1
3153	1
3154	1
3155	1
3155	36
3156	1
3157	1
3158	402
3160	1
3161	1
3162	1
3163	1
3164	1
3164	2
3164	267
3165	1
3166	1
3167	1
3168	1
3168	1422
3169	1
3170	1
3171	10
3172	1
3173	1
3173	213
3173	25
3174	1
3175	1
3176	1
3176	213
3176	25
3177	1
3177	25
3178	1
3178	25
3179	1
3180	1
3181	1
3181	25
3182	1
3183	1
3184	1
3184	25
3185	1
3185	25
3186	1
3186	25
3187	1
3187	25
3188	156
3189	305
3191	1
3192	114
3193	64
3193	1
3193	180
3195	64
3195	1
3195	71
3196	64
3196	1
3196	71
3198	64
3198	71
3199	64
3200	64
3201	64
3201	1
3201	71
3202	1
3202	116
3203	11
3204	1
3205	1
3205	3147
3207	25
3208	25
3209	25
3210	25
3212	331
3214	140
3215	32
3216	373
3216	151
3217	1
3218	1
3219	547
3220	114
3220	223
3222	1
3223	115
3225	115
3226	115
3227	3224
3227	115
3228	1
3230	116
3231	116
3232	1
3232	116
3232	3229
3233	1
3233	116
3234	1
3235	1
3236	1
3237	103
3239	171
3240	1
3241	1
3241	118
3242	1
3242	228
3243	369
3244	11
3247	1
3247	542
3248	1
3249	92
3250	92
3252	9
3253	32
3253	99
3255	32
3256	32
3256	99
3257	32
3258	32
3259	32
3260	32
3261	32
3261	99
3262	1
3263	1
3264	1
3264	34
3266	1
3267	1
3270	1
3270	126
3271	1
3272	1
3273	1
3274	1
3274	218
3275	248
3275	1
3275	42
3276	1
3276	42
3277	1
3277	42
3280	1
3281	1
3281	118
3281	33
3283	1
3283	118
3284	63
3285	117
3286	21
3288	1
3289	33
3289	1
3292	1
3293	1
3293	9
3295	1
3296	335
3297	1
3298	1
3299	1
3300	25
3300	1
3301	1
3303	1
3304	120
3305	1
3306	10
3306	119
3308	386
3309	9
3310	1
3310	100
3311	40
3312	1
3313	1
3314	1
3315	120
3316	452
3317	452
3320	1
3321	94
3322	114
3323	1
3324	1
3325	1
3326	1
3326	35
3328	9
3330	9
3332	9
3333	9
3334	9
3335	1
3336	1
3337	1
3338	1
3339	1
3339	52
3340	1
3340	29
3341	1
3341	29
3343	1
3343	108
3344	1
3344	108
3345	1
3345	76
3348	1
3348	19
3349	1
3350	1
3352	1
3353	9
3354	1
3355	1
3356	60
3358	1
3359	32
3359	202
3360	1
3360	126
3361	126
3362	1
3362	1694
3363	1
3365	1
3365	3364
3367	1
3367	3366
3369	1
3369	25
3370	53
3371	1
3373	1
3375	1
3377	1
3377	14
3378	1
3379	1
3380	1
3380	2173
3381	319
3382	80
3383	1
3384	101
3385	32
3388	1
3390	1
3390	2674
3391	1
3391	36
3392	1
3393	40
3394	1
3394	286
3395	1
3395	25
3397	1
3397	131
3398	1
3398	131
3399	1
3399	131
3400	1
3400	131
3402	1
3402	131
3402	95
3403	1581
3403	38
3404	1
3404	218
3405	1
3405	276
3406	1
3406	11
3407	1
3407	76
3407	135
3408	1
3409	1
3409	132
3410	1
3410	132
3411	133
3412	133
3413	1
3414	1
3414	411
3415	1
3416	134
3417	65
3418	1
3419	10
3420	1
3421	1
3422	147
3423	1
3424	1
3425	25
3426	1
3428	1
3429	1
3430	1
3430	36
3432	10
3433	1
3434	1
3434	2
3434	374
3435	34
3436	21
3437	136
3437	1129
3437	1141
3438	136
3438	1141
3439	1
3439	13
3440	33
3440	1
3441	1
3443	24
3443	1
3445	9
3446	1
3446	109
3447	1
3448	1
3449	32
3450	64
3451	1
3451	337
3452	1
3453	1
3454	1
3454	3011
3455	1
3455	423
3456	1
3456	337
3457	1
3458	1
3458	36
3459	1
3459	76
3459	135
3460	1
3460	76
3460	135
3461	1
3461	76
3461	135
3462	1
3463	196
3464	1
3465	1
3466	10
3467	76
3467	1
3467	132
3468	85
3470	1
3471	3
3472	3
3474	1
3475	1
3476	1
3480	40
3481	1
3482	1
3484	269
3485	1
3486	1
3487	1
3489	1
3489	138
3490	1
3491	1
3493	139
3494	1
3495	1
3495	111
3496	1
3497	1
3497	319
3497	71
3498	1
3500	1
3500	76
3500	135
3501	89
3501	9
3502	89
3502	9
3503	89
3503	9
3504	89
3504	9
3505	60
3506	1
3506	1219
3506	118
3507	1
3507	118
3509	1
3509	118
3510	1
3510	118
3511	1
3511	118
3512	1
3512	254
3512	118
3513	1
3513	118
3514	1
3514	118
3515	1
3515	118
3516	1
3516	118
3517	74
3518	1
3520	103
3521	103
3522	103
3523	103
3524	1
3526	1
3527	1
3529	1
3529	417
3530	1
3530	254
3531	1
3531	36
3532	1
3532	36
3532	29
3532	337
3533	1
3533	36
3533	1359
3534	1
3534	36
3535	1
3535	36
3536	1
3536	36
3537	1
3537	36
3538	1
3538	36
3538	1359
3540	40
3541	1
3541	52
3543	1
3543	214
3544	207
3546	75
3547	9
3548	1
3548	91
3549	123
3551	114
3552	335
3554	140
3555	154
3556	1
3556	141
3557	1
3557	141
3557	126
3558	1
3558	141
3559	1
3559	411
3560	142
3561	142
3562	142
3563	142
3564	142
3565	1
3566	1
3566	44
3566	255
3567	1
3567	44
3569	1
3570	1
3571	1
3571	682
3572	1
3572	226
3573	1
3574	1
3575	1
3575	226
3576	1
3577	1
3577	44
3577	255
3578	1
3579	1
3580	1
3581	1
3582	1
3583	1
3584	1
3585	1
3586	1
3587	1
3588	1
3588	255
3589	1
3589	226
3590	1
3591	1
3592	1
3593	1
3594	1
3595	1
3598	25
3599	25
3600	146
3600	117
3601	335
3602	1
3603	144
3603	1
3603	123
3604	144
3604	123
3605	392
3606	1
3607	1
3609	1
3610	1
3611	1
3612	1
3612	29
3613	8
3613	1
3614	146
3615	1
3616	65
3617	396
3619	333
3620	1
3623	147
3624	147
3625	1
3626	171
3627	114
3628	114
3629	114
3629	1307
3630	1
3632	1
3633	1
3634	1
3635	1
3636	1
3637	1
3638	1
3639	1
3641	1
3641	276
3643	1
3643	85
3644	1
3644	85
3645	1
3646	1
3646	276
3647	1
3648	1
3649	1
3651	1
3653	1
3654	1
3655	1
3656	1
3656	173
3657	1
3658	1
3659	1
3660	21
3661	1
3663	1
3664	1
3665	1
3666	1
3666	173
3667	1
3668	1
3669	1
3669	173
3670	1
3671	1
3672	1
3672	1686
3674	1
3674	1686
3675	1
3676	1
3676	173
3677	1
3678	1
3679	1
3679	173
3680	1
3681	1
3682	1
3684	158
3685	1
3687	33
3687	1
3688	11
3690	151
3691	151
3692	1
3692	151
3693	151
3694	265
3694	2394
3695	1
3697	292
3698	1
3699	1
3700	9
3701	1
3702	152
3702	1
3703	152
3704	152
3706	1
3706	3246
3711	1
3711	76
3711	135
3712	1
3713	153
3714	1
3714	35
3715	1
3715	35
3716	9
3717	1
3717	19
3718	19
3719	1
3719	19
3719	95
3720	1
3720	19
3721	1
3721	19
3722	19
3723	1
3723	19
3723	95
3724	1
3724	19
3724	95
3726	1
3726	19
3727	1
3727	19
3728	1
3728	19
3729	1
3729	19
3730	339
3730	1
3730	34
3730	19
3731	19
3732	1
3732	19
3733	1
3733	19
3734	1
3734	19
3735	1
3735	19
3735	209
3736	1
3736	19
3737	154
3738	154
3740	1
3740	218
3742	297
3744	1
3745	1
3746	10
3747	1
3748	23
3749	23
3750	1
3750	23
3751	1
3752	1
3753	1
3753	67
3754	64
3754	1
3754	415
3755	1
3759	1
3761	1
3763	1
3764	21
3765	1
3765	265
3766	1
3768	1
3768	13
3769	1
3769	2497
3771	1
3771	153
3772	1
3773	1
3773	411
3774	34
3776	1
3776	34
3777	34
3778	34
3779	34
3780	34
3781	156
3782	1
3782	21
3782	3553
3784	6
3784	79
3785	1
3785	76
3786	1
3787	1
3788	6
3789	6
3790	6
3790	79
3791	264
3791	6
3793	21
3794	1
3794	69
3794	14
3795	158
3796	1
3796	157
3799	1
3801	10
3802	40
3803	1
3804	117
3805	21
3808	418
3808	21
3810	21
3811	1
3811	21
3812	1
3812	21
3813	1
3813	418
3813	21
3813	3553
3814	1
3814	21
3815	1
3815	21
3816	1
3816	418
3816	21
3817	1
3817	21
3818	1
3818	21
3819	1
3819	21
3821	1
3821	418
3821	21
3822	21
3823	21
3823	3807
3824	1
3824	21
3825	1
3825	21
3825	158
3826	21
3827	1
3827	21
3828	1
3828	29
3829	1
3830	1
3831	1
3831	413
3832	1
3833	1
3833	2
3833	267
3834	1
3834	2
3835	1
3835	2414
3835	423
3836	32
3837	1
3837	427
3838	1
3839	1
3841	1
3843	1
3844	1
3845	1
3847	1
3847	126
3848	1
3849	1
3850	1
3851	1
3853	1
3855	1
3856	1
3857	1
3857	69
3858	1
3859	1
3859	126
3860	1
3860	2023
3861	1
3862	1
3863	1
3863	126
3864	1
3865	1
3866	1
3867	1
3868	1
3869	1
3870	1
3871	1
3872	1
3875	1
3875	310
3876	1
3878	1
3879	1
3880	1
3880	126
3881	1
3881	439
3882	1
3883	1
3883	126
3884	1
3885	1
3886	1
3886	126
3887	1
3887	3873
3888	1
3889	1
3890	1
3891	1
3892	1
3895	1
3896	1
3897	1
3897	126
3898	1
3899	1
3900	1
3901	1
3901	3873
3902	1
3903	1
3904	1
3904	69
3905	1
3907	1
3908	1
3909	1
3910	1
3911	1
3913	1
3914	1
3915	1
3916	1
3917	1
3918	1
3919	1
3920	1
3921	1
3922	1
3923	1
3924	1
3926	1
3928	160
3929	160
3929	1
3930	1
3931	117
3932	1
3934	1
3935	64
3937	1
3937	254
3938	1
3941	1
3942	1
3943	1
3945	1
3945	66
3946	1
3948	1
3948	29
3950	1464
3950	1
3950	76
3951	1
3952	1
3953	1
3953	1694
3955	1
3956	1
3956	189
3958	269
3959	185
3959	1
3960	1
3961	1
3961	1299
3962	1
3964	16
3964	1
3965	1
3966	1
3967	1
3968	36
3969	9
3970	1
3970	254
3970	118
3972	1
3972	95
3973	25
3974	1
3975	1
3975	118
3976	169
3977	170
3978	1
3979	1201
3979	2
3979	1
3980	1
3980	2
3980	1201
3981	121
3982	1
3983	156
3984	171
3985	1
3986	47
3987	47
3988	47
3989	1
3989	2759
3990	1
3991	1
3992	1
3992	238
3993	1
3994	1
3995	1
3996	456
3997	1
3998	1
4000	1
4001	1
4002	1
4003	1
4003	218
4004	1
4005	1
4005	3442
4007	1
4008	1
4010	1
4011	1
4011	36
4012	1
4013	1
4014	1
4015	1
4016	1
4016	218
4017	1
4017	2
4018	1
4019	1
4020	1
4021	1
4021	100
4022	1
4023	1
4023	2
4024	1
4025	1
4026	1
4027	1
4028	1
4029	1
4030	1
4032	1
4035	1
4036	1
4036	1299
4037	1
4038	1
4040	1
4042	1
4043	1
4045	1
4045	413
4046	1
4047	1
4047	13
4048	1
4049	1
4050	1
4051	1
4051	76
4051	135
4053	1
4054	1
4055	1
4055	138
4055	76
4056	1
4057	1
4058	1
4059	1
4060	1
4060	1297
4061	1
4062	1
4062	183
4063	1
4064	1
4065	1
4066	1
4068	1
4069	1
4070	1
4072	1
4073	1
4074	1
4074	21
4076	1
4077	1
4078	1
4080	1
4081	1
4082	1
4085	1
4086	1
4087	1
4088	1
4089	1
4089	33
4090	1
4091	1
4092	1
4093	304
4093	1
4094	2144
4094	1
4095	1
4096	1
4097	1
4098	1
4099	1
4100	1
4101	1
4101	265
4102	1
4103	1
4103	13
4104	1
4105	1
4106	1
4107	1
4107	76
4108	1
4108	76
4109	1
4112	1
4113	1
4114	1
4115	1
4116	1
4117	1
4118	1
4120	1
4120	254
4120	118
4121	1
4122	1
4122	13
4123	1
4124	1
4125	1
4126	1
4127	1
4128	1
4130	1
4130	13
4131	1
4133	1
4133	11
4134	1
4135	1
4136	1
4137	1
4138	1
4139	1
4140	1
4142	1
4142	76
4143	1
4144	1
4144	76
4145	1
4146	1
4147	1
4148	1
4149	1
4150	1
4151	1
4154	1
4154	76
4155	1
4155	76
4156	1
4157	1
4158	1
4159	1
4159	4034
4160	1
4160	254
4160	118
4161	1
4162	1
4162	100
4163	1
4163	87
4164	1
4164	36
4166	1
4167	1
4168	1
4168	2
4169	1
4171	1
4172	1
4173	1
4173	76
4173	135
4175	1
4175	1297
4176	1
4176	1676
4176	268
4179	1
4180	1
4182	1
4184	1
4185	1
4186	1
4186	36
4187	1
4188	1
4188	36
4189	1
4190	1
4191	1
4195	1
4196	1
4197	1
4198	1
4199	1
4200	1
4200	33
4201	1
4202	1
4203	1
4204	1
4205	1
4206	1
4207	1
4207	76
4210	1
4210	13
4211	1
4211	76
4212	1
4214	64
4214	1
4214	291
4215	1
4216	1
4217	1
4217	11
4218	1
4218	76
4219	1
4220	1
4220	138
4221	1
4221	3357
4223	1
4224	1
4225	1
4225	2
4226	1
4227	1
4227	76
4228	1
4229	1
4230	1
4231	1
4232	1
4234	1
4235	1
4235	11
4236	1
4236	2892
4238	1
4239	1
4240	1
4241	1
4241	4194
4241	1789
4241	33
4242	1
4243	1
4244	1
4245	1
4247	1
4248	1
4248	2
4249	1
4249	36
4250	1
4251	1
4252	1
4253	1
4254	24
4254	1
4255	1
4257	1
4257	76
4258	1
4259	1
4261	1
4263	1
4263	11
4263	21
4264	1
4265	1
4266	1
4267	1
4268	1
4269	1
4269	1219
4270	1
4272	1
4274	1
4275	1
4276	344
4276	1
4277	1
4279	1
4280	1
4280	218
4281	1
4282	1
4282	76
4284	1
4285	1
4285	2764
4286	1
4287	1
4288	1
4289	1
4290	1
4291	1
4293	1
4293	153
4295	1
4296	1
4297	1
4298	1
4298	1297
4299	1
4300	1
4300	2
4301	1
4302	1
4303	1
4303	254
4304	1
4305	1
4305	3999
4306	1
4306	100
4307	1
4307	427
4308	1
4310	1
4312	1
4313	1
4313	1709
4313	33
4314	1
4316	1
4317	1
4318	1
4319	1
4319	2764
4320	1
4321	1
4321	218
4322	1
4322	87
4323	1
4323	13
4324	1
4324	265
4327	1
4328	1
4330	1
4331	1
4332	64
4332	1
4333	1
4335	1
4336	1
4338	1
4339	1
4339	11
4339	1279
4340	1
4340	29
4340	337
4341	1
4341	138
4342	1
4343	1
4344	1
4345	1
4346	1
4347	1
4348	1
4348	33
4349	1
4350	1
4351	1
4352	1
4353	1
4354	1
4355	304
4355	1
4356	1
4357	1
4358	1
4358	76
4359	1
4360	1
4361	1
4363	1
4365	1
4366	1
4368	1
4368	286
4369	1
4370	1
4371	1
4372	1
4374	1
4375	1
4375	76
4375	135
4377	1
4377	2
4378	1
4379	1
4381	1
4381	33
4382	1
4383	1
4384	1
4385	1
4386	1
4388	1
4390	1
4391	1
4391	100
4393	1
4394	1
4395	1
4396	1
4397	1
4397	121
4398	1
4399	1
4400	1
4401	1
4402	304
4402	1
4403	1
4403	2
4403	267
4404	1
4404	33
4405	1
4406	1
4408	1
4409	1
4410	1
4411	1
4411	100
4412	1
4412	4083
4413	1
4414	1
4414	76
4415	1
4416	1
4417	1
4418	1
4419	1
4419	1297
4420	1
4420	36
4421	1
4422	1
4422	2
4423	1
4424	1
4424	87
4425	1
4426	1
4426	76
4426	135
4427	1
4427	265
4429	1
4430	1
4431	1
4432	64
4432	1
4432	3351
4432	3944
4432	415
4433	1
4434	1
4434	153
4435	1
4436	1
4436	13
4437	1
4437	29
4440	1
4441	1
4441	11
4441	21
4442	1
4443	1
4443	218
4443	1297
4444	1
4444	1676
4444	268
4444	153
4445	1
4446	1
4447	1
4448	1
4449	1
4450	1
4450	3783
4451	1
4452	1
4452	2938
4453	1
4454	1
4456	1
4457	1
4458	1
4459	1
4460	1
4461	1
4462	1
4463	1
4464	1
4465	1
4466	1
4467	1
4468	1
4469	1
4470	1
4470	36
4471	1
4471	4052
4472	1
4473	1
4474	1
4474	76
4475	1
4476	1
4476	183
4477	1
4478	1
4479	1
4479	9
4480	1
4480	1123
4481	1
4482	173
4483	1
4484	36
4485	348
4486	205
4488	1
4488	36
4489	1
4490	1
4491	1
4495	1
4497	1
4498	1
4499	1
4500	1
4501	1
4502	1
4503	1
4504	1
4505	1
4507	1
4508	1
4509	1
4510	1
4511	1
4513	1
4514	1
4515	1
4516	1
4517	1
4518	1
4519	1
4520	1
4521	1
4522	1
4522	1599
4523	1
4524	1
4525	1
4525	1599
4528	1
4530	1
4531	1
4531	2554
4532	1
4533	1
4534	1
4535	1
4536	1
4537	1
4538	1
4539	1
4540	1
4541	1
4542	1
4543	1
4544	1
4544	339
4545	1
4546	1
4547	1
4548	1
4550	1
4551	1
4552	1
4552	4364
4553	1
4553	19
4554	1
4555	1
4556	1
4558	1
4559	1
4560	1
4561	1
4562	1
4563	1
4564	1
4564	19
4565	1
4566	1
4567	1
4568	1
4569	1
4570	1
4571	1
4572	1
4573	1
4574	1
4575	1
4576	1
4578	1
4579	1
4580	1
4582	1
4583	177
4584	177
4585	415
4586	1
4587	1
4588	33
4588	2458
4588	1
4590	1
4592	1
4592	1887
4593	1
4594	164
4595	1
4597	121
4598	25
4599	1
4600	1
4601	1
4601	36
4602	1
4603	1
4604	1
4604	2
4605	101
4606	1
4608	1
4608	66
4610	1
4610	36
4611	1
4612	33
4612	1709
4612	1
4613	33
4613	1709
4613	1
4614	1
4615	183
4616	348
4618	38
4619	1
4620	101
4621	11
4622	1
4622	1219
4623	1
4623	1219
4624	188
4625	7
4626	7
4628	276
4629	1
4630	1
4631	1
4632	1
4633	1
4633	2525
4634	10
4635	191
4636	1676
4636	268
4637	1
4638	1
4639	185
4639	36
4639	1
4640	1
4641	1
4642	1
4643	1
4644	1
4645	1
4646	1
4647	1
4648	1
4649	1
4650	1
4650	1505
4651	1
4652	1
4653	1
4654	1
4655	1
4655	19
4656	1
4656	1812
4657	1
4658	1
4659	1
4659	19
4660	1
4661	144
4661	1
4662	144
4662	1
4663	144
4663	1
4664	144
4665	38
4666	1
4667	11
4668	16
4668	1
4670	1
4671	1
4672	269
4673	1
4674	123
4675	157
4676	1
4677	1
4678	1
4679	191
4680	191
4681	3080
4681	191
4682	1
4682	2766
4683	169
4684	169
4685	195
4686	1
4687	1
4690	16
4690	1
4691	16
4691	1
4692	16
4692	1
4693	16
4693	1
4695	269
4697	1
4698	1
4699	1
4700	1
4701	71
4702	1
4703	94
4704	1
4704	337
4705	64
4706	64
4707	290
4708	41
4709	1
4709	2074
4710	40
4711	1
4712	1
4712	46
4713	10
4714	10
4715	10
4716	10
4717	10
4718	1
4720	180
4722	101
4723	136
4724	1
4725	1
4727	9
4728	1
4728	97
4731	1
4732	1
4733	1
4734	200
4734	1
4734	36
4735	200
4737	1
4737	201
4738	1
4738	201
4739	32
4739	202
4740	123
4741	1
4742	269
4743	1
4744	1
4744	319
4744	71
4745	1
4746	1
4747	204
4748	10
4749	10
4750	10
4751	10
4752	10
4753	1
4754	158
4755	1
4756	1
4757	1
4758	1
4759	1
4760	1
4761	1
4762	1
4763	1
4764	1
4765	1
4766	1
4767	1
4768	1
4769	1
4770	1
4771	1
4772	1
4773	1
4775	1
4776	1
4776	4194
4777	1
4778	1
4779	1
4780	1
4780	3957
4781	1
4782	1
4782	2
4783	1
4783	2
4783	267
4784	1
4784	2
4785	1
4786	1
4786	107
4787	2104
4787	1
4788	1
4788	67
4789	1
4790	1
4792	123
4793	1
4793	38
4793	9
4794	1
4795	1
4796	9
4797	1
4797	211
4798	207
4799	154
4800	1
4801	1
4801	211
4802	144
4803	144
4804	1
4805	212
4806	236
4807	1
4808	126
4809	126
4810	126
4811	126
4812	1
4813	66
4814	1
4814	2321
4815	1
4815	2321
4816	176
4817	1
4818	1
4819	11
4820	136
4821	1
4823	1
4823	2
4824	1
4824	2
4825	25
4827	9
4829	1
4829	254
4829	118
4830	136
4831	40
4832	9
4833	1
4834	1
4835	9
4836	1
4837	269
4838	222
4839	222
4840	33
4840	1
4841	1
4841	36
4842	15
4843	15
4844	1
4845	1
4846	21
4849	33
4849	1
4850	1
4851	465
4852	1
4853	136
4854	1
4855	10
4856	121
4857	227
4859	1
4861	25
4862	1
4862	228
4864	1
4865	229
4866	229
4867	229
4869	1
4870	1
4871	1
4872	10
4873	1
4874	1
4874	337
4875	136
4875	1129
4876	315
4877	11
4878	171
4879	1
4879	36
4880	305
4882	1
4883	1
4884	1
4885	121
4885	2863
4886	121
4888	11
4889	1
4890	121
4890	3346
4892	1
4893	1
4894	1
4895	1
4896	1
4897	1
4898	1
4899	1
4900	1
4901	1
4902	1
4903	1
4904	1
4905	1
4906	1
4907	1
4908	1
4909	1
4910	1
4911	1
4912	1
4913	1
4916	30
4917	1
4918	242
4919	234
4920	1
4921	1
4921	74
4922	248
4922	1
4923	1
4923	74
4924	1
4925	2136
4925	33
4925	1
4926	1
4928	1
4928	2414
4929	1
4931	242
4932	1
4934	1
4934	52
4935	9
4936	1
4936	36
4938	1
4939	101
4940	1
4941	32
4942	376
4942	1
4942	36
4943	1
4944	1
4945	1
4946	236
4948	1
4948	118
4950	1
4950	118
4951	1
4951	118
4952	1
4952	118
4953	1
4953	118
4954	1
4954	4949
4954	118
4955	1
4955	118
4956	292
4957	33
4957	1
4958	269
4959	21
4960	1
4960	1731
4961	1
4962	1
4964	1
4965	46
4966	46
4967	11
4968	1
4969	114
4970	1
4971	242
4972	94
4973	1
4973	337
4974	1
4975	1
4975	29
4976	1
4977	1
4978	1
4978	29
4979	1
4979	29
4980	1
4981	1
4982	1
4984	1
4984	289
4985	1
4986	1
4986	29
4987	1
4987	29
4988	1
4989	1
4989	29
4990	1
4991	1
4991	29
4992	1
4992	29
4992	3597
4993	1
4993	29
4994	1872
4994	1
4995	1
4996	1
4996	29
4997	1
4998	1
4999	1
5000	1
5000	36
5001	1
5002	1
5003	1
5003	4170
5003	29
5004	1
5005	1
5006	1872
5006	1
5007	1
5007	29
5008	1
5009	1
5010	1
5010	337
5011	1
5012	9
5013	121
5014	1
5015	1
5016	1
5017	32
5018	222
5019	1
5020	244
5021	247
5022	247
5023	1
5023	118
5024	248
5025	248
5026	1
5027	136
5028	1
5029	171
5030	32
5031	64
5032	1
5034	202
5035	1
5036	136
5037	9
5039	462
5040	33
5040	1
5043	1
5044	1
5045	65
5046	1
5046	1774
5047	1
5048	1
5049	9
5052	1
5052	118
5053	1
5053	36
5054	1
5055	1
5056	1
5057	1
5058	1
5059	1
5060	1
5061	1
5062	1
5063	1
5063	35
5064	1
5065	1
5066	1
5067	1
5068	1
5070	11
5071	11
5072	11
5073	11
5074	11
5075	11
5076	11
5076	1515
5077	11
5078	11
5079	11
5080	11
5081	11
5081	396
5081	21
5082	11
5083	11
5085	11
5085	21
5086	9
5086	101
5087	21
5088	1
5089	1
5090	234
5091	1
5091	36
5092	9
5093	11
5094	1
5096	1
5096	36
5097	53
5098	9
5099	1
5101	8
5101	1
5102	1
5103	114
5105	154
5106	67
5107	1
5108	9
5110	24
5111	64
5112	1
5113	1
5114	1
5115	142
5116	154
5117	1
5119	32
5120	32
5121	32
5122	32
5123	32
5124	32
5125	32
5126	32
5127	32
5129	32
5130	32
5131	32
5132	121
5133	121
5133	1
5134	121
5135	121
5136	121
5137	121
5138	1
5140	1
5141	9
5142	1
5143	1
5144	9
5145	1
5146	1
5146	173
5147	1
5148	49
5149	101
5150	74
5152	333
5154	1
5155	1
5156	1328
5156	9
5157	1328
5157	1
5157	9
5158	9
5159	1
5160	1
5161	1
5162	1
5163	1
5164	1
5165	1
5166	1
5167	1
5168	1
5169	1
5170	1
5171	1
5172	1
5173	299
5175	1
5176	11
5177	1
5178	414
5179	8
5180	11
5181	1
5182	9
5183	1
5183	4183
5184	1
5185	1
5186	1
5186	2
5188	25
5189	1
5189	4170
5189	29
5190	335
5191	360
5192	67
5193	121
5194	1
5195	1
5195	267
5196	339
5198	1
5198	36
5199	1
5200	1
5200	108
5201	1
5201	108
5202	1
5202	108
5203	10
5204	1
5205	1
5206	1
5207	372
5208	153
5209	1
5209	118
5210	269
5211	1
5211	269
5212	1
5212	36
5213	65
5214	1
5215	117
5216	1
5217	75
5218	1
5219	1
5220	1
5221	1
5222	1
5222	36
5223	1
5223	36
5224	1
5224	36
5225	1
5225	36
5226	1
5226	36
5227	1
5227	36
5227	5100
5228	1
5229	1
5230	1
5231	335
5232	121
5233	275
5234	344
5235	276
5236	276
5237	1
5238	103
5239	461
5240	1
5241	56
5242	1
5244	1
5245	1
5246	279
5248	1
5249	90
5250	21
5251	1
5252	1
5253	1
5253	1372
5254	1
5255	1
5256	1
5257	41
5258	117
5259	1
5260	49
5261	340
5262	1
5263	9
5264	1
5265	1
5265	74
5266	9
5267	65
5268	71
5269	1
5270	1
5271	1
5272	36
5275	1
5275	36
5276	291
5277	1
5278	1
5279	1
5280	1
5281	1
5282	65
5283	65
5284	200
5284	1
5284	36
5285	1
5286	1
5287	1
5287	36
5288	9
5289	1
5290	65
5291	171
5292	177
5293	177
5294	142
5295	1
5296	1
5297	292
5298	1
5299	1
5300	1
5301	1
5302	1
5304	1
5305	1
5306	1
5307	36
5308	1
5308	36
5309	115
5310	297
5311	4209
5311	71
5312	33
5312	1
5313	1
5314	1
5315	1
5316	1
5317	1
5318	33
5318	1
5319	1
5320	45
5321	1
5322	9
5323	335
5324	269
5325	1
5325	74
5326	1
5327	1
5328	123
5329	1
5330	1
5331	1
5332	9
5333	1
5334	1
5334	116
5335	116
5336	116
5337	1
5338	9
5339	1
5339	36
5341	1
5342	11
5343	171
5343	1443
5344	171
5344	1443
5346	1
5347	1
5348	33
5348	1
5349	1
5350	1
5351	45
5352	1
5353	185
5353	36
5353	1
5354	1
5355	71
5356	40
5357	9
5358	1
5359	89
5359	9
5361	1
5362	1
5362	29
5363	1
5363	4233
5364	1
5365	1
5365	2625
5367	11
5368	1
5369	1
5370	1
5371	1
5371	310
5372	1
5373	40
5374	40
5375	40
5376	40
5377	40
5378	1
5379	8
5379	1
5380	9
5381	9
5382	121
5383	1
5383	254
5384	1
5384	118
5385	154
5386	360
5387	1
5388	91
5389	1
5389	313
5390	1
5391	1
5392	1
5393	269
5394	269
5395	269
5396	269
5397	269
5398	9
5399	1
5400	121
5401	1
5402	248
5402	1
5403	9
5404	1
5405	1
5405	2627
5406	1
5408	448
5409	1
5410	153
5412	21
5413	21
5414	90
5415	1
5417	1
5418	11
5419	9
5420	1
5421	1
5421	36
5422	1
5422	74
5423	1
5424	121
5425	1
5426	1
5427	1
5428	200
5428	1
5429	1
5429	109
5430	1
5432	1
5433	1
5435	319
5436	1
5436	319
5437	9
5438	1
5439	1
5439	36
5440	1
5441	94
5442	121
5443	1
5444	1
5445	1
5446	33
5446	3037
5446	1
5447	1
5448	1
5449	1
5450	64
5450	415
5451	322
5452	3
5453	1
5454	65
5455	65
5456	1
5457	1
5458	1
5459	1
5459	228
5460	1
5461	1
5462	1
5463	1
5464	1
5465	1
5466	10
5467	325
5468	344
5470	333
5471	9
5471	3525
5472	1
5473	1
5473	25
5474	1
5474	25
5475	25
5476	1
5477	1
5478	1
5478	2
5479	101
5480	1
5481	9
5482	101
5483	1
5484	269
5485	53
5486	319
5487	1
5488	9
5489	338
5490	42
5491	142
5492	415
5493	89
5494	1
5495	11
5496	1
5497	1
5499	1
5500	36
5501	1
5502	1
5503	33
5503	1
5504	290
5505	1
5507	9
5508	1
5509	1
5510	9
5511	9
5512	9
5513	9
5514	9
5515	9
5516	9
5517	9
5518	9
5519	9
5520	9
5521	1
5522	1
5522	36
5522	4329
5523	10
5524	335
5525	1
5526	1
5527	1
5528	1
5529	1
5530	1
5530	36
5532	1
5533	1
5534	290
5535	1
5535	505
5535	97
5536	1
5536	36
5537	1
5538	386
5538	171
5539	171
5540	1
5541	1
5542	1
5543	1
5544	205
5545	1
5546	1
5547	1
5548	65
5549	93
5550	1
5551	1
5552	11
5553	9
5554	413
5555	335
5556	1
5556	36
5557	1
5558	1
5559	1
5559	4213
5560	45
5561	45
5562	1
5563	1
5564	1
5565	1
5566	9
5567	1
5568	11
5569	1
5570	1
5571	1
5572	8
5574	1
5575	1
5577	1
5579	397
5580	1
5581	1
5582	357
5583	9
5584	8
5584	1
5585	8
5586	1
5587	158
5588	335
5589	1
5590	362
5591	3197
5591	71
5592	1
5593	21
5594	1
5595	101
5596	1
5597	1
5597	2
5598	153
5599	9
5600	11
5601	11
5602	200
5602	1
5602	36
5603	9
5604	136
5605	1
5606	1
5607	1
5608	1
5609	1
5610	1
5611	1
5612	1
5613	1
5614	367
5615	319
5616	1
5616	36
5617	1
5617	2
5617	4373
5618	1
5620	1
5620	52
5622	1
5622	36
5623	402
5624	1
5624	36
5625	1
5626	1
5627	103
5628	304
5628	1
5629	1
5630	1
5630	2
5630	374
5631	1
5631	375
5632	1
5633	1
5634	1
5635	173
5636	1
5637	74
5638	1
5638	109
5639	1
5640	1
5641	1
5642	1
5643	1
5644	1
5645	121
5646	1
5646	36
5647	1
5648	1
5649	1
5650	413
5651	1
5652	1
5652	36
5653	33
5653	1
5655	33
5655	1
5656	33
5656	1
5657	33
5657	1
5658	33
5658	1
5659	1
5660	101
5661	1
5662	36
5663	1
5664	210
5665	1
5666	1
5667	1
5667	36
5667	423
5668	1
5669	1
5670	1
5671	1
5672	1
5673	1
5674	1
5674	36
5675	65
5676	65
5677	65
5678	65
5679	1
5680	1
5681	1
5682	1
5683	1
5684	1
5685	1
5686	1
5687	1
5688	202
5689	1
5690	9
5691	1
5692	117
5693	1
5693	267
5694	1
5695	1
5696	1
5697	36
5698	1
5698	36
5699	1
5700	100
5701	1
5703	1
5704	1
5705	1
5705	36
5706	1
5706	2
5707	1
5707	286
5708	1
5709	1
5710	1
5711	94
5712	1
5713	114
5714	1
5715	1
5715	52
5716	9
5717	1
5718	94
5719	1
5720	1
5721	1
5722	1
5723	94
5724	1
5725	1
5726	9
5727	1
5728	36
5729	64
5729	415
5730	1
5731	1
5732	1
5733	1
5734	1
5735	1
5736	1
5737	1
5737	52
5738	1
5739	1
5740	1
5741	1
5742	21
5743	1
5744	1
5745	9
5746	1
5746	36
5747	1
5748	36
5749	1
5750	1
5751	74
5752	74
5753	1
5754	9
5755	9
5756	248
5757	9
5758	1
5759	1
5760	1
5761	1
5761	36
5762	1
5763	1
5764	335
5765	1
5766	1
5767	1
5768	1
5769	1
5770	1
5771	1
5772	1
5773	344
5774	1
5775	1
5776	1
5777	9
5778	1
5779	117
5780	1
5781	1
5781	36
5782	1
5782	36
5783	64
5783	415
5784	1
5785	1
5786	1
5787	1
5788	9
5789	1
5790	1
5791	1
5792	1
5793	248
5794	1
5795	1
5796	1
5797	1
5798	101
5799	101
5800	1
5801	36
5802	1
5803	1
5803	36
5804	9
5805	1
5806	1
5807	94
5808	94
5809	1
5810	21
5811	1
5812	1
5813	1
5814	1
5815	1
5816	1
5817	1
5818	54
5819	1
5820	25
5821	9
5822	1
5823	1
5824	1
5825	1
5826	1
5826	2625
5827	1
5828	1
5829	1
5830	1
5831	1
5832	1
5833	1
5834	1
5835	1
5836	1
5837	1
5838	121
5839	1402
5840	1722
5841	415
5842	140
5843	1728
5844	1233
5845	1001
5846	1001
5847	1005
5849	140
5852	1005
5853	1125
5854	454
5856	262
5857	1699
5858	2144
5859	2144
5860	456
5861	325
5862	1416
5863	41
5864	465
5865	1887
5866	1887
5867	1042
5868	1402
5869	2512
5870	2309
5871	2539
5872	1450
5873	338
5874	348
5875	1279
5876	396
5877	2185
5878	2766
5879	342
5880	116
5881	195
5882	195
5883	2187
5884	1074
5885	1286
5886	2327
5887	2928
5888	2928
5889	2982
5890	1365
5891	3003
5892	1016
5893	1233
5894	281
5895	3056
5897	2967
5898	2530
5900	2451
5901	2538
5902	1074
5903	3246
5905	3294
5906	1360
5907	1123
5908	1123
5909	415
5910	23
5910	1839
5911	2671
5912	1830
5913	23
5914	2674
5915	3278
5916	3319
5917	2234
5918	1279
5919	1227
5920	3608
5921	1667
5922	1042
5923	413
5924	2122
5925	1950
5926	1203
5927	1606
5928	2356
5929	157
5930	2371
5931	2671
5932	1253
5933	3346
5934	1659
5935	1372
5936	1887
5937	248
5938	1257
5939	3842
5940	157
5941	1227
5942	1227
5943	1227
5944	342
5945	3329
5945	371
5946	2682
5947	1233
5948	1233
5949	299
5950	3743
5951	1682
5952	1379
5953	4084
5954	344
5955	244
5956	2167
5957	1947
5958	1959
5959	1774
5960	2366
5961	1380
5962	1279
5963	2414
5964	4933
5965	2538
5966	1286
5967	2624
5968	4915
5969	3775
5970	1781
5971	3842
5972	1884
5973	2528
5974	464
5975	4165
5976	402
5977	2265
5980	273
5980	5979
5981	2168
5982	1835
5983	1560
5984	1443
5985	57
5986	1337
5988	2023
5989	3842
5990	2371
5991	3473
5992	1372
5993	1379
5994	1379
5995	383
5996	1286
5997	415
5998	1380
5999	1380
6000	4868
6002	1505
6003	4141
6004	1390
6005	1379
6006	1379
6007	1406
6008	1286
6009	402
6010	2414
6011	2982
6012	1432
6013	2234
6014	1447
6015	2346
6016	2157
6017	2023
6018	1474
6019	1190
6020	1125
6021	1185
6022	371
6023	1227
6024	4362
6025	4439
6026	1279
6027	396
6029	4439
6030	1515
6031	2286
6032	1607
6033	1619
6034	4174
6035	1761
6036	2671
6037	5848
6038	2895
6040	5904
6041	2895
6042	1390
6043	5041
6044	2807
6045	1596
6046	1596
6047	1596
