#
# hold-out likelihood (Tue Dec  9 01:17:38 2014)
#
# communities	likelihood
5	-511.87
6	-501.208
8	-591.196
10	-593.694
13	-405.041
17	-411.418
22	-653.514
29	-465.288
39	-537.844
52	-523.453
100	-486.299
