43	27	80	81	63	4	
17	2	87	103	24	104	27	36	31	12	65	
2	50	8	0	51	18	3	102	54	104	11	42	45	53	41	21	25	12	26	
59	68	51	76	75	25	24	13	48	72	71	37	105	49	104	23	54	47	15	70	106	
79	28	92	29	33	30	20	19	89	31	81	104	27	
7	32	38	51	6	15	4	70	31	55	
