0	1
0	2
0	3
0	4
0	5
0	6
0	7
0	8
0	9
0	10
0	11
0	12
0	13
0	14
0	15
0	16
0	17
0	18
0	19
0	20
0	21
0	22
0	24
0	25
0	27
0	28
0	30
0	31
0	32
0	33
0	34
0	35
0	36
0	37
0	38
0	40
0	41
0	43
0	44
0	45
0	47
0	48
0	49
0	50
0	52
0	54
0	55
0	56
0	57
0	58
0	60
0	61
0	62
0	65
0	68
0	69
0	75
0	76
0	79
0	80
0	81
0	83
0	86
0	87
0	88
0	90
0	95
0	98
0	102
0	103
0	104
0	105
0	107
0	115
0	117
0	119
0	120
0	122
0	125
0	127
0	129
0	130
0	134
0	143
0	144
0	147
0	150
0	153
0	154
0	155
0	156
0	160
0	161
0	162
0	163
0	166
0	167
0	169
0	173
0	175
4	1
4	2
4	3
4	5
4	6
4	7
4	8
4	9
4	10
4	11
4	12
4	130
4	17
4	146
4	19
4	20
4	21
4	22
4	24
4	25
4	27
4	157
4	30
4	159
4	133
4	33
4	34
4	37
4	38
4	177
4	40
4	41
4	171
4	44
4	173
4	46
4	47
4	49
4	50
4	54
4	57
4	31
4	60
4	62
4	65
4	140
4	162
4	79
4	87
4	90
4	97
4	98
4	101
4	105
4	18
4	110
4	111
4	112
4	119
4	124
4	127
8	1
8	2
8	3
8	4
8	5
8	6
8	7
8	9
8	10
8	14
8	19
8	20
8	159
8	32
8	33
8	162
8	37
8	167
8	46
8	60
8	66
8	75
8	87
8	92
10	1
10	2
10	5
10	11
10	15
10	22
10	28
10	62
11	1
11	2
11	3
11	4
11	5
11	35
11	7
11	172
11	71
11	12
11	18
11	19
11	149
11	100
11	123
11	62
12	1
12	2
12	163
12	33
12	43
12	13
12	79
12	7
12	91
13	9
13	2
13	7
13	14
13	1
14	1
14	2
14	3
14	7
14	40
14	11
14	19
14	24
14	28
15	1
15	2
15	3
15	33
15	7
15	8
15	35
15	62
16	1
16	2
16	3
16	36
16	5
16	6
16	7
16	77
16	79
16	17
16	19
17	1
17	2
17	3
17	5
17	134
17	7
17	136
17	12
17	140
17	79
17	19
17	20
17	86
17	89
17	37
19	1
19	2
19	3
19	5
19	7
19	41
19	76
19	113
19	18
19	9
19	105
19	25
19	20
19	62
19	101
20	1
20	2
20	5
20	7
20	19
20	21
21	1
21	2
21	3
21	4
21	5
21	7
21	11
21	22
22	2
22	3
22	23
23	1
23	2
23	3
23	5
23	7
23	73
23	15
23	19
23	24
23	27
23	124
24	1
24	2
24	3
24	5
24	7
24	77
24	79
24	50
24	19
24	20
24	25
24	179
24	62
25	8
25	2
25	28
25	26
25	130
26	1
26	2
26	3
26	5
26	7
26	8
26	103
26	19
26	85
26	24
26	27
27	1
27	2
27	4
27	11
27	15
27	80
27	57
27	26
27	28
27	30
28	2
28	29
29	1
29	2
29	5
29	7
29	28
29	30
30	1
30	2
30	5
30	51
30	7
30	19
30	31
31	32
31	33
31	2
31	3
31	1
31	9
31	7
31	19
33	1
33	2
33	5
34	16
34	1
34	2
34	12
34	77
35	1
35	2
35	3
35	7
35	79
35	17
36	19
36	1
36	2
36	3
36	5
36	7
36	8
36	9
36	43
36	18
36	67
36	53
36	55
36	94
36	95
37	1
37	2
37	5
37	38
37	7
37	40
37	79
37	19
38	2
38	19
38	39
39	1
39	2
39	3
39	4
39	5
39	38
39	7
39	8
39	44
39	173
39	15
39	40
39	19
39	84
40	96
40	1
40	2
40	5
40	141
40	114
40	19
40	20
40	125
41	19
41	7
42	1
42	2
42	3
42	37
42	6
42	7
42	43
42	13
42	146
42	151
42	91
42	62
43	1
43	2
43	3
43	5
43	7
43	40
43	19
43	62
44	1
44	2
44	77
44	45
45	2
45	5
45	7
45	8
45	9
45	121
46	1
46	5
47	48
47	1
47	2
48	1
48	2
48	5
48	6
48	33
48	7
48	49
48	19
48	116
48	148
49	1
49	3
49	5
49	102
49	7
49	50
49	25
50	31
50	2
50	19
50	7
51	1
51	52
52	19
52	7
52	37
52	53
53	1
53	3
53	5
53	7
53	77
53	85
53	54
54	1
54	2
54	37
54	7
54	19
54	55
55	1
55	2
55	6
55	65
55	7
55	56
56	1
56	2
56	5
56	6
56	7
56	28
57	1
57	58
57	7
58	6
58	7
59	160
59	33
59	2
59	5
59	1
59	9
59	19
59	60
60	19
60	1
60	3
60	61
60	7
61	1
61	2
61	3
61	5
61	16
61	7
61	161
61	10
61	43
61	12
61	173
61	44
61	11
61	19
61	20
61	25
61	127
62	7
63	104
63	2
63	92
64	1
64	2
64	5
64	7
64	10
64	19
64	56
65	9
65	66
65	2
66	2
66	37
67	1
67	2
67	19
67	138
67	7
68	1
68	2
68	121
68	69
68	7
69	2
69	7
70	12
70	2
70	148
71	72
71	2
71	19
71	7
72	24
72	7
73	19
73	74
73	3
74	9
74	2
74	3
74	6
74	1
75	1
75	76
75	20
75	7
76	2
76	35
76	6
76	7
76	8
76	45
76	17
76	82
76	54
76	25
77	153
77	6
77	78
77	7
78	1
78	2
78	3
78	36
78	5
78	102
78	7
78	13
78	79
78	99
78	17
78	18
78	19
78	25
78	38
79	3
79	1
79	2
79	19
79	28
80	1
80	2
80	81
80	7
81	77
81	7
82	1
82	83
82	19
82	6
82	7
83	40
83	84
83	7
84	27
84	54
84	7
85	1
85	2
85	3
85	6
85	7
85	18
86	1
86	2
86	3
86	100
86	5
86	7
86	9
87	1
87	2
87	109
87	7
88	89
88	18
88	2
88	7
89	1
89	2
89	19
89	5
90	33
90	2
90	3
90	7
90	43
90	13
90	91
91	64
91	9
91	2
91	164
92	2
93	2
93	37
93	7
94	1
94	37
95	96
95	41
95	2
95	19
96	113
96	2
96	19
96	5
96	6
97	1
97	3
97	5
97	7
98	2
98	99
98	79
99	12
99	87
100	20
100	5
101	1
101	7
101	50
101	79
101	145
101	114
101	19
102	1
102	2
102	27
103	64
103	1
103	2
103	33
103	6
103	7
103	104
104	1
104	5
104	7
104	105
104	143
104	19
104	20
105	2
105	139
105	106
105	7
106	107
106	1
106	19
107	8
107	2
107	108
107	7
108	88
108	2
108	7
109	19
109	5
110	19
110	5
111	5
111	6
112	97
112	20
113	2
113	102
113	6
113	8
113	41
113	114
113	117
114	1
115	49
115	2
116	1
116	114
117	19
117	6
118	8
118	1
118	2
118	5
119	120
119	1
119	19
120	3
120	69
120	46
121	1
122	123
122	19
122	12
123	2
123	5
123	6
123	7
123	8
123	24
124	1
124	41
125	126
125	7
126	1
126	2
126	3
126	5
126	7
126	19
126	62
126	127
127	2
128	1
128	2
128	6
129	1
129	26
129	2
129	5
129	130
130	7
131	2
131	7
132	2
132	5
133	1
133	18
133	3
133	180
134	19
135	2
135	18
136	137
136	2
136	3
136	7
137	2
137	3
137	68
138	106
138	7
139	18
139	5
140	41
140	19
141	2
141	6
142	1
142	2
142	105
142	7
143	1
143	6
144	145
144	19
144	102
144	7
145	43
145	5
145	7
146	1
146	6
147	49
147	148
147	6
147	71
148	2
148	12
148	7
149	1
149	3
150	2
150	43
151	2
152	1
152	78
153	1
153	2
153	154
153	6
153	7
154	1
154	2
154	7
155	1
156	2
156	5
157	7
158	9
158	2
158	3
158	179
158	5
159	1
159	60
160	1
160	62
161	1
161	3
161	5
161	9
162	1
162	13
163	2
163	92
164	19
164	7
165	1
165	2
165	4
166	9
166	1
167	168
167	2
167	3
168	1
168	2
169	7
170	5
171	12
171	7
172	40
172	1
172	2
172	5
172	62
173	19
174	1
174	7
175	2
176	19
176	5
177	2
178	2
178	179
178	7
178	19
178	25
178	159
179	134
179	7
180	2
180	4
