34	0
34	9
34	178
34	51
34	182
36	0
36	17
36	229
40	0
40	127
41	0
41	203
41	236
42	0
42	280
42	5
47	0
47	1
47	139
47	7
47	104
47	329
47	11
47	493
49	0
49	255
53	0
54	0
58	0
58	237
58	214
59	0
62	0
62	193
64	0
64	9
64	258
64	518
65	0
65	9
65	241
66	0
66	20
67	0
69	0
70	0
70	264
71	0
108	1
108	4
108	421
108	111
108	467
108	52
120	4
123	4
123	391
127	40
136	1
137	484
137	12
146	160
146	466
146	125
146	30
147	424
147	3
147	446
151	17
160	146
160	485
160	30
163	24
163	536
163	378
163	28
167	534
167	23
172	24
172	626
172	28
175	513
175	14
175	535
177	400
177	509
177	46
178	34
179	18
179	524
180	18
181	1
181	478
184	29
187	26
189	45
193	62
195	48
200	9
200	33
202	18
203	41
204	7
205	30
206	25
208	37
210	10
211	20
213	10
216	38
218	35
221	9
226	24
228	217
228	3
229	36
232	2
233	48
234	44
235	9
236	41
239	10
242	50
243	1
243	521
244	1
246	26
247	16
248	21
250	1
251	38
252	55
253	497
253	5
253	22
254	32
255	49
256	22
257	19
258	64
259	4
260	1
262	55
263	46
264	70
266	13
267	30
269	14
271	24
271	28
272	30
273	17
274	9
275	10
276	26
277	8
278	8
280	42
289	680
289	76
289	556
289	606
289	634
289	702
290	74
290	12
290	698
299	99
299	548
299	757
299	742
302	86
303	76
310	74
321	572
321	100
330	86
330	743
334	86
339	15
351	12
355	128
356	141
358	81
358	643
360	85
361	91
364	140
367	692
367	91
367	12
367	639
369	15
370	756
370	125
372	28
374	93
374	653
376	85
378	163
378	28
381	739
381	109
389	98
389	619
390	156
391	123
392	100
396	142
396	703
397	379
397	77
400	177
403	114
403	602
403	714
403	382
404	87
405	119
408	126
412	28
414	97
414	14
422	109
425	191
427	87
430	121
431	91
432	14
434	689
434	298
434	140
434	853
436	209
440	107
441	192
443	731
443	222
446	147
447	170
449	145
450	173
453	106
455	148
456	99
460	94
461	86
464	157
465	29
466	146
467	108
468	154
469	83
471	170
473	99
473	438
474	99
474	711
475	169
477	12
477	77
479	82
481	98
482	153
482	740
483	121
484	137
485	160
486	88
487	150
488	162
489	63
493	47
495	125
496	106
497	106
497	253
498	3
499	212
500	10
501	131
503	106
504	63
506	15
507	74
507	90
508	88
508	94
509	177
510	140
511	75
513	175
514	15
516	106
519	720
519	418
519	15
519	7
521	243
522	225
525	135
526	224
527	140
528	105
529	15
530	77
531	79
533	103
534	167
535	175
536	163
537	129
540	75
541	131
542	61
543	174
544	81
552	763
552	86
557	809
557	772
557	295
561	840
561	777
561	284
562	95
563	313
564	78
571	322
574	769
574	283
578	340
581	95
585	304
585	828
592	849
592	338
592	285
594	100
595	338
596	288
598	315
600	312
600	775
602	801
602	403
602	382
610	217
616	164
617	109
619	389
622	346
628	122
628	803
631	825
631	292
632	298
634	289
636	287
637	291
640	375
641	304
643	358
643	799
645	291
645	318
649	382
650	341
651	118
652	81
653	374
654	102
655	344
658	312
659	834
659	327
660	428
662	438
664	292
665	340
670	293
674	89
674	821
676	217
677	161
678	214
679	352
680	289
681	395
683	142
685	409
685	298
686	426
692	367
693	152
694	286
696	336
698	290
699	324
700	413
701	292
702	289
703	396
704	282
706	354
707	134
710	295
711	474
712	426
717	409
718	336
719	416
720	519
721	153
722	118
723	314
726	395
727	309
728	439
729	338
730	301
732	307
733	338
734	279
735	309
735	559
736	406
738	152
739	381
740	482
741	324
743	330
747	104
748	110
750	357
751	112
752	428
753	413
754	340
755	324
756	370
757	299
758	294
761	873
761	301
767	547
767	899
775	600
778	603
780	884
780	901
780	583
783	327
784	545
787	139
793	883
793	566
794	572
797	881
797	292
798	122
800	559
801	602
802	588
806	621
807	294
808	666
810	551
812	590
813	673
814	565
815	554
816	286
817	620
818	603
819	638
820	388
821	674
823	584
825	631
826	547
827	626
829	624
829	896
833	613
834	659
836	402
837	326
838	629
840	561
843	588
844	547
845	590
846	621
849	592
850	579
851	558
852	629
853	434
854	409
858	560
861	774
861	566
864	550
865	555
868	316
870	915
870	908
870	590
872	569
872	916
876	789
877	765
879	326
880	566
882	772
884	780
885	785
886	809
887	566
888	582
889	764
890	789
891	786
893	786
894	759
895	589
896	829
897	824
898	764
899	767
900	713
901	780
902	779
903	545
904	762
906	856
908	870
909	768
910	857
913	871
914	873
915	870
916	872
917	804
918	546
919	774
920	568
922	867
923	869
924	869
925	869
926	875
928	871
929	866
930	911
931	905
