1113	985	1845	1118	2185	2182	848	845	990	2441	1117	2570	2571	1846	2574	1116	2576	991	2415	2443	2439	1112	2906	2268	368	2569	2183	989	1114	2190	383	2981	433	437	1700	986	3715	2572	3717	1110	988	2578	2188	2878	2941	1111	2577	2189	2414	2442	2440	2905	1036	3082	3204	1032	427	3561	1031	3716	3083	1034	4327	5485	2573	4452	1656	987	3636	5280	3659	5664	2417	2416	4560	2187	992	4212	2980	5198	3331	4539	5738	1479	3793	3429	1115	2942	1481	5199	2743	1119	5224	4690	2458	1699	2186	3205	2392	4213	3203	3770	1480	380	3563	6189	5279	6306	6297	6249	3769	4466	4465	5486	5234	5555	5556	6455	6386	3768	5646	4453	4540	4415	6415	6414	4541	6396	6310	6244	4182	4181	3329	3330	6148	6085	6270	5284	4897	4898	5891	5724	5935	6232	5422	5423	5690	5849	5850	6191	6129	6136	6289	6177	5937	6256	5938	5187	5188	6327	6393	6394	6314	6328	5886	5817	4766	5676	4579	6061	6150	4580	4671	6149	5868	3540	3539	5714	4561	2184	2982	2271	6301	6300	6299	4876	1655	5083	5378	5377	5208	5207	4733	4681	4680	3655	3654	1478	2575	2965	2459	2457	2191	2966	1726	6210	5030	2967	2968	4328	1951	3033	3034	5084	6346	4322	4691	4692	4693	4694	4942	5346	4871	5442	5443	4537	4538	5115	5116	5117	6044	2418	2732	1035	4414	5662	5663	5118	5816	2391	2393	2394	6230	5076	3430	2879	6174	2919	1251	3638	1033	993	3562	
234	216	230	221	218	117	1503	4	1511	1504	1507	1502	2408	1906	1515	108	122	1505	2063	2062	1506	1514	224	1566	220	1509	1567	1908	1508	229	225	2409	2587	2064	1905	2407	2066	2067	2753	2410	222	1568	223	3323	2909	3864	2754	1513	3747	2065	3967	3966	4872	4240	3737	2057	231	2752	4239	5517	2586	3736	5713	4026	4025	1512	2411	3504	5864	6113	4798	4321	3748	3968	1907	3567	3375	3965	4310	4323	5515	5516	5391	4719	5301	5795	5745	4795	6128	5575	6125	5506	6309	5863	1510	2068	5035	5144	5917	5492	3438	3733	4846	4847	5119	1612	4238	2755	3439	2910	3738	3503	5	1569	
310	20	6	198	788	313	314	180	1737	199	312	3	789	801	795	791	793	1743	97	27	797	320	2513	3447	203	1738	81	792	3109	2512	2003	4170	4172	42	794	790	800	1010	1746	799	1011	1740	3110	1012	1013	2287	2289	5000	4171	3861	4265	316	1016	2949	2286	2285	1348	1739	318	4266	5033	3153	3154	3893	4836	200	2937	1742	0	4835	4398	4399	4400	4401	4999	2001	2002	3333	3892	3894	3895	3862	4267	5031	6330	5380	1741	802	798	2132	1745	4356	4348	315	3448	3450	4299	1744	2004	5683	6381	5684	6268	5842	4302	5843	4301	5421	5650	5032	6379	6378	6219	6218	6083	6445	6205	5774	5642	6212	6211	5906	6331	5969	5968	5967	5884	5951	5513	5667	5048	2950	2288	3155	5001	6077	4751	4837	5099	3102	6261	1014	3449	4597	1015	4596	4595	4354	3876	1349	4173	4877	4878	4064	4190	4357	4413	213	4833	4300	4355	191	52	796	192	73	3334	321	4687	
2558	212	1197	2990	2738	2999	2989	1190	353	1187	1198	1191	1189	2431	4568	2997	2555	2992	4567	2438	2993	515	3274	3553	3279	2007	2437	3554	1200	1192	2432	2436	3904	2557	2005	4491	2495	1199	3555	2991	3903	2006	2556	2741	1551	2433	1545	3278	1547	1764	2737	3277	4218	1195	4577	3275	2739	4569	1546	3871	1550	4973	5373	5371	1548	3556	1196	1766	2435	2497	6267	6266	1549	4534	2496	2994	5959	3557	5999	5370	5369	2996	1765	2995	2998	4490	5372	2740	4514	4065	2498	1849	4001	4002	4974	5235	5856	5857	5858	6469	5859	5174	4576	5860	4578	5093	5304	6382	5303	5915	5984	6045	4971	6422	6470	6305	5460	4972	5472	5822	5821	4718	5398	5748	2434	1193	4593	4840	6451	4525	4524	5070	4566	3872	3870	5197	177	850	1847	3276	6231	4841	1850	1848	3777	4918	5796	4535	6353	4497	4498	
388	25	133	253	140	1023	1657	1024	8	2276	2320	82	55	2836	12	129	57	5	265	2835	702	1025	1886	2280	257	3071	4205	15	2	1027	2838	1885	2284	2282	278	3070	1883	1882	2278	3599	3598	3600	3543	4207	396	394	1026	1375	1378	2279	1029	389	1884	1377	4206	5507	3546	1376	1346	3069	275	0	397	277	2277	2455	2281	2283	1380	3549	3219	395	3293	3523	3294	5480	1028	4009	4197	3550	3223	1658	3072	5972	4549	5973	1379	1382	1347	471	4196	5727	6242	3781	6274	94	4208	3387	6222	4363	4936	3905	3906	4437	4572	5913	4659	4807	4236	4237	4992	5481	4994	6284	5392	6269	5607	3343	1381	3547	3548	3551	3582	3583	3757	3758	3522	2456	294	2321	3221	6263	3544	472	478	4598	3224	3222	3220	5773	4748	3666	704	3545	62	2837	5971	467	83	165	6123	3386	2090	4976	6286	
112	974	239	965	242	980	968	967	977	1788	2723	1129	964	128	976	2781	973	970	1782	1660	2715	2718	1124	1783	2815	2716	2719	2757	1121	2717	1125	1126	1120	1122	1123	46	162	220	975	4628	1	2814	2722	2812	3376	4278	1439	3788	70	1784	3375	1128	2758	247	3378	4590	3377	2721	1659	5643	241	1130	1918	2725	5054	4627	2267	4742	118	249	243	3060	237	2625	2943	55	3726	6124	3148	4791	4790	4230	3146	3145	2813	6428	6293	3061	6151	5997	5169	5106	4591	3929	3008	3114	3112	6403	6402	6461	5812	5759	6125	5644	5113	5753	5336	5345	4254	4467	5914	4280	4279	4865	5772	5248	5247	4510	4509	3566	3565	5330	4038	4037	1798	1797	1796	345	1438	6234	979	5574	4123	5090	2761	2760	2759	246	2626	5554	2880	6238	1510	1127	2724	2422	5055	120	2266	2485	6278	5144	5035	2068	3825	3824	3823	5927	4131	4132	4133	4286	4287	4288	4289	4290	4351	978	142	2720	5504	5569	5570	2	53	4	122	2368	
350	949	945	352	947	1304	942	959	2176	1303	2536	2535	1302	946	952	1007	2226	943	951	954	1301	2916	2913	3460	2179	3909	948	2120	944	950	1030	3228	3936	2828	2426	2343	953	2178	2911	3459	4502	1008	2345	2750	2829	5623	2133	4499	2227	956	957	364	955	3229	2180	2912	1009	4501	3458	3935	5538	3446	1006	2831	5509	4503	2430	4352	2427	2135	2134	4448	5537	2428	5744	177	5804	2771	2230	2689	2177	5805	3057	3910	3059	2830	2751	2181	6003	1003	1004	1005	200	958	3226	6002	3440	3441	4794	5539	4353	3159	3160	5291	5912	5668	3911	4449	5583	6373	4629	4630	4767	5910	5758	4948	6132	5593	5735	5665	5666	6204	2832	5990	5181	5182	5527	5761	5878	1994	2429	2688	2534	2914	2915	5510	5511	5636	4500	5190	3988	2887	6089	6117	5958	5634	6409	5625	5624	2344	6377	3732	3731	5637	1354	1359	2886	2454	2228	5206	3445	4612	4968	3058	3227	
215	1371	1500	1808	1361	1363	1650	1810	1645	1366	227	2672	1499	1646	1369	1360	1811	3190	1362	1365	3486	2671	1364	1809	2075	1812	3485	2193	2236	3189	2192	2076	3541	1501	3388	5124	2079	2900	1372	2080	2042	2194	2043	2044	3487	3389	5123	5216	3305	3542	3308	2413	5059	2637	1368	1649	1648	3191	5215	1647	3306	3390	3391	3179	2901	3442	5060	3307	5019	2748	4	5146	5020	6142	5062	6246	6247	6290	5061	6248	5523	4542	4192	6452	5846	6453	5132	4209	6372	5367	6180	6201	5243	5220	5679	4191	5024	6200	3751	4982	4983	6190	5524	5525	3047	3049	6323	3178	3484	3483	1367	3048	4919	3309	5147	2674	3443	5149	5221	3050	1370	5148	3812	2078	2673	233	4147	3761	2077	2195	
672	670	2651	1456	668	1454	667	2646	2647	3419	3417	2102	3418	2103	2098	669	4100	466	2649	2104	673	2648	2099	1453	1452	1455	3576	4376	5364	5365	2105	5122	3420	1457	3421	3578	5328	4340	1458	4375	4101	4103	6100	3714	2100	5366	6312	6101	6412	3577	4342	6399	6467	6413	4377	2554	5437	4102	2650	3311	6303	6302	4714	2161	2160	1611	5835	9	2101	1451	5911	5836	2162	4341	6388	671	
305	289	412	413	778	780	292	408	419	3192	143	130	280	300	781	861	2690	2158	83	779	418	291	858	283	2198	4599	1407	2765	2159	609	859	4116	2975	5016	294	167	3927	860	2692	4601	1408	2979	2977	422	173	4117	3464	4183	281	2872	4600	2787	4602	4318	4319	2976	2978	3866	4174	3780	159	2786	302	2450	4121	5572	6181	5340	6026	5263	6254	5354	3193	6105	5409	5262	4146	4820	5261	3187	5260	3188	5901	5902	4963	4765	4200	411	5873	417	2691	421	5874	4313	5038	783	5732	4320	2788	1374	5017	3868	119	1960	5576	5353	4175	2873	3867	5573	4122	4480	282	4945	3865	2693	135	1427	70	
187	501	192	13	853	52	855	503	504	178	33	3	851	743	197	177	554	2480	510	4204	149	60	745	1409	3140	3908	5150	3080	742	2462	184	213	3079	183	1956	5107	4708	4710	744	2376	2377	746	1957	2825	4259	4711	5112	4003	5109	3143	4298	4297	3144	4004	5108	5151	4472	6275	4471	5183	2483	850	6	857	73	205	353	6082	4709	3169	3782	6057	5855	6083	5854	6355	5173	5581	5334	6405	6404	5969	5968	5967	5631	5630	5029	5028	5672	5671	5521	5621	5111	4582	6261	856	3365	3004	3660	4294	4295	4296	5299	5300	4837	1410	1958	6271	5143	2540	2539	17	4978	5172	3081	68	200	6038	5110	3516	3168	3517	1687	5152	3518	3142	2375	3141	2538	741	4470	2484	515	1200	166	23	
128	137	35	240	38	217	238	155	273	4	131	786	1331	116	2	787	9	129	54	1322	2291	1843	3913	483	3175	3174	274	122	1329	3176	1842	1330	3914	250	108	2293	3912	5088	5086	226	23	1844	785	4385	2367	5700	2880	2292	3704	5269	244	0	277	1332	232	5349	219	5087	2882	1841	3177	2881	2369	5519	3709	4838	3147	542	5270	5431	5569	5570	2368	1633	249	243	237	5271	1324	2346	2348	3726	6121	4937	2347	235	142	5622	248	4771	245	4770	5957	242	
114	29	2055	123	2054	41	70	117	1	972	34	3621	0	3509	30	113	2114	3624	121	3665	2056	2113	3623	2707	3185	38	2117	3622	2705	3510	3626	84	3345	47	969	1561	2112	1560	3664	4382	112	2784	39	1433	2742	2627	3663	3662	3186	3842	5770	4383	4247	5218	3501	3672	3901	523	81	91	119	1432	1428	122	4870	2361	2058	5933	5934	2362	2115	2116	3671	3538	4443	5489	4892	4893	5137	6283	6156	5987	6183	2706	2785	4186	5574	3347	3967	5184	5657	411	2759	5217	3670	5010	4187	2275	3537	124	2057	5771	6053	5128	5943	5944	3346	3625	3902	
326	336	155	131	444	594	1171	449	1146	1173	453	322	323	327	331	334	277	1150	226	1151	235	761	4072	228	1144	98	1147	335	273	3287	3288	5005	1143	4	4074	465	459	3286	5288	5165	4073	2031	2029	2030	5709	2845	2846	5417	5980	5977	1331	5890	442	1172	2508	5276	5704	6391	6361	4489	3218	4529	5705	5229	5900	5669	5883	237	2599	1149	2507	3643	128	5275	5978	2848	4492	2847	3280	5979	2509	250	4048	1148	1330	1166	243	458	1145	2510	2511	5250	
407	280	164	602	604	173	293	603	1959	416	414	607	601	415	306	423	605	410	608	409	130	612	613	1221	935	938	930	933	305	1168	418	2796	1902	2794	1960	614	606	611	1220	420	1487	764	4435	3581	4899	1651	2	408	615	2798	2795	2582	3017	2793	5837	296	5694	5635	2920	2921	2922	6208	4320	4806	4900	5340	3193	4146	5178	5572	4396	3187	6069	3188	5901	4200	5253	5179	5252	783	421	1904	417	411	4436	5732	3477	5058	5874	5659	5873	6167	6168	2788	1374	5017	3103	6349	3868	4903	301	1961	2799	1903	2797	5779	424	616	1482	1167	4316	290	609	610	4317	3928	
757	1530	1718	749	1312	1525	1526	1676	1721	1831	1720	1735	1736	1827	1527	1719	1313	1828	721	3889	1165	3695	3888	4804	1163	1532	3694	3879	1533	1531	1678	1164	4258	4427	1829	155	3878	871	1528	4951	1832	1830	1679	4952	591	1734	747	4989	4990	1992	6279	3304	6318	4454	5995	4223	4902	4224	4409	4885	5961	3092	5960	758	5588	6025	6448	4635	4944	6049	4428	4553	6043	4886	5293	5091	5092	5502	5757	6439	6435	6070	6368	6434	1900	1901	3898	4460	1722	1677	4685	4953	5427	5976	4151	1993	1534	3887	3958	3890	4410	4741	5441	1899	1315	4869	6317	4805	4234	1529	5503	756	882	1317	
1273	1174	1106	1177	1181	1274	1276	1176	1100	1175	1098	1097	1308	568	1184	1279	1185	1277	1620	1622	1417	1623	1624	3465	1280	1625	1311	1621	1858	3524	1309	2022	4586	4584	4583	4043	2308	5720	5230	5297	1281	5246	1307	1459	1310	2021	3403	1104	5298	3994	2053	4090	2309	6339	3525	6287	4585	5956	5955	5267	5186	1282	5266	5339	6165	2548	4044	2023	2020	1825	1182	1626	5393	3993	
348	182	351	631	199	1476	984	107	211	1471	353	983	626	982	1716	1473	2447	177	629	627	630	2445	1188	1494	3	3210	1492	4184	4203	1491	2024	1472	1477	1717	1474	1493	554	60	2448	2446	2444	2645	4818	0	5598	4394	628	198	190	4204	4	13	2	4185	2025	133	2559	6305	5748	4593	5197	5460	4524	4525	6451	5111	4827	5856	5857	6422	6045	5581	5858	5174	5859	4939	5386	6319	5303	5304	5822	5821	744	1475	5710	4295	5532	1193	4596	4595	3209	4817	3211	3407	4704	3646	5597	205	49	6444	4840	126	1	1194	208	515	5	632	364	6014	
358	355	1356	1339	1338	365	179	204	1354	1355	2119	1337	2853	694	711	2850	3705	177	2939	205	2852	1855	350	4124	518	5211	2771	361	2120	183	2226	359	349	4662	4894	3708	2938	2118	362	949	2229	1359	4128	5212	5282	5210	2227	192	60	3	2849	1357	1358	5791	2546	2772	5213	5847	2230	4612	4134	5283	5647	3954	3953	4895	5695	6332	194	4127	3706	3707	4126	2547	4613	4125	356	5790	100	5281	5789	5803	5841	5699	6307	
11	678	680	69	677	684	686	679	676	675	682	674	685	681	67	1730	2034	688	690	699	3934	0	961	1729	1727	1728	85	2130	683	689	5552	5551	1731	4464	4810	5620	3425	962	4518	1868	960	2896	3635	4811	4809	6115	5707	5526	2747	6367	6257	6336	2378	2899	2898	2897	6224	6223	1867	4812	43	5496	2746	1866	2131	687	6058	
17	0	68	3	50	95	509	13	178	100	72	86	1051	19	2263	60	16	76	90	92	4371	4372	177	4511	1045	1050	703	196	185	3584	1470	628	1044	183	1037	1048	1047	1038	5449	4370	1469	2629	71	12	1043	1046	4369	3882	3883	2628	3136	42	200	94	6179	4513	5557	5558	4512	4422	4373	3884	3607	192	99	73	64	2681	2680	5532	5616	704	4943	191	4978	54	3137	1049	27	197	52	500	23	193	180	45	34	551	397	388	66	5882	5491	3644	3608	5531	5688	1039	4469	6285	
428	1701	435	134	431	434	1702	436	1704	437	432	1698	2726	2730	438	1708	3173	3025	425	1705	3172	4141	3170	2728	3230	1700	1699	3026	1697	382	439	3052	2731	2727	2729	3828	3827	2270	3171	1920	3637	3231	429	426	5225	5420	4408	4140	3817	5065	433	427	2743	1706	3636	3640	3829	1707	3053	4361	4142	4722	4723	3818	4678	4677	4450	4451	5064	3639	6106	430	6055	6112	5224	3638	6163	5241	3232	2269	4721	4724	3051	1921	4360	4227	5399	3561	5066	4679	1703	
8	158	329	32	133	387	476	468	4343	393	480	1222	395	390	469	1020	83	467	391	3156	2234	3157	3977	5475	23	82	477	474	12	15	4345	1799	4346	3978	3243	6207	3247	5498	7	5478	5474	5360	6072	5476	3245	3246	1223	1224	705	3244	3791	3790	3789	4324	3809	2	0	9	392	5362	4326	3248	4325	6418	404	3735	1228	5648	3810	6419	6449	5797	5205	471	4473	472	478	5400	5792	704	4646	4647	3343	6221	5448	5649	4785	470	4786	3811	2917	1800	6436	4344	481	475	1021	2235	466	5473	5477	200	1022	3734	5870	5899	1235	5361	6073	4921	3262	75	
1001	995	997	1086	1089	1088	1085	1090	1087	1295	1711	1710	645	1709	999	1712	2373	1272	1297	1299	1296	2395	571	3727	1294	1774	1268	1093	1271	996	1091	2398	4715	1300	1373	1000	2374	4592	2396	5166	3657	6029	1092	1723	1094	1096	1270	3859	5866	3658	5865	3669	6028	6027	5381	1713	4202	4201	6463	6362	6019	6420	5983	5818	2397	4079	4516	4515	6337	3656	1269	649	565	1095	1298	1724	2399	3164	4395	3813	6050	3886	4517	6407	
89	400	1131	63	1212	1142	104	1141	31	102	1140	74	1137	1139	1265	1134	3067	1138	1262	1215	0	1132	1213	5405	5670	4111	1267	2478	75	1266	7	4642	2675	392	1136	3807	1135	1216	2479	1264	1263	3066	5406	2678	2677	403	5661	4276	1214	5452	5453	5454	2679	6326	5696	5697	3032	6343	6159	5326	2676	3808	5327	3068	3075	3342	4519	6196	
132	386	367	373	150	100	376	372	381	1608	374	2258	2	379	145	66	2257	3723	3395	172	375	378	368	2261	3719	2929	2930	3455	380	377	369	1604	2506	1605	134	3721	3453	3452	2756	371	385	1607	2262	1606	3722	4211	4104	4105	2866	3454	4119	4120	383	384	370	848	4910	5451	2259	849	1261	4904	2865	5988	5989	4675	3451	5747	4676	6364	5845	5329	5831	845	4560	6446	6397	5923	3948	3616	382	4851	847	3720	5754	2260	3718	846	5547	5546	4852	5755	
920	921	40	398	922	927	1668	1669	923	929	2331	1673	924	928	2326	2328	2327	2324	1675	1670	2325	3532	1671	2088	2404	94	2333	1674	2089	2401	4156	925	2329	2330	1879	3531	3530	3406	4966	4965	926	1672	5102	2405	4763	4964	3404	6080	4914	7	2332	5214	2948	5602	5447	4913	6118	5344	5580	6466	5682	6216	5617	4764	6376	4536	2087	3405	3815	5103	0	405	6078	4912	5127	3415	3414	4530	1880	3816	
252	5	23	81	96	261	8	119	1463	1460	2	3073	267	1465	3099	3122	255	1464	1	3074	0	55	3121	3124	4	103	1466	1462	82	258	3846	2041	32	474	3125	3920	5314	102	108	259	1461	1468	3123	3848	1813	4940	6	115	136	1817	3120	5316	5315	3847	2827	5764	5763	6313	3343	471	478	472	473	166	131	1467	2568	15	232	1020	2567	3921	374	4045	4941	9	6097	6096	48	
311	200	178	362	852	508	3410	3360	2274	359	518	896	501	507	317	2139	186	177	504	898	4815	4816	1423	1422	4813	2482	2141	52	3686	4334	2481	552	5042	2142	4336	2272	853	851	2484	13	3687	1426	4335	1425	4970	4969	2273	517	516	6	4799	857	194	954	3411	1424	4854	3689	3688	5376	2140	4082	4081	4800	5706	5518	4445	4444	5703	5702	4083	3367	5522	23	3	5490	4801	4862	5675	5854	5855	6411	5143	2540	2539	4597	6271	5761	856	1958	3365	1410	73	6143	4080	5746	5721	196	850	1813	4929	4855	6320	897	895	3472	6133	
617	136	622	835	831	836	834	863	520	519	1602	307	304	522	621	768	135	862	290	287	284	769	1601	4393	1610	4887	868	3526	4392	4391	865	2954	1609	1260	532	130	624	620	832	839	866	618	3528	1600	4890	4889	2039	2040	4333	4888	4070	5264	523	527	306	2742	837	841	833	838	2782	2955	4071	3527	1259	6443	4727	4726	4332	5605	3641	5606	5138	815	4725	5265	2826	5505	5768	6360	840	5715	2783	6208	411	3653	6184	6035	5540	6465	417	3043	2888	867	4870	5998	3760	1042	3759	1603	4930	5725	5450	1040	1041	4229	3642	817	816	5578	
728	869	877	874	872	462	1061	450	638	656	442	2778	875	1058	1060	731	441	445	882	458	4330	4774	4772	870	879	876	1059	4283	5294	734	883	2780	4285	2565	4284	4331	4773	4775	4329	5296	5295	3166	5259	881	464	878	5689	3165	4967	5258	5908	4551	4552	871	4998	6400	6457	735	54	5909	231	122	3167	873	880	5627	322	2779	6016	
324	633	454	273	323	634	244	137	458	770	599	331	325	640	2366	636	131	585	758	774	772	2874	1918	635	771	341	1997	642	3113	775	442	3471	322	1919	3428	2876	4221	1996	586	4384	37	1332	35	638	639	226	2875	3000	2877	1833	3016	3015	3344	3013	4729	5081	641	6391	5600	3756	4720	38	260	240	773	4728	2	584	460	166	643	3014	5867	588	2622	5922	4915	3181	3001	3299	3300	171	4632	
139	3519	129	270	276	1767	1890	272	4303	1769	2854	2223	1889	2221	1768	2857	2225	4305	2224	37	3520	1771	1892	1773	2855	2	547	83	1770	3521	4304	4308	4306	4617	3134	4620	3133	142	81	166	2220	4307	2083	4619	4594	1934	5140	6064	5141	5750	2624	2856	1891	2222	3135	5142	271	5751	4309	2744	4779	4476	5778	3384	175	4237	4626	5521	6359	5897	6406	4155	4991	2818	2295	5204	3973	2349	1938	1893	5545	2858	2626	2625	1772	279	5749	1935	82	4618	
598	732	1314	1319	340	747	586	1318	441	458	589	1320	460	1317	452	758	3214	1315	1330	5403	3249	3251	322	442	1313	757	6087	1316	3586	3215	3092	731	6088	3216	3585	4234	1736	323	4907	5402	5312	2931	738	3250	5550	5960	6341	6335	6197	446	131	1792	729	2472	
63	1132	7	1133	1335	1333	1334	401	1135	74	111	3602	1142	31	3606	1137	400	3601	3605	75	392	404	3603	3774	0	1336	3604	1984	1636	3772	1134	1983	3771	402	3773	5068	3985	475	403	1985	2584	1490	406	1986	399	3775	3776	3499	3500	6051	6052	6099	6098	3869	3986	405	5626	397	94	4928	2749	2585	4891	3753	1489	
281	168	526	1518	148	533	288	1520	529	535	534	2172	3961	143	2173	530	2175	531	287	3962	3963	1521	130	528	524	2171	3964	4781	1074	2	2174	1522	6004	3851	3850	3289	3290	3281	3020	2907	3991	3019	3512	4783	136	295	3284	2693	1517	4782	296	3849	3018	4977	3992	6094	3513	3923	5964	525	417	411	3043	2691	3653	1075	1516	1519	5482	5414	5007	532	6450	527	6468	5752	3282	5401	4793	5613	4784	5549	5548	2908	5801	1076	
500	356	357	60	177	3	183	507	178	354	359	202	1217	1411	360	1414	95	363	2358	559	555	551	553	2359	1415	3502	2143	2254	1019	4314	5407	4315	5251	5946	2255	13	192	72	209	1218	2256	5945	5947	1018	2493	1017	5078	362	554	552	558	5120	4461	4462	5077	1412	4787	3853	3852	6102	6104	4446	100	3260	556	5719	3988	4597	2887	6103	3160	5190	3159	211	4511	353	4596	4595	68	2118	191	208	1687	6458	2492	5080	4874	5121	5079	557	6371	2491	2886	4875	6264	2360	2494	1413	3881	
64	711	359	1343	1062	2238	692	1345	205	192	1341	71	2237	1063	1344	696	497	2698	2697	4034	507	5015	1342	2243	165	2239	2745	5268	3366	2	2240	717	3339	2242	2241	349	488	3361	4682	9	1627	3337	3341	3338	5051	5823	5053	8	501	13	52	509	5052	3365	3343	5592	478	472	471	3340	177	60	691	355	197	3	81	178	5236	354	160	5781	5228	5861	4035	6427	5813	1440	4683	
907	455	459	729	1691	457	908	341	1693	325	1733	659	1688	442	1690	910	637	448	1405	322	644	909	2085	2086	906	1689	652	2294	3983	913	653	5193	3939	760	450	324	3981	441	1694	1692	912	905	639	1406	3263	3264	5723	5722	4188	5194	1393	763	4496	4359	657	3940	3982	6030	1732	3941	458	3984	4189	5195	
269	548	271	537	1749	547	545	539	541	276	549	804	1748	1978	536	546	1747	1980	2988	538	1447	78	543	544	1210	2307	1750	2342	1981	1838	4521	540	550	1211	1751	1982	1839	1865	2773	3138	1448	1863	4522	1864	1305	3321	4487	3139	1209	2306	2776	2775	2987	2986	2341	2774	1979	5368	3322	1449	2972	4520	5787	2973	5788	4220	3463	4129	5094	4374	5320	4609	5545	5888	5889	4625	2777	274	129	542	5638	5095	813	4338	1450	4838	6005	6173	1306	
28	138	78	2	2581	2819	805	2822	3119	170	147	2821	540	3116	129	163	33	1484	4839	149	536	2820	1483	1486	3117	3620	126	803	3619	0	804	269	3118	3258	4250	4251	3259	4752	5159	2072	2582	4703	4702	3740	2824	2583	2823	5429	5428	4753	4927	5541	5786	5436	6188	5508	5632	2310	6012	541	6011	164	1714	6076	6252	2069	2074	6408	6056	4528	5798	5160	6093	3409	5444	1485	3797	5776	6398	5633	5158	3796	119	5775	1447	6042	167	3739	
131	322	333	447	332	1870	345	1873	2667	2808	1872	1871	96	330	3063	2669	1869	1421	2668	3096	2592	328	461	342	2666	443	2809	2670	3097	4429	155	347	343	3064	3062	3158	1874	456	4430	3098	3095	4337	2791	5542	1169	1170	4554	5249	54	5	338	2593	1876	1976	3514	5425	4623	3489	5424	5584	5585	5876	5875	3515	2545	5082	5009	2792	446	37	337	4896	451	3065	5530	5189	5170	6138	6137	1633	1875	6120	3863	6387	5941	3104	4621	2594	6313	250	344	38	6109	3384	1977	4292	268	5780	5529	329	6000	4622	4431	6063	5985	5992	
757	641	1793	4447	1791	2093	1792	1319	1316	442	747	1313	2092	3580	3579	1315	756	4505	4506	4984	2553	4906	3703	4908	749	5073	3700	2091	5692	4985	3701	3702	328	1318	5693	4686	4909	5022	5833	598	155	451	640	1330	759	2552	2621	5075	5832	4032	6333	6334	4907	5069	1633	5074	5023	4232	4233	4581	4504	5312	6164	445	5708	758	6380	5618	
1557	1559	2208	2206	1143	1148	1250	2595	1145	2207	2596	1243	1151	1246	2204	2210	2216	2212	2205	2600	2597	1247	3494	4960	2598	4036	1244	2214	2213	2215	3002	1245	3495	2356	4040	4042	4388	4115	3003	4113	758	1558	5500	2599	2211	6017	2209	4039	1248	4041	4389	3969	4665	4150	4114	5499	5501	4149	5890	4604	6060	4488	761	6095	4456	5164	4148	6215	6214	3970	5163	5202	5203	4455	2357	
691	206	194	1643	706	349	210	707	695	709	73	4834	708	4833	717	365	710	5733	1953	3725	177	693	794	796	316	1640	5456	1641	1954	6033	5533	3627	1955	355	714	712	692	6	3724	5455	6034	3628	5678	5853	5852	1401	3779	3	362	716	5237	715	1642	1644	6032	5528	3632	6260	6071	4075	3631	850	3922	6329	3629	318	5342	5239	5939	5238	5677	713	6389	4390	4347	5940	3778	4442	
662	1573	888	1576	1571	1570	1574	2232	580	232	665	1575	5072	651	1580	4387	2231	4386	1068	3212	754	2355	1065	1069	1443	3533	2059	2060	1284	1286	3678	4935	1066	442	600	1572	3534	2354	1577	1579	3491	3490	3461	3680	4144	4143	4934	5760	1073	1578	1070	3492	1543	5071	3840	5180	5645	2313	5310	5309	5308	4819	1067	643	891	1725	3841	4696	5274	5806	5963	6258	1072	3681	6438	2312	5840	3408	5226	441	277	1544	6259	2314	5587	5567	3679	3462	3493	2353	2352	2233	2061	3213	1285	5586	6152	6154	6013	
130	286	298	282	285	299	174	144	303	2762	2763	422	2764	295	4556	98	135	308	297	2420	2419	2	3392	3572	821	4558	4555	819	2766	296	6217	820	2449	5434	5445	5446	289	1516	1519	280	154	307	309	2421	4557	2450	6018	5139	291	2783	522	6304	6324	3571	5594	167	5435	2765	
440	591	325	650	718	722	442	445	2618	721	331	323	719	462	2150	2621	720	2562	232	2149	1352	4274	322	758	597	2151	2623	5136	655	727	723	725	724	654	658	660	2620	1350	4275	1403	98	5426	656	5135	726	1351	2563	3960	4911	3959	459	3958	5641	731	4720	5639	3412	3413	594	6383	5740	6130	5640	1353	6131	5918	586	5433	2579	
748	2816	735	880	2817	2152	753	3089	1389	1383	3086	1386	2960	2154	2155	1834	1108	442	3088	2961	1833	2962	3208	736	1392	3087	2000	1109	4411	2963	1995	1384	755	2964	4743	4745	1390	2153	3856	3090	1999	5712	5711	4412	3857	4633	2537	1835	5464	5463	5880	3085	870	459	1388	5292	3091	1391	4225	5881	1998	2561	3826	4634	3084	6384	5919	4712	4713	4728	3756	3792	763	588	445	5828	6169	638	5844	5921	1385	1387	5829	6155	5920	5986	4226	5484	5483	5359	5358	4744	3858	5830	5994	
1399	827	563	575	1397	1394	1396	826	1395	1562	2096	1564	1563	2094	2451	1565	1398	2095	3423	561	2713	2452	1894	1896	3422	823	1895	1400	2097	3241	3475	3474	645	3348	3349	3240	5903	1898	3242	1897	5568	3801	5351	3618	6081	6311	2711	6433	6144	3667	5395	5394	5905	5904	5408	4228	6454	3802	2453	
10	560	564	567	572	1552	1554	576	1	65	570	3023	30	565	3022	71	47	571	3315	3313	3021	5479	0	573	574	647	3024	3312	3505	561	646	563	569	575	1555	1553	3314	1556	6239	4644	125	4660	5698	4905	5949	5948	4645	5222	645	70	29	649	55	117	5592	2785	2706	3506	4661	5848	5223	5950	124	5196	6338	568	562	
2264	1181	2630	3005	2891	1496	1277	2893	1104	2265	1419	3131	2633	1184	4270	1417	3006	2892	1274	4268	4269	1857	1416	2631	2632	2634	4272	5337	3296	1497	4271	568	2894	4988	4130	3132	1420	3297	6140	2460	1418	4986	2635	3950	3298	4526	3951	3949	2137	6139	5410	2903	4695	2902	4920	1098	1858	1311	2138	2136	5898	3746	5739	3431	4987	4364	2895	2461	6245	3273	
1219	931	2663	616	602	2659	934	2658	1287	2665	2660	608	607	1291	2657	2662	936	1292	4531	1435	2323	935	3369	3712	164	937	4217	1436	1288	4216	1290	938	1289	932	3711	3371	4962	5175	1446	6162	603	615	2661	930	2664	4532	5411	5176	1445	1444	5177	6161	2588	3476	2589	4215	2322	3370	5582	4010	2038	4961	5413	3115	5412	3713	6288	4824	3710	5571	1437	1293	6348	4559	6213	5614	5543	6473	4349	
807	810	536	3383	3382	803	1156	147	3257	1715	809	3380	808	1714	3381	1160	805	5595	2110	1161	2468	806	4527	2467	2470	2311	3645	1155	3256	811	1159	2800	2340	2074	813	138	5736	5737	2469	2111	550	804	541	4979	6354	3457	3379	2310	3393	5388	4528	5387	3139	3885	5171	6171	3394	6011	814	2073	6012	
525	284	159	173	1429	1427	289	523	3617	610	765	3397	766	1431	3398	1441	3396	606	1433	782	1989	1881	601	423	5097	1432	1988	5469	5783	136	1430	1654	135	6202	1653	1991	3217	767	622	4162	617	408	130	5382	1990	1428	5383	5096	4163	5782	2	1167	411	1434	5470	5766	5767	5471	2084	1652	3233	4161	6344	6114	4667	6345	280	6456	1651	5384	
1099	566	562	1098	648	1104	1102	1101	1497	2165	2166	1103	1100	1498	568	2170	1181	1097	1856	2168	2164	1107	1804	2167	2169	5105	2071	2070	1858	1184	1106	10	1807	1805	560	2514	2515	1803	2606	3690	3691	1311	1857	3438	2023	1105	1806	6209	2516	3291	1859	1836	3202	2163	5885	
9	141	485	116	53	2126	493	4365	482	487	2129	4054	2463	484	4057	2464	4366	0	496	489	2125	4955	4055	5742	1	495	2128	2127	4716	4367	5025	374	99	483	491	2	4056	4803	2465	4802	4956	1887	1888	6157	6158	5318	3332	329	65	37	1251	134	107	488	277	4717	2466	128	5612	113	5	4980	2580	4981	5319	4958	5348	6192	4957	6316	3470	6291	4195	6315	23	
1595	2801	2803	2012	751	752	2802	2806	2370	2008	5322	451	3804	5794	3806	5839	2805	3803	2010	5793	2770	3128	3374	1599	2804	2009	2767	2371	5824	3130	3372	3947	5965	581	442	5838	2014	2807	2013	2769	3129	3814	3668	3946	5287	5286	3647	2974	5691	5057	4533	5056	3805	6240	5331	2768	6147	5784	3633	5785	6182	3373	2372	6146	3634	5991	5936	6141	2011	6358	
578	587	579	893	894	889	596	323	592	235	1238	903	3252	904	1064	5037	888	3254	890	3253	900	901	5036	2425	899	1795	3676	338	37	891	1066	1201	1794	5728	5619	902	1239	6010	4478	4477	3975	4486	580	1072	2312	4489	754	5893	6009	3976	6206	5834	6187	3974	6006	6342	4479	892	
1241	1240	881	1535	1541	1536	727	1537	872	1242	2734	5245	2528	2530	462	4262	1538	2531	2529	1542	1539	4263	5008	1061	2527	1540	2549	2551	2550	5244	5930	5929	5741	4264	5438	883	2532	2526	2533	5862	5931	5970	4797	4669	5126	4423	6421	4796	5717	5439	1257	
2486	2489	154	169	619	136	2924	38	3042	135	2488	245	2487	287	521	2	262	83	288	4047	3317	3320	3283	4249	1521	280	534	3316	2926	4046	4248	3508	3507	623	5716	2490	3319	5191	5145	2925	940	939	3930	3318	5658	5256	281	260	3284	5	129	2691	3653	6313	411	417	3043	294	57	409	941	5013	2927	6084	3285	5014	3897	5089	5756	4705	2928	5487	5257	5011	5404	3677	5375	3891	5012	523	5192	
966	1923	1925	1931	1924	1922	1928	971	1927	2298	2944	1929	3786	1926	4368	4420	3787	112	2296	1933	3783	3479	5916	1932	2303	2305	963	2945	3785	2387	4663	6127	2036	5535	3481	3478	6090	981	6126	6007	6008	5461	2035	969	2946	4421	2947	2037	3480	3784	6198	6091	1930	6111	4664	5765	6110	5462	
1052	1053	994	1587	561	825	1614	1055	1057	1589	822	824	569	1613	1591	829	830	1586	1056	1588	1054	1593	998	645	3045	1612	1590	4611	3044	3046	4135	4670	3162	1723	565	4544	5379	4246	4245	3488	4493	828	3161	4828	573	2389	823	6472	646	5457	4136	2390	6037	6036	4543	1592	5962	5777	4829	4848	5240	5493	
1662	2613	1585	1667	1581	1661	2615	2617	1666	1664	2616	3272	3271	1663	2614	3267	371	1582	1665	3268	3269	6416	4255	4256	3943	3944	4166	4165	3270	4257	5734	4164	4562	4563	4573	4574	6178	6001	6365	4397	6277	4167	4575	6233	5553	3945	5802	6276	1584	4564	6295	5953	
1253	2619	1969	1971	4233	1254	650	1972	4231	2564	1255	4232	4823	589	1970	1968	232	4740	3579	659	4788	3589	4739	1257	1735	1975	4789	2833	4822	3588	3587	4821	6357	4738	6356	5952	591	5135	1829	331	2834	6273	5762	3592	3590	4426	4425	6074	6075	6251	6041	5242	5628	1252	4496	1736	4720	1973	6432	6375	5599	6116	6442	6296	6471	5851	1974	3591	
22	88	36	14	1776	1779	0	2810	1775	1778	84	3055	30	5047	39	47	886	1777	884	4087	3831	5046	3832	91	3336	4198	81	58	6067	6092	3955	6272	15	3126	115	1780	2811	3833	3335	5799	5800	4199	3834	4168	4169	3989	2784	2785	2	1781	3056	885	3835	3956	6265	6068	4631	4089	6298	4088	6423	5045	3990	4058	3915	
1152	1204	1154	803	1202	1206	550	1203	1157	1205	1207	1208	2144	78	2247	3031	28	3874	2957	3873	3027	3030	3028	4755	4754	1153	2956	2145	6417	1162	2958	2521	3261	3875	2146	1158	3029	3899	3900	6425	6426	5155	804	147	1161	2959	2148	2523	5335	2522	2147	4031	2248	4759	4760	5601	5495	5374	1909	3200	3201	2246	
1078	1948	18	1638	1077	1942	1639	1082	3741	1944	1939	105	1081	1950	1079	4825	1083	1941	1947	2733	1949	1637	1943	2636	3742	0	1080	1084	3743	4158	6015	3041	6280	4624	9	52	58	73	3957	5063	3039	4160	6340	5332	3040	3199	6410	4194	3198	6281	4159	
448	730	2026	441	733	2027	3728	2337	450	740	2842	2336	739	2844	322	2335	2334	3766	3765	2338	734	2839	2841	2843	3762	3350	460	340	1320	2339	2840	3763	3767	3729	3206	3207	4293	3979	3597	5966	459	4292	732	736	3880	3764	3730	4358	2566	5579	3987	2028	6321	5615	3292	1393	461	3351	735	4926	
1226	43	1237	2016	2015	3744	1227	4012	2608	32	2612	3745	1232	468	2607	2017	4015	2611	2609	2018	4013	4011	4016	481	476	2019	5419	6352	48	1236	4777	4731	5313	2918	4022	6351	5418	1228	2917	0	23	474	2919	15	2610	4730	4732	4014	4589	4587	4588	6441	
577	323	600	661	583	595	1632	1629	344	232	580	662	582	1628	1630	581	593	666	589	460	1442	5651	5653	665	1524	584	5652	1523	594	664	663	5276	1443	1631	4550	1066	1073	115	
256	2048	254	1802	260	30	2051	102	5	48	2049	2047	3237	3235	81	115	3236	2904	2601	2951	55	3353	3352	103	2477	2602	4880	2952	3437	3266	5981	261	1	3234	2605	2052	2604	2050	3265	4879	6023	6024	2682	5040	0	646	257	2785	4666	2046	1213	2603	2290	4707	5869	4706	2953	5514	1134	5871	5302	5200	2683	4235	6395	4384	
194	188	1952	854	698	2933	697	3614	2381	206	4931	3610	316	179	3612	5982	5343	4932	2379	2935	5027	3	349	942	350	2932	2380	2033	6195	1987	359	501	857	3611	5701	4933	2936	5306	5307	6194	2032	210	693	856	1955	3609	3613	3615	2934	6166	4949	5026	6385	4603	507	201	
1184	1282	2217	2655	1179	1182	5808	1180	2654	1097	1186	2218	2316	2652	2656	4291	2315	3151	3358	1858	5356	2319	3692	4006	2020	2023	6227	2653	5807	3357	3693	4007	3152	5219	1619	5810	5809	6228	2317	2318	3359	5925	5926	5656	4005	5655	5928	6226	5743	6062	2219	2633	
468	1225	392	1233	1840	3402	1230	1234	2121	1488	4482	4484	3401	4608	32	1813	1226	2123	4483	3854	4481	3794	1227	2640	2639	4112	2122	1236	1229	4607	2124	2696	4485	1231	4241	2643	4242	6175	6176	6021	6020	374	2919	1333	4606	3795	4605	2695	5432	5125	4050	5731	5254	4049	5049	3855	5611	3838	473	475	
3466	2106	1851	2108	1853	4059	1854	3469	3467	4063	2107	1256	4457	1252	4060	2109	4062	4061	1852	4459	4458	4439	4736	4734	4406	4405	4407	3468	4440	4404	4438	5100	5673	5674	5101	650	4441	4735	5924	5347	6237	6193	6255	5352	
2505	1598	584	581	2504	2503	2501	2502	887	2500	663	1594	4077	762	1597	1820	4078	578	1596	915	919	918	916	5686	5685	6031	442	3012	2859	1725	3685	3684	1878	1877	4641	651	3634	5718	917	1821	5497	4997	3980	6235	3000	5819	5512	1599	
1100	1178	1683	1826	1684	1682	1174	1695	1823	5104	1681	4154	3255	4761	566	2519	1275	1822	1283	1824	4153	4152	4762	3800	3798	3799	5536	1281	1311	2518	1696	5415	5974	4219	1278	1276	568	1097	2020	1282	1277	1686	1680	1685	5350	2520	5975	5577	6325	5769	6220	5114	3007	5277	
784	498	490	1911	2701	2702	2703	1912	4000	9	1913	494	3093	3997	492	3995	3996	2704	1916	1914	2860	3998	3999	1915	3094	3569	4244	238	2861	4157	4243	4758	488	1910	1917	2700	4808	3568	3570	4668	4658	4657	6447	6243	4565	5018	
909	1752	1755	1753	1862	911	1757	4495	914	1756	1860	2245	4261	4260	729	445	1759	3473	1402	4673	4494	4672	3225	1861	1754	1758	6236	4674	3354	4273	5363	4610	1404	910	
1785	1789	965	2296	1787	3076	4076	2923	2035	1786	2382	4093	4091	5468	2983	4110	46	978	1790	4923	5467	2385	2985	3078	4027	4029	2984	6308	2383	2386	6160	4432	4655	6459	4092	2388	2384	4028	4030	4826	6262	6363	5289	3077	4433	4434	5488	3239	6460	6462	4523	5285	5596	1784	0	
2402	3651	3324	2544	2400	3325	3652	5465	2541	2542	3648	3327	3650	5466	3326	4053	923	3830	3932	3931	3649	3933	3328	4099	2403	3699	2543	6431	3698	2406	5892	4637	5006	4656	
1617	4614	4842	4616	4845	4843	1616	1615	4844	5232	582	1618	5814	664	6039	6040	5233	4615	5811	2708	6054	3839	4946	2709	5815	6464	5730	
1323	137	1328	4018	4883	2790	1326	4881	4019	4882	4017	1324	1329	2364	1325	4780	2499	6108	6107	3844	5534	3238	2363	5357	1327	5167	2365	3845	6145	6119	5168	3295	3368	4746	5494	4884	4403	5396	4402	3456	2789	6066	4747	219	6065	5608	4193	5589	6437	4901	6122	6424	
2297	2300	1923	3035	3752	4177	2304	3038	3971	2299	2302	4180	4179	4463	3036	4176	3356	3037	2301	4178	5034	5459	5458	4756	4757	3355	969	2035	4776	4916	6059	4917	6229	5820	2036	4468	
2156	2196	2201	3674	413	2199	2203	2200	2197	2157	2524	2862	3675	3673	4638	779	4640	4210	2890	4639	5879	2159	2786	305	2198	2202	2525	5729	4993	4778	5932	2889	
2685	4652	2686	818	4653	4649	2687	4651	4648	4650	5609	298	2684	5157	5156	3310	282	4654	820	6374	5610	5907	
864	2884	3416	2473	2883	2885	4417	1434	3362	3363	4418	4378	2474	5003	622	4379	5002	4424	5021	290	2476	2475	4419	5227	6135	6134	5085	831	865	4416	4381	4380	5004	4253	4252	5321	1428	
2870	2867	3196	2868	3194	2710	2869	3937	3938	1894	5603	2711	5604	3942	3197	3195	5209	2714	2712	4145	3877	2871	3564	6350	4643	2713	
512	511	4094	4095	513	3100	4138	3860	178	3180	4097	4137	2081	502	3574	2082	196	4084	4098	4085	4139	3573	3101	3924	4282	193	205	4096	4086	3575	6392	3925	3926	3754	6292	4281	3755	3972	6203	
3434	3009	3436	4067	3435	3558	4068	4069	5130	4749	3432	5131	4750	2584	3433	4066	3011	5129	3010	3054	2749	6086	4950	5231	5325	3552	
2638	2644	2642	3593	2121	2735	3820	3819	3594	3596	2122	6186	3822	3595	4214	3821	4768	5660	6185	3749	2736	4938	3750	2641	4769	4925	4277	
843	699	4856	4860	682	3426	3425	675	85	674	690	4859	3427	2969	701	4861	3424	5520	6282	842	2940	688	685	1730	4858	4857	6079	5430	844	6440	4830	4873	4863	4864	6225	6322	3630	960	2970	700	2971	
4052	5565	5563	5564	5562	3714	4051	5566	5954	5397	
2699	4698	4697	4701	5272	4699	4700	1001	1294	5273	3164	5654	6366	4737	
2244	2252	2249	2251	2250	4688	4689	5044	5043	3399	5338	1759	4106	2253	1757	3400	3225	4108	1753	4107	4222	5996	5341	6430	4109	6429	5317	
3184	3302	3182	5825	3183	1941	5826	5827	3303	5278	3301	4350	
750	5323	6047	1965	5324	6046	1964	1967	1963	4362	6048	6369	5896	442	1962	1966	6370	3896	6199	6401	
3105	3916	2517	3106	3917	3918	3919	1695	2519	5154	5544	
1940	3496	1946	1945	3149	4547	1078	4548	4546	4545	5687	1949	3150	3498	3497	5942	5726	4684	
