512	52
520	178
520	636
614	488
530	592
530	385
531	394
536	389
540	398
602	213
542	338
31	0
34	0
550	234
553	224
553	590
557	404
558	375
559	377
560	174
562	360
564	375
565	368
54	0
54	1
54	273
567	356
568	394
569	146
570	196
59	2
59	262
573	405
574	178
575	219
65	7
66	2
66	286
579	298
581	396
582	389
71	0
584	168
586	365
610	363
590	224
590	553
80	14
593	404
594	363
595	195
596	385
599	398
600	448
601	373
90	24
90	5
90	254
603	200
92	8
92	346
92	332
94	2
94	330
94	13
94	246
94	421
607	369
607	655
609	358
98	2
651	592
613	362
102	2
104	20
617	191
618	369
107	3
620	528
621	418
110	9
623	362
624	360
113	345
113	2
113	10
626	365
115	10
116	2
629	357
118	16
119	29
632	420
633	385
634	514
635	361
124	11
125	25
125	4
638	513
639	529
641	538
652	527
131	9
645	528
646	592
647	522
136	14
649	517
138	9
139	19
140	2
653	515
654	516
143	23
144	0
144	334
144	6
145	30
145	95
147	11
148	7
149	24
150	27
151	22
152	6
153	0
155	21
156	25
158	16
161	17
162	96
162	22
163	1
625	544
171	36
171	455
177	5
627	538
628	399
543	373
189	509
189	53
189	373
592	385
592	530
592	651
592	646
637	533
195	595
195	219
195	46
195	495
630	529
199	46
631	362
631	661
211	537
211	36
211	7
218	45
655	607
222	496
222	1
222	37
225	17
225	14
229	45
230	412
230	15
636	520
239	29
240	6
241	53
622	369
245	10
246	94
248	6
656	604
656	662
656	663
251	417
251	15
253	24
261	57
266	72
268	6
270	14
271	8
272	89
275	450
275	45
276	72
276	7
279	55
280	24
280	201
280	434
280	130
280	477
283	77
284	89
285	13
287	70
290	70
294	56
295	74
296	15
297	53
298	42
298	579
298	503
298	215
299	56
300	43
301	89
304	33
306	26
306	7
308	95
310	51
311	14
312	16
313	24
314	79
315	24
315	130
316	108
320	1
322	58
323	105
324	25
566	362
326	58
326	75
327	37
328	36
329	48
329	45
330	94
331	33
332	92
334	144
335	25
336	129
337	55
339	528
339	561
339	46
340	26
341	39
342	25
344	19
345	113
346	92
347	75
348	61
349	42
350	154
351	19
352	8
353	91
354	41
366	49
367	172
659	642
372	99
376	203
660	642
378	49
661	631
388	201
662	656
390	169
392	46
396	170
396	581
397	167
403	203
408	201
410	170
413	48
415	228
419	259
423	168
425	234
426	121
427	58
429	41
432	196
434	280
436	203
437	274
441	77
442	277
444	277
446	73
447	50
447	597
448	600
448	130
448	398
453	81
454	214
455	171
456	259
457	73
458	99
458	591
459	202
460	164
461	178
461	362
462	219
463	154
465	221
467	209
469	62
470	303
471	267
475	130
475	45
476	214
477	280
478	82
479	95
480	58
481	173
483	244
484	160
484	183
485	46
486	201
487	201
489	62
490	81
491	57
492	82
493	190
495	195
496	222
497	197
498	237
500	78
501	220
502	166
503	298
504	215
505	196
506	255
508	168
509	189
510	258
511	121
