61	0
75	0
75	257
75	18
75	439
79	0
79	272
79	325
79	768
79	661
80	0
83	0
88	0
88	362
90	0
90	371
94	0
94	711
94	552
94	16
94	753
94	317
104	0
104	776
104	402
104	7
111	0
111	429
116	0
121	0
121	676
121	360
121	555
121	296
121	58
123	0
124	0
126	0
130	0
131	0
133	0
133	757
133	6
134	0
134	55
135	0
135	3
137	0
170	760
170	955
170	20
170	630
180	0
180	720
180	594
192	0
192	347
217	8
222	344
222	23
222	7
225	17
233	672
233	10
233	6
233	735
240	25
241	50
243	584
243	10
243	6
244	15
245	674
245	44
247	9
247	34
247	5
247	705
251	610
251	86
251	31
252	0
255	68
257	75
258	35
258	51
258	350
258	937
267	48
270	169
270	98
270	10
270	670
270	605
274	2
274	639
276	0
276	51
278	33
283	1
283	572
283	63
285	4
286	11
288	593
288	27
292	9
292	737
292	4
292	679
293	1
293	21
300	28
303	55
306	8
308	24
308	38
312	344
312	34
312	84
312	7
313	81
314	2
314	514
314	789
317	94
320	26
320	67
321	747
321	29
321	6
324	2
325	79
326	32
327	103
328	8
331	54
333	95
335	55
337	0
337	680
337	15
339	33
339	91
340	13
346	46
351	198
351	47
353	63
356	6
358	107
359	18
360	3
360	296
360	555
360	940
360	121
360	58
361	37
365	87
366	58
367	6
368	65
373	100
373	7
374	10
375	10
377	23
378	54
381	7
383	136
383	49
383	835
383	5
383	751
386	4
389	30
390	6
391	15
392	45
394	2
394	932
395	54
396	2
397	4
398	3
401	72
402	104
403	3
405	20
406	23
407	38
408	50
409	77
410	2
411	53
414	8
414	68
414	901
415	1
416	51
417	953
417	12
419	63
420	0
420	3
421	97
422	35
424	56
425	249
425	906
425	796
425	1
426	3
427	10
428	91
428	4
429	111
430	1
431	22
432	6
433	18
434	59
435	13
436	98
437	31
438	13
439	75
440	34
443	33
443	4
458	152
458	98
458	818
462	35
462	117
462	926
478	84
492	12
500	57
504	110
509	142
509	951
510	840
510	6
513	148
513	941
519	144
519	864
519	138
519	92
519	6
520	198
523	164
530	136
536	98
548	187
548	845
549	172
550	193
553	98
553	898
553	6
554	187
554	927
561	11
561	220
565	265
567	155
568	178
575	136
585	27
588	239
589	142
590	162
591	43
593	288
598	19
603	229
606	187
607	147
610	251
616	12
618	254
620	59
621	17
622	57
622	226
624	208
629	187
632	215
633	193
634	20
635	164
638	162
639	274
642	105
644	213
646	152
648	201
651	176
651	948
651	44
655	296
656	166
658	159
659	22
663	186
664	12
667	167
668	91
671	97
672	233
675	9
678	197
679	292
681	84
682	81
683	205
686	154
690	187
692	183
693	6
694	146
695	125
696	212
697	203
703	59
703	12
704	6
705	247
706	236
708	156
709	215
710	364
711	94
712	97
714	6
715	185
717	268
718	246
721	96
721	2
722	315
723	944
723	157
725	295
727	193
729	78
732	211
733	41
734	223
735	233
736	29
738	259
739	4
740	139
741	167
742	248
744	9
745	211
746	147
747	321
748	187
749	187
751	383
752	219
753	94
755	98
756	24
757	133
758	476
758	894
758	22
759	22
760	170
762	269
763	97
764	271
765	164
766	91
768	79
769	165
772	46
773	265
775	228
776	104
777	96
778	223
779	282
780	100
781	37
782	199
787	76
788	187
789	314
790	6
791	2
792	68
793	171
795	153
796	425
797	341
798	246
799	237
800	193
809	468
810	467
810	1054
814	184
826	467
837	223
840	510
842	466
843	472
845	548
846	176
851	447
864	144
864	1003
864	519
866	526
868	441
869	364
871	1009
871	1033
871	215
872	522
876	322
877	472
879	441
880	498
882	184
887	460
888	484
894	476
894	758
895	1019
895	364
895	295
896	385
897	153
898	553
899	87
901	414
903	539
904	466
905	535
906	425
907	242
908	269
909	491
910	450
913	139
914	611
915	448
916	336
917	526
918	1059
918	599
918	215
919	363
922	155
924	448
925	161
929	479
930	207
932	394
934	226
935	231
936	128
937	258
938	450
939	281
940	360
941	513
942	450
943	318
944	723
945	348
947	329
948	651
949	580
950	477
951	509
952	502
953	417
954	514
955	170
956	578
957	87
958	207
959	467
960	480
962	538
963	448
964	128
966	412
967	151
968	596
969	573
970	363
971	496
972	521
974	272
975	309
976	560
977	482
978	175
986	266
988	807
990	808
992	497
993	816
995	182
997	830
999	465
1002	861
1003	864
1005	485
1010	451
1011	847
1012	820
1013	457
1014	676
1015	522
1016	454
1017	477
1018	849
1020	839
1023	808
1024	608
1025	450
1026	456
1027	473
1028	676
1031	451
1032	195
1033	871
1034	441
1036	605
1037	599
1039	179
1040	784
1041	238
1042	456
1043	820
1045	645
1046	834
1047	441
1048	516
1049	545
1050	477
1051	455
1052	582
1053	802
1054	810
1055	808
1056	833
1057	441
1058	545
1059	918
1060	566
1061	830
1062	878
1063	820
1064	344
1065	665
1068	813
1070	785
1071	828
1074	803
1075	979
1076	830
1078	813
1080	1089
1080	487
1082	827
1083	834
1084	878
1085	859
1086	540
1089	1080
1092	1090
