0	24
0	1
0	5
1	2
1	12
1	14
2	17
2	3
2	20
3	11
3	4
3	15
4	1
4	5
4	23
5	20
5	6
6	16
6	8
6	7
8	9
8	18
8	21
9	25
9	10
9	14
10	18
10	11
10	4
11	2
11	12
11	21
12	17
12	19
12	13
13	2
13	10
14	23
14	4
14	15
15	16
15	25
15	7
16	17
16	3
16	13
17	9
17	18
17	11
18	24
18	19
18	13
19	3
19	20
19	6
20	9
20	26
20	12
20	21
21	26
21	27
21	22
22	23
22	5
22	15
23	24
23	1
23	19
24	16
24	25
24	10
25	26
25	21
25	22
26	8
26	22
