143	0
143	42
143	95
146	0
146	137
146	2
146	102
146	48
158	0
158	148
158	5
172	0
172	1
172	77
172	30
176	0
176	48
192	0
192	122
219	0
219	6
222	0
222	1
222	27
222	69
224	0
224	196
224	6
234	0
234	128
234	2
234	50
234	80
236	0
236	50
236	3
236	183
252	0
252	83
275	0
275	1
275	5
275	13
275	148
275	27
316	0
316	34
316	102
338	0
338	48
338	187
338	319
357	0
357	343
361	0
361	265
361	11
361	356
364	0
364	11
364	4
364	343
374	0
374	97
374	340
374	32
378	0
378	345
378	335
378	350
378	79
380	0
380	369
421	1
421	38
430	1
430	29
451	385
451	129
451	27
451	193
500	480
500	488
500	2
500	90
502	2
502	187
512	138
512	3
512	508
512	29
514	9
514	3
514	117
517	59
517	3
521	9
521	3
524	3
524	20
524	463
536	145
536	123
539	305
539	10
539	123
546	48
546	55
547	48
547	23
548	68
548	14
548	48
548	21
548	187
548	319
557	1
564	1
572	281
572	284
572	22
572	313
579	4
579	37
579	15
586	584
586	4
586	582
586	47
649	1
649	406
649	63
664	2
664	10
665	2
665	4
665	354
667	2
667	63
677	208
677	673
677	2
677	674
685	250
685	31
705	0
743	0
743	184
743	37
743	481
765	761
765	3
779	328
779	1
782	120
782	177
806	6
808	41
808	6
809	6
810	6
813	200
813	257
829	617
829	100
829	789
829	726
832	0
832	340
853	851
853	7
857	7
862	109
862	6
875	259
875	461
893	9
894	32
894	456
908	10
908	327
909	10
909	907
909	327
915	389
915	30
922	836
922	12
923	12
925	12
929	65
929	365
929	70
929	671
930	671
930	189
930	365
936	1
936	762
936	233
949	13
952	14
973	184
973	57
975	131
976	8
976	131
976	4
988	84
988	637
994	16
996	16
1013	513
1013	618
1013	670
1013	31
1024	17
1025	274
1025	666
1037	166
1040	18
1040	267
1040	1038
1042	18
1045	97
1045	571
1045	310
1045	313
1048	19
1048	14
1048	1047
1051	19
1053	969
1053	69
1053	405
1055	761
1055	54
1057	10
1057	317
1068	8
1068	1059
1070	8
1072	8
1072	675
1072	365
1072	295
1079	852
1079	201
1079	475
1079	452
1079	7
1085	249
1085	591
1101	129
1101	1100
1101	189
1107	145
1107	84
1117	177
1117	462
1122	25
1140	864
1140	646
1140	11
1140	625
1140	121
1140	63
1145	29
1149	833
1149	1130
1149	4
1151	4
1156	4
1157	712
1157	178
1157	708
1173	341
1173	39
1178	64
1178	1007
1187	249
1187	591
1190	32
1197	851
1197	76
1214	21
1221	17
1221	1220
1231	6
1235	35
1244	38
1246	39
1255	22
1261	33
1261	154
1261	1204
1263	185
1263	237
1270	43
1274	31
1277	513
1277	1083
1277	100
1277	31
1284	45
1289	46
1294	47
1316	50
1316	92
1319	49
1322	49
1322	1317
1322	1321
1325	52
1328	53
1330	1329
1330	171
1330	295
1335	508
1335	29
1338	544
1338	51
1340	51
1343	515
1343	54
1354	57
1358	794
1358	84
1363	178
1363	708
1363	718
1366	11
1371	61
1372	115
1372	963
1376	12
1377	193
1377	66
1377	12
1377	1375
1380	309
1380	63
1381	63
1383	64
1385	65
1388	1320
1388	49
1389	1320
1389	49
1389	1317
1389	1318
1390	277
1390	103
1394	168
1394	15
1395	15
1402	6
1411	5
1412	5
1412	822
1413	69
1415	71
1417	25
1417	538
1417	7
1417	71
1421	18
1421	245
1422	18
1423	267
1423	7
1430	9
1436	72
1436	215
1438	73
1438	178
1440	74
1440	63
1442	75
1446	331
1446	187
1447	48
1447	713
1447	1129
1449	48
1449	384
1450	48
1450	978
1450	492
1452	77
1461	78
1466	79
1472	82
1473	82
1473	1087
1477	40
1477	256
1477	1266
1478	60
1482	241
1482	1481
1487	904
1487	138
1487	270
1487	1367
1487	1016
1487	507
1489	64
1489	1219
1491	2
1491	1052
1494	85
1494	1493
1495	86
1498	97
1498	885
1499	870
1499	247
1500	14
1500	319
1502	245
1504	24
1505	81
1505	309
1505	473
1507	24
1510	370
1510	189
1513	10
1515	92
1516	93
1518	94
1519	94
1521	42
1521	95
1525	96
1528	97
1533	40
1533	186
1533	1267
1533	1266
1535	99
1542	121
1542	1298
1542	255
1545	351
1545	103
1546	218
1546	1453
1549	509
1549	262
1550	104
1550	1012
1551	868
1551	122
1551	444
1551	229
1551	63
1553	105
1557	141
1557	767
1558	42
1558	11
1558	414
1558	1167
1559	115
1559	469
1559	470
1560	169
1560	107
1561	67
1561	221
1564	305
1564	74
1566	112
1566	901
1567	43
1567	399
1568	108
1569	1286
1569	159
1570	1480
1570	109
1572	110
1573	110
1575	111
1580	68
1580	11
1580	156
1580	229
1580	63
1582	11
1582	300
1583	81
1588	88
1589	108
1592	57
1597	117
1601	64
1601	119
1602	72
1602	581
1602	206
1604	1133
1604	31
1606	204
1606	1511
1607	120
1608	120
1609	120
1610	120
1611	232
1611	407
1613	129
1613	1470
1614	121
1615	122
1618	69
1619	202
1619	67
1619	221
1620	568
1620	124
1622	125
1622	1621
1633	64
1633	963
1635	1076
1635	142
1638	55
1639	129
1640	129
1644	134
1645	135
1647	47
1649	137
1650	137
1651	249
1651	591
1651	881
1653	89
1655	138
1656	138
1657	97
1657	139
1657	937
1658	106
1660	141
1662	137
1663	1433
1663	11
1663	342
1663	37
1663	142
1666	144
1666	225
1671	44
1672	97
1673	150
1674	151
1675	1254
1675	198
1677	80
1677	121
1677	1302
1677	495
1679	248
1681	462
1681	246
1684	11
1684	221
1685	168
1687	171
1688	171
1689	418
1689	75
1690	265
1690	534
1691	209
1691	342
1692	184
1692	57
1695	97
1695	359
1696	41
1696	801
1697	41
1698	249
1698	210
1698	1123
1699	71
1701	111
1702	181
1704	183
1705	177
1705	1125
1706	632
1706	177
1708	688
1708	1659
1708	141
1709	188
1710	36
1711	1497
1711	427
1711	133
1714	209
1716	193
1717	193
1718	194
1721	179
1722	204
1724	41
1725	207
1726	208
1728	178
1729	212
1730	212
1731	128
1732	128
1732	333
1733	214
1734	787
1734	229
1734	23
1736	216
1737	217
1738	227
1740	242
1742	250
1743	198
1744	256
1745	258
1746	229
1763	240
1763	27
1768	32
1768	456
1768	51
1768	246
1785	470
1785	23
1791	80
1791	314
1791	23
1793	470
1793	23
1794	23
1798	1784
1798	23
1802	470
1802	23
1813	530
1813	123
1813	262
1814	216
1814	106
1814	123
1814	124
1815	123
1821	123
1826	123
1826	622
1826	246
1829	123
1829	541
1829	462
1835	298
1835	123
1835	621
1839	48
1839	545
1841	405
1841	127
1842	127
1843	127
1844	190
1845	190
1846	1345
1846	190
1848	51
1848	565
1849	51
1862	167
1873	1865
1873	170
1880	120
1880	529
1880	1780
1882	9
1892	9
1892	250
1893	9
1893	598
1893	697
1898	9
1901	480
1901	131
1901	489
1901	147
1901	691
1901	792
1902	131
1902	1275
1904	131
1904	1900
1913	9
1913	612
1919	9
1920	520
1920	9
1920	865
1920	600
1920	31
1922	520
1922	9
1922	602
1923	9
1923	1908
1923	505
1924	9
1924	250
1924	612
1925	9
1939	356
1939	360
1939	363
1939	241
1939	346
1939	634
1945	90
1947	90
1960	457
1960	145
1961	457
1961	145
1968	647
1968	63
1969	63
1973	250
1973	1914
1973	650
1982	552
1982	1978
1982	1980
1982	1981
1990	106
1991	106
1992	106
1992	85
1992	654
2002	520
2002	602
2002	1911
2002	650
2002	31
2006	520
2006	31
2014	147
2020	469
2020	471
2027	1912
2027	505
2027	1917
2030	604
2030	100
2030	598
2033	698
2033	339
2036	1532
2036	77
2044	101
2046	272
2046	129
2046	30
2048	30
2049	30
2050	30
2051	724
2051	30
2054	356
2057	2052
2057	356
2064	100
2068	731
2068	31
2069	731
2069	670
2069	31
2076	246
2079	442
2079	246
2080	966
2080	734
2080	246
2081	246
2087	9
2087	612
2090	384
2094	2092
2094	655
2101	314
2101	756
2103	787
2103	757
2103	470
2103	1783
2103	217
2103	314
2105	2096
2105	314
2105	756
2107	1792
2107	314
2107	758
2109	513
2109	689
2111	513
2111	766
2125	120
2125	537
2130	120
2130	2122
2132	1889
2132	602
2132	515
2132	690
2134	682
2134	515
2134	2131
2135	515
2136	580
2136	15
2137	15
2140	470
2146	756
2147	756
2150	480
2154	480
2154	1943
2155	480
2155	488
2160	601
2160	602
2160	515
2160	690
2160	1889
2161	85
2163	303
2163	231
2166	481
2169	139
2169	1790
2175	200
2175	881
2175	1986
2175	412
2180	200
2180	424
2180	1762
2180	812
2181	200
2181	593
2181	412
2181	590
2187	169
2187	563
2187	817
2188	2186
2188	563
2192	707
2192	5
2195	5
2195	157
2206	296
2206	2202
2206	164
2206	746
2206	719
2218	633
2218	1948
2222	826
2222	812
2234	726
2235	634
2235	363
2237	183
2244	2067
2244	766
2248	766
2262	217
2262	314
2262	469
2262	1786
2281	410
2281	118
2288	859
2288	661
2295	801
2295	6
2301	2300
2301	484
2303	2300
2303	484
2304	484
2307	577
2307	578
2307	662
2308	1820
2308	636
2313	406
2313	2311
2318	689
2325	1801
2325	68
2330	2328
2330	689
2330	2116
2334	766
2334	839
2335	2246
2335	766
2340	2336
2340	157
2354	460
2355	460
2368	682
2368	2367
2371	682
2371	2366
2382	130
2384	130
2385	130
2385	2380
2385	706
2401	706
2402	706
2402	2381
2403	554
2405	554
2409	453
2409	2311
2413	456
2416	493
2416	895
2420	484
2421	2418
2421	484
2421	679
2422	2418
2422	484
2424	340
2430	801
2430	109
2432	186
2433	186
2438	617
2443	2267
2443	284
2444	284
2444	2269
2446	805
2448	805
2449	873
2450	873
2453	873
2456	513
2456	520
2456	913
2456	958
2456	598
2456	731
2456	1886
2458	147
2460	643
2460	637
2461	912
2461	684
2470	571
2473	480
2475	480
2475	2472
2476	480
2476	2472
2480	750
2483	432
2484	432
2488	888
2489	895
2491	895
2497	269
2498	269
2502	385
2504	881
2505	881
2512	632
2514	322
2514	485
2514	238
2527	811
2533	2531
2533	869
2539	682
2540	233
2540	682
2541	682
2542	817
2542	819
2552	140
2552	47
2558	541
2560	541
2560	2557
2567	322
2570	734
2571	734
2575	257
2582	825
2582	405
2590	1965
2590	646
2592	646
2593	646
2594	646
2602	965
2605	124
2612	2608
2612	927
2615	190
2616	190
2624	2621
2624	839
2627	386
2634	797
2635	1972
2635	612
2635	797
2635	982
2638	983
2638	943
2641	317
2643	735
2644	859
2644	661
2645	859
2650	2112
2650	768
2655	174
2656	2289
2656	2290
2656	587
2656	2517
2658	387
2660	434
2660	387
2670	931
2674	786
2675	786
2677	525
2681	104
2681	471
2683	108
2685	108
2685	151
2696	2690
2696	571
2696	1004
2696	310
2697	571
2702	2466
2702	571
2711	2709
2711	454
2712	32
2714	570
2718	436
2722	834
2722	403
2722	415
2724	731
2724	670
2726	436
2734	979
2738	1018
2738	979
2744	646
2745	646
2745	63
2746	646
2754	638
2755	638
2757	638
2761	644
2761	2758
2761	638
2761	2751
2762	257
2763	257
2763	595
2764	257
2764	1030
2766	257
2766	595
2775	650
2778	799
2786	402
2788	623
2789	623
2794	646
2794	438
2799	2689
2799	571
2799	1004
2800	571
2800	310
2802	571
2802	2796
2813	2808
2813	482
2813	1052
2813	1106
2820	758
2821	2818
2821	758
2827	2824
2827	371
2831	1044
2832	2689
2832	1044
2833	1044
2836	160
2836	262
2841	340
2842	1026
2842	646
2845	279
2849	2822
2849	599
2850	599
2857	898
2857	2426
2862	931
2862	932
2873	2872
2873	1075
2873	199
2875	597
2877	597
2877	783
2879	307
2882	657
2882	1076
2891	2890
2891	707
2892	483
2894	951
2902	520
2903	520
2904	520
2916	506
2916	1086
2917	506
2923	2398
2923	159
2924	2922
2924	2396
2924	2397
2924	159
2925	159
2928	2399
2928	159
2932	633
2932	1090
2936	643
2936	637
2940	320
2947	998
2950	129
2950	1100
2959	1103
2959	2179
2959	29
2959	437
2961	2960
2961	437
2965	905
2965	1062
2968	905
2970	905
2970	1060
2972	876
2972	2357
2976	2808
2976	1106
2976	1052
2978	1106
2978	1052
2978	205
2978	1903
2982	616
2984	955
2984	590
2988	537
2989	537
2989	1108
2989	1878
2999	554
3003	1586
3003	1851
3003	310
3017	961
3021	400
3023	578
3026	1020
3027	600
3027	684
3030	142
3034	462
3035	528
3035	1115
3035	2557
3035	462
3040	448
3041	448
3044	768
3046	375
3047	375
3057	632
3062	407
3062	127
3064	1840
3064	1748
3064	127
3065	1128
3065	127
3071	826
3074	737
3078	592
3083	2099
3083	758
3084	304
3084	479
3096	389
3099	425
3099	389
3103	3061
3103	407
3108	2124
3108	903
3111	671
3113	1144
3113	34
3114	217
3120	940
3120	3118
3121	940
3121	3118
3135	438
3137	484
3139	1000
3139	554
3141	554
3142	1098
3144	112
3144	472
3148	769
3150	250
3154	895
3157	913
3158	913
3158	1133
3158	958
3159	1084
3159	684
3161	3160
3161	758
3164	836
3173	341
3174	341
3175	491
3175	164
3175	285
3175	230
3177	2672
3177	961
3177	786
3177	115
3180	786
3186	1007
3187	1007
3188	1007
3189	1007
3190	3123
3190	871
3193	1110
3196	1110
3199	387
3201	525
3203	453
3208	698
3212	482
3214	1833
3214	407
3215	668
3215	407
3218	1171
3222	324
3224	417
3225	946
3232	1106
3235	1106
3236	1106
3236	3227
3237	1106
3242	642
3247	322
3254	253
3255	830
3255	567
3257	1193
3257	1086
3259	3258
3259	710
3259	199
3262	1196
3262	199
3264	45
3266	858
3266	851
3272	16
3275	253
3279	928
3279	2509
3286	259
3290	3289
3290	486
3292	609
3293	609
3297	1203
3297	734
3298	734
3302	508
3305	455
3312	400
3312	272
3312	699
3314	285
3315	285
3318	209
3318	874
3320	874
3324	3321
3324	291
3324	101
3326	1043
3327	1043
3328	1043
3336	2874
3336	1075
3338	481
3341	1038
3347	739
3348	600
3350	600
3351	600
3353	3352
3353	740
3358	1181
3359	2243
3359	766
3360	505
3360	1907
3362	3361
3362	692
3364	1007
3365	1073
3370	752
3375	1058
3376	1058
3376	1226
3377	955
3380	1171
3381	1171
3381	3172
3382	644
3384	2633
3384	2581
3384	422
3386	734
3387	734
3388	2165
3388	494
3389	841
3392	860
3394	284
3395	366
3395	359
3397	871
3400	928
3400	3281
3402	928
3403	928
3405	216
3405	259
3406	259
3407	713
3407	1239
3411	756
3412	756
3413	756
3416	799
3417	3415
3417	799
3418	1177
3420	1177
3424	241
3425	241
3427	3426
3427	651
3437	395
3438	395
3438	127
3441	966
3448	251
3448	999
3454	1224
3455	185
3456	185
3460	890
3462	890
3463	2264
3463	1275
3466	367
3471	962
3475	3474
3475	1108
3476	1108
3477	617
3477	619
3477	2980
3478	619
3481	660
3481	742
3482	1276
3483	1276
3487	1198
3492	331
3492	1837
3492	798
3492	231
3493	1527
3493	331
3493	3491
3493	798
3493	231
3494	674
3496	272
3498	165
3500	690
3500	2980
3500	1133
3505	1941
3505	230
3509	458
3517	440
3517	2562
3517	1759
3521	869
3524	1170
3525	1170
3527	1127
3528	1127
3532	1171
3532	1172
3533	918
3534	1176
3541	942
3544	826
3544	2579
3552	327
3553	613
3554	1225
3557	1303
3557	367
3565	1201
3570	3568
3570	489
3571	96
3576	1195
3576	3261
3576	3575
3583	528
3584	528
3584	597
3597	1281
3598	1312
3598	166
3599	166
3606	3605
3606	1167
3607	617
3607	957
3609	957
3614	800
3616	800
3617	800
3617	896
3619	800
3620	861
3621	1833
3621	1115
3623	1115
3624	1115
3625	200
3625	1867
3628	200
3628	412
3629	1209
3631	281
3632	281
3635	980
3641	391
3643	1285
3644	1285
3650	462
3651	462
3652	570
3652	300
3653	594
3654	594
3656	135
3659	1329
3659	793
3659	295
3662	163
3666	388
3668	388
3669	1143
3669	1142
3669	15
3673	1333
3673	1158
3673	3671
3676	457
3680	719
3683	1128
3683	833
3693	3689
3693	907
3695	907
3695	1334
3696	873
3697	1280
3699	508
3701	169
3704	720
3709	429
3710	429
3712	910
3714	910
3715	910
3716	749
3717	749
3718	749
3719	749
3720	1152
3720	401
3720	1200
3721	288
3722	289
3724	1191
3727	390
3728	109
3728	861
3729	1315
3730	1315
3732	1334
3738	163
3739	163
3742	1245
3744	1176
3745	1176
3746	1176
3747	861
3748	1060
3748	1357
3752	2609
3752	709
3752	3750
3754	1192
3754	401
3756	1192
3757	304
3759	2201
3759	164
3759	501
3762	368
3766	1008
3768	247
3769	247
3772	88
3773	88
3776	480
3776	792
3777	230
3780	436
3781	436
3783	864
3783	2587
3783	2589
3784	985
3787	305
3791	1248
3792	689
3792	2829
3795	467
3797	729
3799	1188
3802	184
3805	531
3807	897
3807	3806
3808	897
3814	3812
3814	878
3815	612
3815	982
3818	1248
3818	3816
3819	1137
3820	1169
3821	372
3822	901
3824	87
3826	393
3833	59
3833	3829
3837	320
3837	3283
3843	1382
3844	369
3847	369
3849	379
3849	70
3853	529
3853	3850
3853	3852
3854	819
3854	775
3857	1060
3857	1357
3863	567
3864	2162
3864	1972
3864	750
3865	890
3865	750
3870	201
3870	3867
3873	537
3873	2435
3875	505
3879	3878
3879	623
3885	1056
3896	1382
3897	1382
3904	817
3907	817
3910	675
3913	291
3914	1266
3915	1266
3916	1266
3917	1266
3920	2805
3920	1046
3925	551
3930	741
3931	73
3931	501
3931	559
3932	1425
3932	890
3937	18
3938	1364
3938	3829
3940	1160
3941	1160
3944	3499
3944	1133
3946	1172
3947	1172
3950	847
3959	906
3960	906
3962	1317
3966	394
3966	1532
3972	240
3972	3969
3973	974
3974	1291
3974	726
3974	598
3977	315
3977	1820
3980	1161
3980	532
3982	442
3982	1930
3982	2023
3987	951
3991	951
3992	601
3992	138
3992	2805
3994	510
3995	510
3998	899
4000	1998
4000	31
4004	1050
4004	14
4008	1104
4009	1104
4016	1061
4020	692
4021	692
4025	1252
4026	708
4027	708
4028	505
4029	505
4034	492
4035	4032
4035	492
4036	492
4036	4030
4037	673
4039	784
4043	401
4049	1195
4049	1196
4053	881
4054	871
4055	871
4056	267
4056	3122
4056	475
4056	1439
4056	871
4058	65
4058	1386
4059	739
4061	201
4061	837
4064	1125
4068	1239
4069	4066
4069	1239
4070	1239
4077	256
4077	1272
4079	256
4081	480
4081	4080
4081	3567
4083	861
4084	440
4085	989
4088	1468
4090	457
4093	4092
4093	295
4094	295
4100	917
4106	745
4106	622
4108	225
4112	1219
4113	1219
4117	787
4117	4116
4118	787
4119	1162
4123	835
4123	567
4130	1206
4131	80
4131	2721
4132	836
4133	3390
4133	750
4135	1130
4135	1210
4136	68
4136	694
4137	1433
4138	1129
4140	593
4141	1463
4143	1384
4145	571
4145	1004
4147	1017
4149	410
4149	1750
4150	619
4150	31
4155	4152
4155	4153
4155	655
4159	1139
4163	4161
4163	886
4164	886
4165	66
4168	2840
4168	870
4169	686
4173	319
4176	1416
4179	776
4179	126
4180	689
4182	1483
4186	1008
4187	1008
4188	1420
4193	282
4194	1387
4195	1387
4198	511
4199	814
4201	410
4201	3434
4204	370
4206	31
4210	398
4211	1391
4212	1391
4213	987
4213	2933
4213	2935
4214	345
4217	1086
4220	535
4222	487
4224	1150
4227	4225
4227	1174
4229	1241
4231	1067
4232	1061
4238	296
4240	970
4241	970
4251	1355
4254	258
4254	4253
4254	2223
4257	1326
4258	1326
4262	1262
4266	276
4270	1241
4271	1444
4271	442
4271	876
4272	442
4277	1249
4285	3491
4285	4236
4285	1527
4285	798
4285	231
4287	616
4287	3156
4287	4237
4289	1143
4291	1104
4292	1104
4293	1493
4295	1135
4296	1135
4298	979
4299	1114
4301	1082
4302	1108
4303	4071
4303	343
4304	1005
4305	1005
4306	1005
4307	1208
4308	904
4309	742
4310	272
4310	1532
4314	1249
4315	1249
4316	125
4317	125
4319	2888
4319	881
4319	4011
4319	387
4319	2229
4320	1266
4321	580
4322	211
4322	254
4323	368
4324	346
4324	1938
4327	642
4331	990
4332	1006
4333	721
4336	1097
4337	1298
4338	734
4339	1088
4342	371
4348	139
4353	46
4354	509
4356	1216
4358	1401
4361	1211
4362	1211
4367	585
4369	576
4371	401
4372	323
4374	1441
4376	1063
4378	888
4378	615
4379	554
4379	1218
4382	1018
4383	258
4385	243
4386	1213
4387	138
4390	1275
4393	1345
4396	1562
4396	459
4397	459
4399	1160
4400	466
4400	2919
4402	352
4405	956
4405	590
4407	481
4408	481
4409	706
4410	1470
4411	1470
4411	350
4413	418
4414	620
4415	620
4416	803
4418	3401
4418	218
4419	3401
4419	218
4420	824
4420	1097
4423	1259
4425	1460
4426	1460
4428	643
4428	2933
4428	2935
4433	755
4438	186
4438	1223
4440	838
4440	150
4441	838
4443	1406
4444	1407
4446	1074
4448	803
4450	721
4451	634
4455	1587
4456	404
4459	464
4459	262
4460	262
4462	977
4466	4465
4466	151
4470	1314
4471	1046
4473	706
4477	1170
4478	1541
4479	1541
4480	2589
4480	406
4481	501
4481	559
4482	1458
4484	4474
4484	332
4488	81
4491	3449
4491	1259
4492	880
4493	1166
4499	1278
4500	3089
4500	604
4501	1251
4501	861
4502	141
4505	868
4505	1797
4507	470
4508	470
4511	288
4512	1287
4513	1242
4515	1301
4516	1301
4517	868
4520	140
4521	140
4524	890
4527	870
4529	1100
4530	614
4531	709
4532	709
4533	709
4536	1586
4537	1586
4540	537
4541	537
4542	537
4543	3200
4543	354
4544	177
4545	1336
4546	1336
4548	1320
4549	827
4550	827
4551	827
4553	188
4554	188
4557	1574
4558	1574
4562	1408
4566	817
4569	616
4569	4237
4570	933
4576	1054
4578	729
4579	729
4581	597
4581	1879
4583	1049
4586	1578
4587	1321
4587	3961
4589	12
4589	1375
4591	951
4592	992
4592	3582
4593	560
4594	560
4596	1014
4597	214
4598	1230
4599	1230
4600	1230
4601	1132
4602	64
4604	789
4605	1258
4607	115
4607	4463
4608	1298
4610	1397
4613	1441
4614	1441
4625	1227
4626	706
4627	706
4627	883
4632	1344
4633	1114
4634	1281
4637	461
4639	833
4640	833
4641	1066
4642	1175
4644	1241
4648	3578
4648	286
4650	1600
4653	306
4654	692
4656	55
4657	1594
4658	1594
4660	218
4661	218
4662	840
4664	1462
4664	686
4665	208
4665	674
4668	1144
4669	836
4670	1630
4671	3451
4671	963
4672	1594
4676	328
4677	4352
4677	314
4679	1404
4680	1404
4681	674
4683	1154
4685	1490
4686	1490
4686	205
4687	1031
4688	1648
4691	1448
4692	610
4693	610
4694	1038
4697	1175
4700	1050
4701	1050
4702	604
4709	1540
4710	1351
4711	1229
4712	1067
4712	1676
4713	1243
4714	1243
4715	1616
4718	778
4719	1297
4719	1678
4720	1297
4720	1678
4721	1089
4723	1043
4724	684
4726	896
4727	1137
4727	772
4730	411
4732	1136
4732	1091
4734	946
4735	946
4736	1252
4737	1469
4738	953
4740	864
4740	533
4741	678
4742	1427
4743	1425
4744	1678
4746	415
4747	415
4752	1148
4752	4751
4753	1595
4754	1669
4756	425
4756	389
4757	581
4759	1486
4760	283
4760	342
4761	1269
4762	920
4763	805
4765	356
4766	356
4767	838
4769	534
4770	342
4771	3825
4771	535
4772	907
4773	1134
4775	1215
4776	618
4784	477
4785	1641
4787	707
4788	828
4789	699
4790	300
4794	921
4795	480
4798	565
4799	1555
4800	1257
4802	1538
4803	296
4804	858
4805	675
4806	313
4807	347
4807	3735
4809	314
4810	1177
4811	576
4811	2086
4812	182
4814	623
4815	1479
4818	544
4819	691
4820	399
4822	1493
4824	188
4825	1497
4827	1033
4827	418
4828	417
4829	1634
4832	418
4838	1594
4839	1594
4840	1398
4841	419
4843	1631
4844	1603
4846	350
4846	383
4848	1207
4850	723
4851	1185
4853	561
4857	401
4857	445
4858	775
4860	704
4861	704
4862	321
4864	183
4866	1236
4866	3501
4868	1083
4869	323
4870	1603
4872	1670
4873	843
4874	744
4875	526
4877	478
4879	324
4880	363
4881	375
4883	582
4884	403
4887	1321
4888	902
4889	711
4890	711
4891	1193
4892	128
4894	801
4895	1337
4896	497
4897	674
4898	377
4900	676
4901	1554
4902	1652
4903	939
4906	1387
4907	1433
4908	1260
4909	1296
4910	1250
4911	935
4912	272
4913	666
4914	737
4915	249
4916	937
4918	1664
4920	963
4921	1223
4922	501
4923	540
4924	540
4925	1713
4926	335
4927	396
4928	864
4929	626
4930	1210
4932	1212
4934	1021
4935	1305
4936	631
4937	431
4938	921
4939	1544
4940	669
4942	698
4945	698
4945	2023
4947	2034
4947	698
4947	461
4957	1890
4958	1890
4960	1890
4965	589
4968	2211
4968	1948
4969	1948
4978	1832
4978	2297
4978	1827
4978	1934
4979	691
4981	1783
4990	2249
4990	775
4991	2373
4991	2151
4992	2373
4993	2373
4993	2151
4995	1875
4998	1875
5004	1865
5004	590
5007	2336
5007	2342
5008	2336
5008	2459
5010	1786
5013	2418
5019	5015
5019	2007
5026	1801
5026	2324
5033	1784
5034	1784
5039	312
5039	2549
5040	312
5040	2205
5044	1747
5053	1976
5054	2210
5054	2215
5055	2065
5055	2210
5055	2066
5055	2215
5056	2210
5056	2214
5061	2487
5062	2487
5074	955
5075	955
5081	5078
5081	2142
5082	2361
5082	2357
5082	1830
5085	1830
5086	2642
5086	2620
5086	1830
5090	2173
5110	1911
5112	650
5112	2389
5112	1911
5116	5113
5116	2267
5119	336
5119	2201
5120	2337
5120	2341
5128	2535
5129	2058
5131	5099
5131	2526
5137	1977
5146	2247
5150	2625
5150	2621
5157	2621
5157	2623
5160	2529
5160	525
5163	1832
5163	2678
5163	2679
5165	1832
5166	1832
5167	1832
5170	1808
5172	1808
5173	791
5173	5078
5173	5103
5174	2115
5174	766
5175	2115
5176	825
5177	825
5177	2580
5177	2631
5180	5144
5180	2646
5184	719
5186	2119
5187	2721
5187	415
5191	1761
5194	1761
5194	2740
5198	1942
5199	1942
5209	2059
5213	780
5218	479
5219	1789
5219	479
5226	2075
5227	2168
5227	1790
5229	2168
5229	1790
5232	2082
5237	5233
5237	1876
5240	312
5240	3472
5244	2479
5245	2682
5245	791
5245	5103
5256	2263
5260	2769
5260	926
5264	2808
5264	2812
5264	5263
5266	1767
5268	2219
5269	2172
5276	479
5277	2112
5277	2242
5277	5020
5277	5015
5280	1073
5284	2445
5288	1776
5289	1776
5294	585
5303	597
5309	2445
5309	2853
5311	440
5316	2888
5316	812
5320	2257
5321	2257
5323	2285
5325	5322
5325	2285
5327	1964
5329	1777
5329	1964
5329	2756
5331	2756
5331	1964
5333	2851
5333	5278
5341	2529
5341	5340
5345	2032
5346	2032
5347	296
5347	2208
5347	5182
5347	2687
5349	2920
5349	2921
5349	298
5349	1831
5352	2513
5352	5351
5355	2240
5355	5353
5357	2647
5358	2647
5360	965
5366	965
5371	1758
5372	1758
5373	912
5374	912
5375	2621
5379	2425
5380	2425
5381	2407
5381	1102
5381	646
5381	1967
5388	5387
5388	2357
5390	2067
5394	2067
5394	2979
5394	5391
5397	1760
5397	5073
5397	955
5397	5396
5403	2657
5403	3004
5403	3005
5412	578
5414	578
5414	2306
5419	1866
5428	336
5428	5423
5429	336
5429	2201
5429	5424
5430	336
5430	3053
5433	2427
5434	2427
5435	2440
5437	2067
5448	1994
5448	5446
5452	2329
5453	2329
5458	2580
5458	5455
5459	2584
5459	2580
5459	5455
5460	2580
5463	3112
5463	865
5464	865
5465	2197
5467	2258
5471	2290
5471	5470
5472	2521
5472	2290
5474	2632
5476	865
5477	2271
5481	5479
5481	1831
5482	1018
5482	2732
5484	2751
5485	2515
5485	2637
5485	943
5487	2515
5487	943
5488	495
5499	2241
5500	656
5500	2249
5500	3133
5505	5489
5505	1082
5505	5491
5505	5502
5506	1082
5506	5491
5507	2780
5514	472
5514	2018
5520	2688
5521	2688
5524	5522
5524	2190
5526	2586
5527	2620
5528	2620
5533	2298
5534	2441
5534	2270
5535	2441
5535	2270
5536	5359
5536	2623
5543	363
5545	3000
5548	2719
5551	3080
5551	2818
5553	2434
5560	5558
5560	3054
5566	2880
5567	2880
5572	650
5574	3085
5575	944
5575	2867
5579	406
5580	1942
5584	1983
5585	1983
5586	2983
5587	609
5589	1082
5598	2939
5598	5595
5599	3248
5599	2939
5603	2388
5604	2388
5605	2388
5607	2070
5609	2688
5610	2688
5614	5611
5614	3421
5614	1086
5617	2843
5624	5258
5624	2687
5625	1979
5628	2768
5632	991
5635	3249
5639	812
5641	3072
5644	834
5648	1941
5654	699
5660	2672
5661	2672
5665	2065
5666	2065
5670	325
5671	3136
5680	1884
5682	2117
5682	766
5683	3300
5683	766
5684	3342
5688	2665
5689	2767
5690	2767
5691	3118
5691	3119
5700	957
5700	2805
5704	2091
5705	2581
5708	2200
5708	2209
5708	5706
5708	5707
5708	4983
5711	2200
5711	2209
5711	5706
5711	4983
5713	2031
5716	3066
5717	3066
5718	1859
5721	2328
5726	746
5727	3204
5728	3204
5730	2531
5731	1927
5731	2061
5731	2063
5732	1927
5732	2063
5734	2417
5737	2581
5738	2495
5739	2165
5742	2689
5742	5723
5748	1106
5749	1106
5749	3226
5750	1018
5758	2153
5764	3256
5764	5763
5764	3421
5767	2943
5772	2390
5778	2065
5778	5774
5780	3125
5782	2320
5785	2733
5786	1017
5786	5291
5786	2733
5786	2870
5786	5783
5788	1529
5788	979
5788	2733
5788	2869
5790	5759
5790	3452
5790	485
5790	3198
5790	3191
5793	2348
5795	3037
5795	3038
5801	3240
5802	3240
5803	3240
5807	2023
5808	2023
5812	598
5816	2246
5820	2099
5824	3408
5825	1181
5826	1181
5830	312
5830	3472
5831	312
5832	3016
5832	660
5836	730
5838	1098
5839	1098
5841	5840
5841	1748
5842	3398
5844	2407
5844	2315
5844	3372
5844	2311
5845	2311
5846	2980
5849	991
5851	3226
5857	1889
5859	979
5859	2869
5862	1832
5866	2168
5869	2971
5871	3156
5872	740
5875	3439
5876	735
5877	2562
5877	1759
5878	2887
5878	1759
5879	1759
5880	5313
5880	1759
5883	2099
5885	5882
5885	2099
5886	2254
5890	904
5894	1851
5896	1109
5898	2619
5901	3088
5902	3088
5902	5440
5905	1957
5909	2356
5911	2328
5911	5719
5912	2100
5912	3342
5913	3522
5924	2406
5926	2427
5926	2853
5929	2129
5929	3060
5937	2037
5938	1809
5939	1965
5940	1965
5940	3559
5941	1765
5942	1765
5947	2211
5949	2032
5950	2032
5950	5948
5951	2032
5952	2032
5956	2682
5956	3343
5961	2126
5963	2500
5964	2500
5967	3580
5967	5965
5967	2182
5971	5969
5971	1310
5983	2472
5983	5552
5984	2472
5984	5552
5991	2866
5992	2866
5993	3605
5993	1167
5994	3184
5994	1167
5997	3610
5997	2022
5998	582
6008	1860
6008	6007
6012	2272
6012	6011
6015	845
6018	2808
6018	3234
6020	2870
6021	2506
6022	2506
6023	2506
6023	2610
6028	3210
6031	3210
6031	6030
6034	932
6035	932
6036	1239
6038	805
6039	1264
6040	367
6047	320
6049	2920
6053	669
6055	669
6059	6057
6059	2045
6061	3613
6062	3613
6066	1795
6069	1010
6069	3171
6081	2637
6082	3181
6086	3810
6086	5439
6086	3087
6094	2792
6094	3678
6094	719
6096	2617
6099	6098
6099	755
6104	1941
6105	1941
6105	1903
6110	730
6113	3018
6114	3228
6117	2791
6118	6115
6118	2791
6125	1172
6127	785
6128	785
6131	3138
6133	3138
6140	3480
6141	3480
6143	2866
6144	2629
6145	2629
6146	2629
6147	2445
6147	2854
6148	2445
6148	2853
6149	867
6150	2969
6158	2227
6159	2227
6162	2455
6162	1887
6163	6160
6163	1887
6172	2153
6173	624
6173	3151
6174	3151
6175	2619
6178	2608
6179	1788
6181	3396
6181	366
6186	3613
6189	679
6192	3440
6195	2606
6197	2129
6198	2129
6199	2129
6199	1126
6203	3283
6203	3835
6205	931
6206	3289
6209	3707
6211	2979
6214	3330
6214	6213
6217	1789
6220	567
6221	567
6222	3626
6225	3162
6226	6224
6226	3162
6228	1225
6228	6227
6231	663
6232	3344
6237	1010
6238	1010
6240	1010
6241	2690
6246	2752
6248	594
6249	594
6251	898
6251	5308
6254	898
6254	6253
6256	2389
6264	2587
6265	2519
6266	1199
6267	728
6267	5052
6272	728
6272	2025
6272	5052
6272	1894
6273	2022
6274	2022
6276	823
6282	2485
6283	2485
6284	3153
6285	2728
6290	2219
6291	903
6292	3647
6298	1089
6298	6294
6299	1089
6299	6294
6301	1937
6301	1951
6302	3284
6303	3708
6303	429
6305	940
6306	3043
6312	3329
6320	2888
6320	6318
6321	3185
6324	1875
6327	339
6327	1774
6328	4114
6328	2859
6333	3283
6335	3283
6335	3835
6336	3581
6339	2689
6341	3567
6345	1854
6348	1866
6348	590
6350	695
6353	3550
6353	6351
6354	3550
6354	6351
6355	3806
6356	3806
6357	2824
6358	2824
6359	2631
6361	2906
6361	503
6362	2907
6362	503
6365	3283
6366	2118
6367	5384
6367	2603
6367	2604
6367	6307
6368	2604
6369	2657
6369	5402
6375	3429
6378	1749
6380	2016
6383	3518
6385	2516
6386	2516
6388	460
6390	2331
6395	348
6397	1075
6400	370
6402	2296
6402	1934
6404	6041
6404	3119
6411	656
6411	2249
6412	3841
6417	2367
6418	2367
6421	2481
6423	3850
6424	3816
6425	523
6426	2267
6426	2268
6427	3618
6428	881
6428	1029
6428	1869
6428	1865
6433	2801
6433	2700
6434	2239
6437	3677
6440	2979
6441	2205
6441	2223
6443	1077
6443	3278
6445	6442
6445	1077
6445	3278
6446	2521
6447	1937
6453	2614
6456	2562
6457	2630
6458	879
6463	1113
6463	2098
6463	2269
6464	1113
6464	2098
6464	2269
6465	5650
6465	1941
6466	1941
6467	1941
6470	2390
6473	1019
6474	5377
6474	1812
6475	2597
6476	701
6476	2198
6478	3499
6479	3543
6481	1315
6482	2809
6483	2040
6483	1811
6483	1958
6485	1098
6485	6484
6486	1098
6486	6484
6489	3443
6490	960
6491	2838
6492	2305
6495	1015
6496	2588
6498	2588
6500	1016
6500	1911
6501	1911
6503	1082
6503	5581
6504	1009
6507	2577
6510	5577
6510	1965
6511	3734
6513	3734
6514	729
6516	3002
6519	3072
6520	2834
6521	2834
6522	2608
6522	3124
6529	2292
6531	2274
6537	6533
6537	735
6541	1373
6542	1373
6546	1951
6547	3983
6547	1951
6549	3061
6552	944
6552	2867
6554	2805
6555	2805
6557	441
6558	441
6559	441
6559	1758
6562	3812
6562	878
6564	1998
6564	3999
6568	3299
6569	3299
6572	2818
6574	2088
6575	2202
6577	1135
6579	1751
6581	526
6582	2689
6583	3452
6586	2777
6588	6587
6588	1908
6590	2205
6590	2791
6591	2791
6594	5512
6594	722
6594	4430
6596	1357
6597	1357
6597	1661
6599	5577
6599	2589
6600	1163
6601	1163
6601	2663
6604	2273
6604	6603
6604	2277
6606	2267
6609	3894
6610	928
6611	928
6612	288
6612	1938
6612	3011
6613	1938
6615	1938
6615	3011
6618	1209
6618	3630
6619	1895
6626	2872
6626	2874
6628	2872
6629	2872
6631	2661
6636	2040
6636	6634
6639	3812
6647	2174
6648	2663
6651	1855
6652	6650
6652	1855
6655	3700
6656	3700
6656	2791
6661	3968
6662	3968
6663	3256
6663	5763
6666	3256
6671	974
6673	1951
6675	3205
6678	3882
6680	2839
6685	2963
6686	2963
6686	2967
6690	6689
6690	2819
6691	2415
6693	2973
6694	2223
6697	2394
6697	5109
6698	1856
6699	1856
6701	1069
6704	910
6707	2545
6708	2545
6709	1875
6709	1780
6710	3999
6711	3999
6714	2017
6715	2017
6718	3803
6720	2908
6723	2992
6725	3702
6727	2065
6727	3329
6731	2572
6733	2721
6734	3830
6735	3830
6737	836
6741	2338
6742	3958
6743	2847
6749	1181
6751	1979
6751	5990
6753	3812
6753	878
6757	2818
6758	2818
6760	2493
6762	3059
6763	2366
6765	2919
6767	860
6768	4166
6768	718
6771	292
6774	1290
6774	6773
6775	1321
6781	2000
6781	5569
6783	3856
6785	6784
6785	2974
6786	2974
6787	2974
6789	2896
6793	4065
6793	1239
6794	2242
6794	6780
6795	2242
6795	6780
6796	3269
6796	5615
6797	2556
6798	2556
6799	1009
6813	1773
6816	2691
6817	2640
6821	1876
6822	1981
6823	3708
6827	1803
6827	5843
6828	3605
6830	807
6831	2427
6831	807
6834	2124
6836	1326
6837	3271
6839	2249
6847	1930
6848	1930
6849	3901
6850	3901
6851	3268
6852	3268
6855	6854
6855	2102
6856	6854
6856	2102
6857	3789
6858	6156
6858	2199
6859	3048
6860	901
6864	506
6865	506
6866	398
6867	296
6867	2865
6867	2202
6869	3908
6872	2964
6875	903
6876	3102
6878	434
6880	2310
6881	2678
6883	2143
6884	3442
6890	2381
6893	2769
6894	2769
6895	2191
6896	3969
6896	1762
6897	3969
6897	5404
6898	3969
6900	3594
6901	3594
6901	4244
6904	3067
6905	2457
6906	2457
6907	4245
6907	2327
6908	2327
6909	4245
6909	2327
6911	2721
6913	4157
6917	3277
6918	3349
6921	2091
6922	2047
6925	6924
6925	1126
6928	3105
6929	1084
6930	3194
6931	1209
6933	4244
6936	2200
6936	2203
6937	2679
6938	5162
6938	2679
6940	1073
6940	2332
6941	1073
6942	1073
6944	3093
6944	6943
6945	4074
6946	4074
6947	4074
6952	5538
6952	6950
6952	2623
6954	2692
6955	2692
6956	2467
6956	2692
6959	3051
6960	3051
6961	4014
6962	3006
6963	3006
6964	2578
6969	4245
6970	4245
6972	1196
6974	2969
6976	3156
6977	1416
6978	3105
6979	3105
6981	2819
6983	6982
6983	3374
6989	1174
6990	1174
6991	2411
6992	2411
6993	4071
6994	5377
6994	1812
6996	1812
6998	2521
6998	2290
7001	3284
7003	3284
7004	2296
7004	5530
7004	5531
7005	2922
7005	884
7006	884
7007	2795
7007	742
7010	2795
7011	4158
7013	1938
7014	3321
7016	4124
7020	3672
7020	3671
7021	2353
7022	2353
7030	2230
7031	2149
7033	2760
7033	5445
7034	3778
7036	2545
7038	432
7041	680
7041	2780
7043	2559
7045	5720
7045	2116
7046	2252
7047	1764
7048	3303
7051	2642
7052	3181
7054	3530
7057	3771
7060	6805
7060	2629
7060	6487
7061	3244
7064	1998
7065	1998
7066	1998
7067	1917
7071	3852
7071	1326
7072	3016
7072	6696
7075	605
7077	2693
7079	3354
7080	1790
7081	1166
7082	3964
7084	2377
7084	2373
7084	2375
7086	3546
7087	1329
7087	3658
7088	2811
7091	1262
7092	3905
7093	2100
7095	1379
7097	2138
7097	3087
7098	3735
7099	4007
7100	2895
7101	3093
7103	2589
7103	3093
7106	4237
7108	4237
7114	661
7115	4268
7115	4263
7118	926
7119	3919
7120	3919
7122	3918
7123	1136
7123	693
7125	693
7127	872
7128	1492
7129	2654
7130	3828
7130	3126
7134	4052
7138	1483
7139	3176
7141	1382
7142	1755
7143	3075
7145	4183
7146	4183
7148	1312
7150	4434
7150	3061
7151	3061
7152	2866
7153	2457
7154	1931
7156	3928
7159	3988
7160	2591
7162	1029
7164	2426
7168	2507
7172	2145
7176	2283
7179	4075
7181	3755
7182	3755
7183	1818
7185	3887
7186	1434
7188	2695
7189	1856
7191	3895
7192	3743
7193	3077
7195	4101
7197	2435
7198	709
7199	4341
7200	4341
7204	924
7205	1327
7206	1327
7210	3192
7211	2756
7212	3022
7213	3022
7214	1202
7215	882
7217	1364
7218	1364
7221	2074
7221	2358
7222	553
7228	1264
7231	4078
7232	1896
7232	1897
7232	5659
7237	2214
7238	3798
7239	3798
7241	4002
7242	1780
7243	1780
7245	3883
7249	7248
7249	3813
7252	1020
7254	4276
7257	3007
7258	2273
7258	6233
7259	1216
7260	1216
7261	6525
7261	2622
7262	2622
7263	2239
7264	3761
7267	805
7267	2429
7268	2993
7269	3178
7270	3304
7271	3506
7272	2468
7274	1471
7281	4434
7282	4167
7284	3983
7288	2596
7290	3855
7291	981
7292	2994
7293	352
7294	352
7295	2297
7297	1959
7299	4223
7300	1955
7302	4490
7302	1955
7305	6818
7305	3615
7306	2898
7307	1863
7308	7018
7308	3396
7309	3396
7310	4406
7312	1286
7314	1166
7317	2586
7318	1878
7319	498
7320	2024
7322	4360
7323	2224
7325	910
7332	3852
7333	2231
7335	2186
7337	491
7339	3160
7341	3136
7343	4047
7344	4047
7345	4098
7346	4098
7347	2275
7350	3572
7351	3572
7353	1911
7354	1911
7355	3107
7356	3107
7358	3642
7360	1912
7361	1912
7364	4233
7366	1007
7367	4359
7368	4359
7370	4181
7371	523
7374	2200
7374	5709
7375	2200
7376	3464
7378	4253
7380	1249
7381	993
7387	1984
7388	1984
7389	1009
7389	4183
7390	1897
7392	2431
7393	3489
7394	3489
7395	2022
7397	2986
7397	2022
7399	2096
7399	5107
7400	1809
7402	4114
7403	3684
7408	3200
7411	3131
7413	1196
7414	1196
7415	2703
7416	3806
7417	3708
7418	3112
7419	3990
7421	4121
7422	2116
7422	2319
7423	2113
7423	5359
7425	3434
7427	2357
7428	3116
7430	3984
7431	3984
7432	3984
7433	3250
7434	1872
7434	6050
7437	6664
7437	5763
7437	3421
7439	2437
7444	3997
7448	2787
7448	4023
7453	712
7455	1065
7464	2226
7464	2203
7464	2548
7465	2995
7466	2042
7467	597
7468	1329
7469	3097
7470	3008
7472	2586
7473	3689
7475	2412
7476	1584
7478	4284
7482	2573
7483	3638
7486	7485
7486	983
7488	1832
7489	3039
7490	4066
7492	3928
7497	525
7499	1094
7500	987
7500	2933
7503	2772
7506	2963
7509	4003
7513	1547
7514	1547
7514	4349
7519	3945
7523	1864
7524	3868
7525	2075
7525	5220
7527	2732
7528	2468
7528	1854
7529	2468
7533	4624
7533	4463
7535	3858
7537	3876
7538	3591
7539	3591
7540	1295
7541	2490
7543	1139
7544	1142
7545	3574
7547	3089
7548	3089
7549	974
7551	2564
7555	7554
7555	323
7556	4457
7557	4595
7558	4595
7560	881
7561	2546
7563	2967
7564	4497
7567	2261
7569	4011
7570	4019
7571	4019
7573	4335
7577	294
7578	294
7580	4153
7580	7579
7583	2208
7583	5183
7583	719
7584	2574
7585	3578
7587	4561
7588	1881
7589	468
7592	2287
7595	2574
7595	3951
7598	3605
7599	4221
7600	3020
7602	2598
7605	821
7606	1818
7607	1933
7608	2632
7612	799
7613	7443
7613	1300
7616	3491
7618	2506
7619	2506
7620	4635
7621	2588
7622	2588
7623	4011
7625	3016
7627	2781
7629	4092
7630	2633
7630	2581
7632	3451
7636	1063
7637	2581
7638	2216
7639	3694
7640	2727
7641	2727
7643	1203
7646	3106
7646	7644
7649	2089
7651	2622
7652	4030
7653	3569
7654	3091
7655	1887
7658	2061
7661	2467
7662	2000
7663	3184
7664	3184
7669	3657
7671	2232
7671	1757
7672	1432
7673	1432
7674	1432
7675	2852
7678	4496
7679	2427
7679	5927
7681	2093
7685	770
7686	638
7687	4366
7688	3840
7689	4388
7690	2455
7693	4152
7694	1540
7695	2326
7698	2060
7700	4436
7702	3274
7702	1979
7704	3935
7705	1243
7706	1243
7708	3817
7709	4237
7709	958
7710	1775
7714	4698
7718	3569
7718	3567
7722	4398
7722	2183
7723	2183
7724	2226
7728	1776
7728	7727
7729	2019
7732	2482
7733	1077
7734	1682
7735	1748
7736	1804
7737	4467
7738	3859
7739	2652
7739	1957
7740	1948
7741	1948
7742	4468
7743	4468
7745	1856
7746	1856
7749	406
7750	292
7751	463
7752	2259
7753	3687
7755	2190
7756	3836
7757	3536
7761	2017
7762	2017
7765	4518
7766	2114
7767	2114
7768	1600
7770	4110
7771	3465
7774	2758
7774	3383
7777	1131
7778	2151
7780	2151
7781	3414
7782	669
7783	669
7784	2010
7786	3611
7789	2396
7791	2396
7792	2396
7795	803
7798	4496
7799	1900
7800	2585
7801	2585
7802	2585
7803	2062
7804	2062
7805	3825
7806	745
7807	2266
7810	1448
7811	2731
7812	2835
7813	4643
7815	6832
7815	4209
7817	3706
7818	2921
7819	2921
7823	1917
7824	4384
7825	4384
7826	4412
7829	5247
7829	791
7830	4236
7831	6616
7831	2189
7831	7110
7832	4048
7833	4048
7834	3581
7838	2586
7838	5525
7839	4603
7840	3682
7842	2865
7845	7844
7845	3102
7846	2628
7847	2628
7849	1629
7850	1853
7851	4678
7852	353
7853	2672
7854	3008
7855	3008
7856	987
7857	2425
7858	3245
7860	2741
7861	4116
7862	2538
7863	2538
7865	4357
7866	4352
7867	4352
7869	1944
7870	1944
7871	4758
7872	4758
7873	4758
7875	1927
7877	2987
7878	1757
7879	1757
7881	3735
7882	1918
7884	4469
7885	1579
7886	2066
7887	2066
7889	947
7890	2290
7890	2517
7892	4384
7896	330
7897	3022
7898	3022
7900	3207
7901	814
7902	3664
7904	4431
7905	1987
7906	1056
7907	2573
7908	3862
7909	4267
7910	2792
7912	778
7914	626
7915	913
7917	4705
7919	1384
7921	2736
7922	4618
7923	4461
7924	1033
7925	611
7926	3540
7927	760
7927	4834
7928	1824
7929	3070
7930	2316
7931	2526
7932	2526
7933	1159
7934	416
7935	416
7936	416
7937	735
7938	1878
7939	2743
7942	4514
7944	3690
7944	7044
7946	2096
7946	791
7948	2072
7949	2779
7950	3881
7953	2694
7954	1760
7955	3479
7956	2066
7958	4160
7959	4340
7961	1921
7961	6914
7962	4750
7963	1406
7964	1406
7965	2709
7966	2776
7968	3240
7969	4509
7970	2486
7971	2669
7972	2985
7974	1211
7975	4449
7976	4449
7978	2133
7980	659
7981	7546
7981	2551
7983	4490
7984	898
7985	7362
7985	2853
7986	2395
7987	308
7988	2245
7989	2245
7990	3401
7991	2618
7991	742
7992	4391
7993	3538
7994	1952
7995	2477
7997	2717
7999	2328
8000	2328
8001	2601
8001	967
8004	3005
8005	1883
8008	991
8009	991
8010	3109
8011	3468
8012	3542
8013	3542
8014	2478
8015	4503
8016	6307
8016	965
8017	2822
8018	1120
8019	4793
8020	3539
8021	4468
8023	4255
8026	3713
8026	8025
8027	2247
8028	1953
8029	3025
8030	2026
8031	2779
8032	4494
8033	3579
8034	3760
8035	3760
8036	704
8037	2394
8038	4237
8039	2298
8041	458
8041	3508
8044	1836
8045	3955
8046	3955
8047	2232
8048	2232
8049	1805
8050	4184
8052	3933
8053	1979
8054	3793
8056	1795
8058	1522
8060	701
8062	1016
8063	2369
8063	7516
8064	3372
8065	3692
8066	2122
8067	3899
8068	355
8069	2058
8070	897
8071	3888
8072	3548
8073	1894
8074	3474
8075	818
8078	2713
8082	4325
8083	3287
8084	965
8085	1719
8086	4160
8087	4103
8088	3838
8089	2874
8090	3058
8093	4078
8096	2906
8098	297
8099	651
8100	1067
8101	2801
8102	1834
8103	791
8104	3860
8105	789
8106	1080
8106	990
8108	2055
8109	3936
8111	3056
8112	3209
8113	3117
8114	4330
8115	2472
8115	5552
8116	2472
8117	3383
8119	2907
8120	3848
8121	3010
8122	4797
8123	2938
8124	1424
8124	7666
8125	2294
8128	2086
8129	1155
8130	3016
8130	7624
8131	1642
8132	2201
8134	2737
8135	1081
8136	7614
8136	3367
8137	5897
8137	2618
8138	3105
8139	2946
8141	2263
8142	4882
8143	4651
8145	1783
8146	1946
8147	4582
8148	3971
8149	2994
8150	3038
8151	1800
8152	4690
8153	3942
8155	2459
8157	1631
8158	4161
8159	381
8160	2437
8161	3928
8163	1833
8164	3741
8165	3741
8166	2868
8167	1806
8168	2735
8169	4781
8171	3316
8172	1356
8173	1879
8174	1448
8175	3921
8176	4588
8177	2386
8178	2889
8179	2208
8180	1986
8181	2765
8182	2106
8183	2942
8184	1831
8185	1585
8186	849
8187	4519
8193	5015
8198	4946
8205	8200
8205	2142
8206	2617
8206	2142
8207	5096
8207	2526
8209	8208
8209	2479
8210	2479
8213	8188
8213	4948
8217	8211
8217	4948
8221	4948
8221	5142
8224	2487
8226	5113
8226	5117
8227	5113
8229	5147
8236	2479
8240	1940
8240	4951
8241	1940
8241	4951
8243	1916
8245	4972
8247	5088
8248	5088
8250	5078
8252	8251
8252	5078
8256	2771
8256	8254
8260	4970
8261	2756
8262	2756
8264	2853
8265	2853
8272	5220
8275	1942
8280	2912
8284	8281
8284	2170
8284	8282
8286	2168
8286	8285
8288	5377
8288	8266
8289	5182
8290	5018
8290	5027
8290	5028
8290	5015
8294	4954
8295	5305
8295	5310
8298	5305
8298	5310
8300	5305
8300	5436
8301	5032
8302	5032
8305	5020
8305	8303
8307	5028
8307	5029
8310	5233
8310	1876
8312	5265
8315	5339
8319	4972
8322	8320
8322	5050
8324	5328
8326	1954
8326	8325
8327	1954
8332	4982
8333	5148
8334	5148
8336	4949
8337	4952
8337	5556
8337	4949
8338	3094
8340	5027
8340	8339
8341	5027
8344	5202
8346	2515
8350	2657
8350	8349
8351	2657
8354	5298
8355	2285
8356	2729
8363	5022
8363	5023
8364	5024
8364	8361
8364	5022
8364	5023
8366	5502
8368	5407
8369	2773
8370	2773
8372	1789
8374	1789
8385	2215
8386	2215
8387	3311
8387	2215
8388	2215
8389	2216
8389	2215
8390	5496
8391	5356
8397	5158
8398	2018
8403	5304
8403	4961
8405	2117
8410	5310
8416	2311
8419	5016
8419	8417
8423	3036
8426	2063
8427	2209
8434	5441
8434	5439
8435	2240
8435	5353
8435	5354
8436	2240
8442	2009
8447	5144
8450	5144
8453	2320
8454	2320
8456	5697
8456	5693
8457	4994
8459	5439
8460	5281
8463	2632
8464	5108
8465	5108
8468	1803
8468	5843
8475	5369
8475	8473
8477	5741
8479	5741
8481	1832
8486	5833
8492	5097
8494	5197
8496	5809
8496	2958
8497	5350
8498	5629
8502	5272
8502	5101
8508	5677
8517	5011
8521	3398
8522	5101
8525	8523
8525	5101
8528	2341
8529	5361
8532	1994
8532	3090
8534	3090
8536	5881
8540	5449
8544	5314
8546	5314
8549	4974
8553	5702
8561	5753
8561	5183
8566	5445
8571	2905
8571	8570
8578	2870
8579	5784
8579	2870
8580	5395
8584	5768
8587	5423
8589	2122
8594	5338
8598	5402
8606	1872
8607	1872
8607	7725
8608	5322
8609	5322
8610	5322
8616	2346
8617	2346
8618	2346
8622	5193
8622	2219
8623	5411
8624	5411
8625	5411
8627	5005
8628	2258
8631	5322
8636	5569
8639	2170
8640	5149
8645	3018
8646	5719
8654	5190
8655	2632
8656	2632
8657	8383
8657	5515
8657	8381
8657	5519
8662	5104
8663	5697
8663	8455
8667	5022
8668	5796
8670	5343
8675	5178
8677	6142
8679	5242
8681	2462
8682	2462
8683	5765
8685	8684
8685	5783
8686	8684
8686	5783
8690	5250
8691	5250
8693	5424
8693	8692
8694	5424
8694	8692
8702	6138
8707	5351
8711	3473
8712	5351
8718	8715
8718	2780
8719	5606
8720	2580
8721	5813
8721	8493
8722	5953
8723	5953
8726	1937
8727	1937
8728	3229
8730	4941
8732	5563
8735	5473
8736	5473
8739	5722
8742	3626
8743	6078
8746	8745
8746	2522
8749	6227
8750	6227
8751	6227
8752	5389
8753	5389
8754	5389
8755	5389
8756	1809
8757	5401
8758	5401
8758	5247
8761	8760
8761	2889
8762	5252
8762	5391
8765	8764
8765	2118
8766	5402
8766	3004
8767	4988
8772	6255
8773	6255
8775	5454
8777	5454
8779	6373
8783	8782
8783	1807
8786	5490
8786	5581
8789	2625
8793	1936
8794	2530
8794	5340
8797	8795
8797	5340
8799	5672
8800	5672
8801	3618
8804	2348
8805	2208
8809	5202
8815	5246
8816	5335
8824	5208
8824	2059
8826	2866
8828	5640
8829	5640
8830	2190
8838	5692
8839	5238
8844	5104
8847	2768
8847	8846
8848	6154
8855	6087
8859	5208
8859	2059
8862	2508
8862	8861
8864	2441
8865	5972
8866	6524
8867	5058
8869	1827
8872	6016
8876	5558
8880	6004
8880	1860
8883	2258
8884	5954
8886	5765
8887	5678
8890	8626
8890	7202
8890	5005
8892	2213
8896	6168
8896	6166
8901	3155
8902	6218
8903	6218
8905	5806
8906	6308
8907	6448
8912	8911
8912	8909
8912	1799
8913	8910
8913	1799
8917	2390
8918	5973
8919	5369
8922	6712
8922	2273
8922	6603
8922	2277
8925	3555
8926	3645
8932	8929
8932	8930
8932	1861
8934	5406
8935	2777
8943	3429
8944	3429
8946	5874
8947	6250
8948	6602
8951	6374
8952	5662
8954	8860
8954	6014
8958	3580
8963	6584
8964	5495
8967	6374
8971	5270
8972	5270
8973	5270
8974	6080
8977	6142
8978	8976
8978	6142
8980	2112
8983	2930
8983	5443
8984	5443
8986	3510
8989	5420
8992	3588
8993	5753
8993	8562
8994	5753
9000	5558
9002	6005
9004	5027
9006	5027
9006	9005
9007	2515
9010	6041
9010	6403
9010	3119
9011	6041
9012	6637
9015	2742
9016	5743
9017	5743
9018	3234
9020	3143
9022	5629
9023	5105
9025	5334
9027	9026
9027	5821
9030	5336
9033	5573
9034	6033
9037	6126
9038	2547
9041	3029
9042	5774
9043	5774
9048	9047
9048	5263
9049	5263
9054	5616
9056	3151
9060	5662
9061	5766
9062	5766
9063	6100
9064	9003
9064	8874
9064	6227
9065	5756
9067	6776
9067	1765
9069	2493
9070	2493
9071	5496
9072	5840
9073	5840
9075	1909
9078	5761
9079	5761
9081	6384
9083	6042
9084	2216
9087	5570
9089	2406
9090	2406
9094	9092
9094	6052
9097	3702
9098	6004
9098	8950
9099	6004
9100	5032
9105	6696
9106	6294
9107	3299
9109	2900
9112	6317
9112	9110
9113	5457
9117	3009
9119	6103
9123	9121
9123	6223
9127	9126
9127	6151
9131	6384
9131	9128
9139	6056
9141	3294
9144	3294
9145	3079
9146	3453
9148	6215
9149	6403
9151	5541
9152	5541
9153	5541
9156	3050
9160	2233
9162	6777
9162	6779
9166	6454
9169	5426
9171	5143
9173	2310
9176	5893
9177	5893
9180	5800
9183	6638
9184	5073
9186	5854
9187	9185
9187	5854
9188	6477
9188	5854
9189	5854
9192	1921
9194	5384
9195	5813
9197	5813
9198	5336
9200	6100
9203	9201
9203	5140
9207	5814
9209	9208
9209	6410
9210	6410
9212	2369
9213	5144
9213	8448
9213	5181
9215	6006
9216	6006
9218	1974
9219	1974
9220	4245
9223	5882
9223	9221
9225	5578
9226	5578
9228	5891
9229	6845
9230	3602
9230	5989
9231	6551
9233	5298
9237	5060
9238	3325
9240	4977
9240	8547
9242	5916
9243	6567
9244	4125
9247	6910
9248	2189
9249	5965
9251	3028
9252	8303
9252	5015
9258	9256
9258	6307
9259	9256
9259	6307
9260	9256
9260	6307
9261	5556
9262	6841
9262	7012
9264	2257
9265	2257
9265	8311
9267	5445
9269	6650
9272	6183
9273	6183
9275	4104
9277	3511
9280	5720
9281	5720
9282	5051
9285	5407
9288	5290
9289	2252
9291	5868
9293	8782
9293	1807
9294	1807
9295	2729
9295	6523
9296	5005
9298	2490
9299	5512
9299	4430
9301	6182
9303	3278
9304	3278
9305	9302
9305	3278
9306	6444
9306	3278
9310	5478
9311	7024
9314	1890
9317	5370
9319	3088
9320	3088
9321	5723
9323	5036
9324	5036
9326	5479
9328	5503
9333	5251
9334	5278
9335	6705
9336	6318
9339	5834
9340	2872
9341	2389
9343	2419
9345	6576
9345	2773
9346	2310
9347	3859
9349	5042
9353	5540
9353	6255
9354	5540
9354	2389
9354	6255
9355	6255
9357	2741
9358	2741
9360	3216
9361	3216
9365	2678
9367	6820
9370	5287
9371	5287
9372	6152
9373	5205
9373	5207
9374	5205
9374	5207
9376	8583
9376	5183
9377	4245
9378	6700
9382	2614
9383	4964
9387	5365
9389	6024
9390	5230
9390	1790
9391	5630
9391	5847
9398	3340
9399	5322
9404	6011
9408	5410
9410	6540
9413	9411
9413	5446
9414	2216
9414	5667
9416	6444
9418	5623
9419	5623
9421	5515
9425	5763
9426	5763
9427	1788
9430	4014
9432	6809
9434	6681
9436	6533
9438	5759
9440	6025
9441	6899
9443	6560
9445	6703
9447	6644
9448	5693
9448	5694
9450	4158
9451	5444
9452	5444
9453	5444
9454	5469
9455	6138
9462	5715
9465	2657
9465	8873
9467	3919
9470	6616
9470	7110
9471	3997
9472	3692
9473	5762
9475	5550
9476	3887
9478	6754
9479	2199
9480	2199
9481	4996
9484	9482
9484	3726
9486	5637
9486	9485
9488	4363
9488	9487
9492	6124
9495	6080
9496	5322
9497	5322
9499	2026
9501	6818
9503	3778
9505	3778
9505	9502
9507	3778
9507	9502
9509	5502
9510	7111
9511	5686
9513	4014
9514	5813
9515	5813
9516	5396
9517	5087
9520	6868
9523	5415
9526	5391
9527	6804
9528	3694
9530	5489
9540	4970
9540	5141
9541	4955
9542	6300
9543	7229
9545	5907
9546	5773
9547	6444
9548	6029
9549	6389
9553	6886
9557	6986
9558	6075
9558	9255
9559	5968
9560	5968
9561	5968
9562	5301
9562	2486
9564	4246
9565	3736
9566	3736
9567	6364
9569	5041
9570	5389
9572	5672
9575	6097
9577	6563
9578	7289
9579	7289
9581	5456
9583	7147
9585	3464
9590	5873
9591	6472
9594	5096
9595	3069
9596	3069
9597	5800
9598	6136
9599	6136
9602	2632
9603	2632
9604	6043
9605	7255
9606	5392
9606	5254
9607	5392
9607	5254
9608	2613
9609	2613
9610	6287
9611	6287
9612	5107
9613	6986
9615	3961
9616	6233
9616	6713
9618	6043
9619	6664
9621	6097
9622	6732
9624	6732
9625	5127
9626	6403
9627	6340
9627	3567
9629	6116
9630	2077
9631	2077
9634	3737
9640	5847
9642	5592
9649	4325
9650	4325
9651	5988
9653	5988
9654	5988
9661	2414
9662	5763
9664	5747
9666	4057
9667	5048
9669	6784
9671	7279
9672	7279
9673	4288
9676	5530
9677	6578
9678	7056
9679	6431
9680	6431
9681	3672
9683	5741
9684	7441
9685	4988
9688	5719
9690	6051
9692	7063
9696	2518
9698	2518
9699	2216
9699	3329
9704	5828
9705	3677
9708	3497
9709	3497
9710	6726
9711	5559
9713	3409
9714	7177
9715	7177
9717	5296
9718	5930
9719	2272
9721	6406
9722	3958
9726	4274
9728	7491
9729	7352
9732	2967
9735	6769
9737	2226
9739	2885
9741	5809
9742	1871
9746	4490
9748	5490
9754	4283
9755	4283
9756	7155
9757	7094
9761	3291
9764	5978
9765	3958
9768	7440
9770	7105
9770	9769
9771	5541
9772	7298
9774	3798
9775	2273
9775	6602
9775	6603
9775	9057
9776	2214
9784	6300
9785	6300
9786	6967
9787	3077
9791	6672
9791	1951
9795	7311
9797	2097
9799	2536
9801	3981
9802	2870
9806	6645
9807	6645
9808	3270
9810	6752
9811	2525
9816	6346
9816	5183
9817	6346
9817	5183
9818	5531
9820	5903
9821	6517
9822	2490
9823	2490
9825	7265
9827	3546
9828	6414
9829	6414
9832	9831
9832	6471
9834	4104
9834	6844
9836	1754
9837	3432
9838	4368
9839	5699
9840	5699
9844	7462
9846	7531
9847	3789
9850	6497
9851	6780
9852	2856
9854	6750
9855	7404
9856	7597
9857	7597
9859	6455
9862	2666
9863	6729
9865	3506
9866	3020
9867	7289
9869	5490
9870	5850
9871	4944
9872	4944
9875	2412
9878	5495
9879	5922
9882	3996
9883	7028
9885	7352
9886	3489
9889	2588
9890	7546
9891	6493
9892	6987
9894	3504
9899	4380
9900	4380
9901	5006
9902	5006
9903	5006
9904	4280
9905	3198
9906	7647
9909	5363
9911	5540
9913	2501
9914	6598
9915	6342
9916	7614
9918	5193
9919	5132
9921	2604
9924	1747
9924	5045
9925	2200
9926	6408
9927	3568
9929	4355
9930	4355
9932	5893
9933	5893
9934	5377
9935	5771
9937	3608
9939	9773
9939	6982
9940	4464
9941	3063
9945	5364
9947	6863
9948	3434
9951	2117
9951	8407
9954	5828
9955	5828
9956	5828
9957	3457
9958	3457
9959	2277
9961	4329
9963	7336
9964	7336
9965	7336
9966	5314
9967	4196
9968	3602
9968	5989
9970	3750
9971	5489
9973	7039
9974	5525
9975	2979
9975	6212
9975	6439
9977	7025
9978	4252
9979	5354
9979	9655
9980	7326
9981	3859
9982	7536
9983	5376
9985	6007
9986	5247
9987	5470
9989	4350
9990	6654
9991	4225
9992	7173
9995	2653
9996	6635
9996	2653
9997	6635
9997	2653
10000	5515
10001	5515
10002	3067
10003	3067
10005	6988
10006	5523
10007	5410
10011	3989
10012	7244
10014	2158
10015	2407
10018	3810
10019	6044
10020	7227
10021	5809
10021	8889
10023	3782
10025	7412
10026	2097
10027	8673
10027	5703
10028	5703
10029	5703
10030	6587
10031	6677
10032	3107
10035	5633
10036	3665
10039	5313
10041	5532
10042	7696
10044	7485
10045	3421
10046	6166
10047	6166
10048	7338
10050	6393
10051	2359
10052	4485
10053	6224
10055	5722
10055	10054
10056	4259
10057	5049
10058	3647
10060	4716
10061	7785
10062	7785
10063	6259
10064	7457
10066	2730
10067	6820
10068	3963
10069	3963
10070	6004
10070	8949
10072	5525
10073	7480
10074	5760
10075	3049
10076	7670
10077	2974
10078	2790
10079	5001
10079	7165
10083	7713
10085	4234
10086	6724
10088	1747
10089	5784
10089	7117
10090	7117
10092	7167
10093	4076
10094	4716
10096	5252
10097	6224
10097	9439
10098	2823
10099	7711
10100	4695
10102	5274
10103	3052
10104	5313
10106	5043
10107	6487
10108	2276
10111	8673
10111	2091
10115	7899
10115	2199
10116	6137
10117	5740
10118	6017
10119	5675
10121	7648
10123	5121
10124	6696
10125	3840
10126	7069
10127	4190
10128	7880
10129	3263
10130	3630
10133	5694
10134	2807
10135	4170
10136	2729
10138	7727
10139	5523
10142	7438
10143	6967
10144	3163
10145	2977
10146	2977
10147	5343
10150	5330
10151	7844
10152	7893
10153	4595
10154	2121
10155	3755
10156	2839
10157	6587
10158	6518
10162	6091
10164	2530
10166	6772
10168	5107
10168	5078
10169	4461
10170	2462
10173	6098
10174	5882
10175	6914
10176	3881
10177	6405
10178	5613
10180	6253
10181	2648
10182	2648
10184	3379
10186	8458
10186	4956
10187	3319
10190	2801
10193	5070
10194	3378
10195	3378
10197	3447
10199	1816
10200	1816
10201	5893
10202	2486
10205	2918
10206	5073
10207	3307
10209	2266
10210	7383
10211	8996
10211	5183
10212	7039
10213	3942
10214	6747
10215	7510
10216	7510
10217	4127
10218	7940
10219	1962
10220	2093
10221	3848
10222	4467
10223	6812
10224	3591
10225	5706
10226	7617
10227	5385
10228	6351
10229	6923
10231	7779
10232	5057
10233	3252
10234	7692
10235	7184
10236	7697
10236	4167
10237	6307
10239	7776
10239	10091
10241	6790
10242	5102
10243	7407
10244	2459
10245	1971
10247	2825
10248	4275
10249	2769
10251	7068
10252	6854
10253	6854
10254	7747
10255	2996
10257	7604
10258	7644
10259	3883
10260	6967
10261	7941
10262	1858
10263	4286
10264	7452
10265	5234
10266	1783
10267	4261
10268	2400
10269	4282
10270	1958
10271	3415
10272	4003
10274	2059
10275	6444
10276	5740
10277	1780
10280	5297
10281	4148
10282	5127
10283	5391
10284	5391
10285	5391
10286	3559
10287	6889
10288	5295
10289	6627
10290	7982
10291	4086
10292	5740
10293	7044
10294	4489
10295	3593
10296	4454
10297	6805
10299	3909
10300	4343
10301	7133
10302	6614
10303	6773
10304	7772
10305	5211
10306	7794
10307	4325
10309	2550
10313	3577
10314	3990
10315	3051
10316	3051
10318	2494
10319	2494
10320	6236
10322	3830
10323	6752
10324	1999
10325	7721
10327	4162
10328	4389
10329	4976
10330	6374
10331	3006
10332	3786
10333	8043
10334	7495
10335	5805
10336	2117
10337	7445
10338	5267
10339	6752
10341	3573
10342	2520
10344	6616
10346	7650
10347	2207
10350	3447
10351	3447
10352	7911
10354	8055
10355	5570
10357	5000
10358	7701
10359	4326
10360	4368
10361	1933
10363	7776
10363	10091
10364	6695
10365	6824
10366	6419
10367	7157
10368	5305
10369	5043
10370	6879
10372	3340
10373	3340
10374	3486
10375	3657
10377	7362
10379	2084
10380	5699
10381	7748
10382	2740
10383	7821
10384	3299
10385	4725
10386	3512
10388	5592
10389	5018
10390	5354
10391	2245
10391	5254
10392	5254
10393	6776
10394	6279
10396	7940
10398	4284
10399	6780
10400	8051
10403	4571
10404	4774
10405	7301
10406	5197
10407	6041
10408	4171
10409	7536
10410	7759
10411	3346
10412	2486
10413	7642
10414	2797
10415	8144
10416	4555
10420	7409
10421	3488
10423	2085
10424	4708
10425	4847
10426	6705
10427	4534
10428	7748
10429	2464
10430	7913
10431	3970
10432	3246
10433	5818
10434	2291
10435	4823
10436	5025
10437	5519
10438	2493
10439	2493
10440	8057
10441	4997
10442	4865
10443	5809
10444	1877
10445	5118
10446	3976
10447	7979
10448	5544
10449	3449
10450	1755
10451	6352
10452	4808
10453	8079
10454	4154
10455	4122
10456	3379
10464	8208
10464	10462
10464	10463
10466	8191
10468	8285
10468	8287
10469	5189
10471	5189
10475	5113
10477	8376
10477	5113
10479	5113
10479	5117
10480	8376
10480	5113
10480	10474
10482	8211
10488	8306
10488	10486
10490	8195
10494	5693
10500	4952
10501	8281
10502	8281
10503	8376
10512	5833
10515	8511
10522	5318
10529	10528
10529	5149
10535	5753
10536	5753
10540	10539
10540	8287
10543	8359
10548	8470
10553	8518
10555	8431
10556	8313
10559	8281
10559	8282
10561	8445
10561	5181
10562	8445
10564	8473
10573	5796
10574	8309
10575	8309
10576	8309
10578	4985
10581	8568
10590	8313
10592	8313
10593	8313
10594	8621
10595	8621
10596	8621
10598	8621
10600	8652
10604	5300
10606	8191
10614	8559
10615	8559
10616	4941
10620	8482
10622	5457
10623	5457
10629	8701
10632	8401
10634	5918
10635	5918
10641	5655
10642	10637
10642	5655
10644	8535
10646	5606
10647	5606
10648	8808
10648	8811
10649	8808
10651	5729
10654	5634
10656	8744
10658	10657
10658	5783
10661	10659
10661	8429
10662	5555
10664	8788
10665	8788
10666	5046
10668	8214
10672	8417
10673	8417
10679	5250
10681	5164
10684	8476
10685	8611
10686	8537
10689	5164
10691	8649
10693	5401
10697	6263
10702	8708
10704	5114
10704	8471
10705	8471
10707	6373
10708	8591
10710	8215
10713	8768
10714	8524
10715	8524
10716	8461
10719	8699
10720	8782
10721	8782
10722	8381
10722	8383
10723	8381
10725	8774
10727	8774
10728	8774
10730	5953
10731	6161
10732	6346
10733	8737
10734	8737
10736	8692
10738	5220
10742	8321
10742	5050
10742	10739
10743	8969
10744	4941
10747	8488
10750	8443
10751	5353
10752	5238
10753	8417
10754	8642
10755	5917
10756	8871
10759	8760
10759	10758
10761	8849
10761	8850
10763	8543
10765	8576
10765	5674
10768	8837
10770	8278
10771	8861
10773	10772
10773	8703
10775	10774
10775	6286
10777	8795
10780	10778
10780	8909
10781	8909
10782	8909
10782	8911
10785	8473
10788	5944
10790	8592
10791	8592
10798	8671
10799	8671
10801	6165
10803	8329
10806	5817
10808	8415
10809	8770
10811	5996
10814	8192
10816	5518
10818	5601
10822	6156
10826	9121
10827	5101
10828	8296
10830	8635
10833	8822
10834	8822
10835	8573
10836	8787
10839	6213
10840	6556
10841	8697
10842	8547
10846	5144
10847	8771
10848	8771
10851	5510
10852	8845
10853	6658
10853	9159
10859	6075
10859	9255
10860	6187
10861	6187
10863	6394
10864	9205
10866	9205
10869	8201
10870	9132
10872	6154
10875	9227
10875	4955
10878	8263
10879	9003
10881	8910
10884	9082
10885	8411
10885	5493
10886	5060
10887	5060
10888	9128
10892	4966
10893	5519
10894	5519
10895	9224
10896	6523
10899	8277
10901	5809
10902	5809
10903	8194
10903	5028
10904	9270
10905	8877
10906	8818
10908	8842
10908	6477
10908	5854
10909	5171
10912	5042
10913	8316
10915	10914
10915	9206
10916	9206
10918	10779
10918	8909
10919	8909
10921	4959
10922	4959
10928	8406
10929	8406
10934	8519
10935	8990
10936	8990
10937	9032
10938	5834
10939	6370
10940	10880
10940	8938
10943	8281
10946	9363
10948	9241
10948	5916
10949	8823
10950	8823
10951	9348
10952	9348
10953	9348
10954	8362
10957	6801
10958	5658
10960	8788
10962	6801
10963	6352
10964	6352
10965	6352
10967	4971
10967	8189
10968	8982
10969	9208
10970	8335
10972	5667
10979	8471
10980	9191
10981	8493
10982	8493
10984	5140
10985	9190
10987	5848
10988	8469
10990	8863
10992	10991
10992	8511
10993	8808
10994	5389
10996	10995
10996	9045
10999	8674
10999	10998
11000	5920
11000	8923
11002	6268
11004	8873
11005	9047
11006	9047
11008	9013
11010	5702
11013	6809
11014	4987
11015	8877
11024	5420
11025	5420
11028	8911
11030	5779
11031	8939
11033	5891
11037	8930
11038	8930
11039	5212
11041	9175
11042	9460
11042	9461
11043	9133
11043	9135
11044	8513
11045	8513
11046	8513
11048	8379
11050	8188
11051	8188
11054	9368
11059	6449
11060	5925
11061	5804
11063	6024
11065	6275
11066	6275
11067	6243
11068	8399
11069	6093
11070	6093
11071	6309
11074	10645
11074	5606
11075	5400
11075	8515
11076	8343
11077	8812
11078	8317
11080	8760
11081	9521
11083	9315
11084	6870
11085	8202
11086	8825
11088	5745
11092	5600
11095	8647
11096	9208
11096	6410
11097	8915
11098	6129
11101	6183
11104	9121
11107	8733
11108	9422
11109	7116
11111	8738
11112	8738
11113	9535
11114	8581
11118	10873
11118	6154
11119	4984
11122	8233
11123	5105
11126	5350
11128	8393
11130	6121
11134	9381
11136	9435
11137	8849
11138	8849
11139	9592
11141	5367
11143	5618
11146	5342
11147	11145
11147	5342
11148	6270
11149	8194
11149	10572
11151	5401
11152	9400
11153	7253
11154	7253
11158	6089
11159	9428
11160	6258
11161	7063
11163	8785
11165	5646
11166	5646
11167	6242
11168	8699
11169	8279
11170	8279
11172	9368
11173	8255
11174	8422
11175	7461
11176	7233
11176	9700
11178	6169
11178	11177
11180	9550
11184	5546
11186	5546
11187	8533
11189	9582
11191	9531
11193	9315
11196	6987
11197	6309
11198	6309
11204	9512
11205	9154
11206	9550
11208	8314
11210	9380
11211	5811
11212	5811
11213	9502
11216	6263
11218	6263
11219	6480
11220	6888
11223	9725
11224	9044
11228	6002
11233	5715
11234	5715
11236	5715
11237	8687
11238	7441
11239	6576
11240	5495
11241	8796
11243	6167
11247	9174
11248	5216
11249	8547
11250	5263
11252	11251
11252	8404
11253	8526
11254	8673
11254	8671
11257	8955
11259	9287
11261	6215
11263	6814
11264	9555
11266	5829
11267	5231
11268	8212
11270	5792
11272	9446
11275	5115
11276	6011
11277	6011
11278	6011
11280	6029
11281	6029
11285	5326
11288	6729
11289	5011
11290	5011
11291	5011
11293	5413
11294	8197
11295	5425
11296	9352
11299	8251
11300	9798
11302	9290
11303	9620
11304	9796
11305	5590
11306	8268
11309	8840
11309	8842
11309	6477
11310	8840
11311	7246
11313	9077
11314	8706
11316	9831
11317	7462
11319	8651
11320	6450
11321	7471
11322	8653
11324	6769
11326	8567
11328	5278
11330	5069
11332	11331
11332	9628
11333	5080
11334	9402
11337	8945
11337	10925
11338	8582
11339	9898
11340	9898
11341	6689
11341	9942
11343	9417
11344	8480
11346	6304
11348	9682
11348	11347
11350	6764
11351	9424
11352	5192
11353	5192
11355	9697
11357	6802
11361	9655
11362	5100
11363	8216
11364	8216
11366	8611
11366	11365
11367	9972
11368	7028
11370	6726
11372	5698
11374	4951
11377	5874
11379	6101
11380	9402
11382	5735
11383	5735
11384	6595
11385	6846
11386	8562
11388	6459
11389	5508
11390	8791
11391	6406
11393	6602
11394	5051
11395	8219
11397	8784
11399	9912
11400	5517
11400	8383
11401	7050
11402	8535
11403	6177
11404	9457
11405	9014
11406	9689
11408	6957
11410	6957
11412	6088
11414	6722
11415	9928
11417	9950
11418	9058
11419	9809
11421	9809
11421	11420
11422	8982
11426	5140
11428	9403
11429	6716
11431	8361
11433	5399
11434	8303
11435	8874
11435	9003
11437	8845
11438	7012
11439	7049
11440	5550
11441	6064
11443	5760
11445	7177
11446	9157
11447	9157
11448	8715
11450	9325
11451	9019
11452	9655
11453	5364
11456	7058
11457	7058
11458	10016
11459	10016
11463	6576
11464	5143
11465	8629
11466	8629
11467	7229
11468	6887
11469	5954
11473	8863
11474	8861
11475	8861
11476	5907
11477	8619
11478	8195
11479	9211
11480	11064
11480	8706
11481	6420
11482	9944
11483	8304
11485	8432
11486	6280
11487	6405
11488	6405
11489	5161
11490	8285
11491	8285
11493	9055
11497	5462
11498	8562
11499	10109
11502	9129
11503	9633
11504	6207
11505	8669
11507	5286
11508	8448
11510	8834
11513	9058
11514	7040
11515	6826
11516	8199
11517	8232
11518	8232
11519	8348
11520	8348
11521	8394
11523	7327
11524	9053
11526	11164
11526	6183
11528	7085
11530	9350
11532	9633
11532	5203
11533	9633
11534	9245
11535	9245
11540	9993
11541	6399
11543	5769
11544	9555
11545	6013
11546	7442
11548	6257
11551	6180
11554	9302
11555	8458
11556	5681
11557	5681
11558	9920
11559	6584
11560	9092
11562	8362
11563	6242
11565	8733
11566	10024
11567	6650
11569	10081
11570	9763
11571	6142
11572	6142
11573	6006
11575	5649
11576	9256
11577	6825
11579	7481
11580	10149
11581	9026
11582	9031
11583	6139
11584	9727
11585	5151
11586	6405
11587	5235
11588	5304
11589	6275
11591	6275
11593	8259
11594	9993
11595	8383
11596	9385
11597	5438
11598	6788
11599	6076
11600	5127
11601	9490
11602	8898
11603	9208
11604	7648
11605	6451
11607	9466
11609	7255
11610	6713
11611	9529
11612	8833
11613	10148
11615	5048
11616	6882
11617	8725
11618	7574
11619	5050
11620	6032
11621	8276
11622	9988
11623	5932
11624	8489
11626	7062
11627	9411
11628	8699
11629	6409
11630	9782
11631	6060
11632	6060
11635	9632
11636	9504
11637	8945
11639	7562
11640	9617
11641	7009
11642	5125
11643	8485
11644	9694
11647	6804
11647	11646
11648	8320
11650	7628
11652	5223
11653	5511
11654	5511
11655	10038
11656	7187
11657	10198
11658	9001
11659	9783
11661	6297
11663	7916
11664	9487
11665	5810
11667	7888
11669	6223
11670	8490
11672	8268
11673	9922
11674	6048
11675	6372
11676	9494
11677	9494
11678	6401
11679	6084
11680	7848
11681	9316
11682	7406
11683	6001
11685	7163
11686	10198
11688	9446
11689	6966
11691	9221
11692	7772
11693	7565
11694	7565
11695	7565
11697	8192
11698	9164
11699	6578
11700	6578
11701	9385
11702	5769
11703	6659
11704	6659
11705	8700
11706	6201
11707	8080
11708	8725
11709	8725
11710	10348
11711	9461
11712	8940
11714	9483
11715	6755
11717	9576
11718	6261
11719	10071
11720	5003
11721	9853
11722	5928
11723	10230
11724	9227
11726	6891
11728	7883
11729	8570
11731	9108
11733	5204
11734	7023
11735	7593
11736	7593
11738	9464
11739	8523
11740	7841
11741	7731
11742	7894
11743	5908
11744	10544
11744	8359
11745	6124
11746	6605
11748	5694
11749	5549
11752	5275
11753	7656
11755	7277
11756	9235
11757	8910
11758	8807
11759	6965
11760	8660
11761	10343
11762	6780
11763	8515
11765	7273
11766	5136
11767	6620
11769	8591
11770	4975
11771	6570
11772	8846
11773	8957
11774	9369
11775	6438
11776	6415
11777	6194
11778	5612
11779	7334
11780	9522
11781	7235
11782	6874
11783	9322
11791	8208
11791	11788
11795	10481
11797	10497
11798	10497
11803	10517
11807	10537
11809	10492
11810	10492
11812	10483
11813	10483
11815	10507
11816	10507
11817	10539
11818	10523
11820	10460
11821	10584
11822	10497
11828	10608
11830	10608
11831	10608
11832	10608
11832	11829
11833	10532
11834	10532
11835	8196
11837	10603
11838	8555
11839	10460
11840	10611
11842	10497
11842	11841
11843	8831
11846	10579
11847	10579
11848	8378
11849	8378
11857	10506
11858	10506
11860	10506
11864	10519
11866	8744
11867	8744
11872	8421
11873	8228
11881	8396
11883	10507
11884	10507
11884	11814
11885	10507
11886	10523
11888	10539
11889	10539
11890	10739
11890	10740
11891	10739
11892	10491
11893	10491
11894	10587
11895	10587
11900	11898
11900	8614
11902	8309
11903	10703
11906	8882
11907	10624
11908	8960
11910	8358
11912	10706
11913	10706
11914	10566
11915	10566
11916	10580
11916	10565
11919	8409
11920	10549
11921	10549
11922	10677
11923	10677
11926	11878
11926	10510
11927	10617
11928	8431
11931	10700
11932	9227
11934	9227
11935	9227
11935	11933
11937	8689
11938	8689
11940	8487
11943	10795
11945	10476
11946	10511
11947	10511
11948	8592
11951	8689
11952	8689
11953	9103
11954	9103
11955	9103
11956	10690
11957	10774
11960	10758
11961	10920
11962	10551
11965	9205
11966	10812
11967	10812
11968	10462
11972	10794
11973	9028
11974	8455
11975	8455
11977	9217
11978	8246
11984	8827
11985	8827
11988	10516
11989	8195
11993	9208
11993	11040
11995	9009
11997	10746
11998	8512
12000	10580
12000	10565
12003	8802
12004	8923
12006	11007
12007	11007
12009	9348
12010	9348
12011	10711
12012	8406
12014	10663
12015	10663
12016	10663
12018	8188
12020	12019
12020	8399
12021	8733
12021	10845
12024	8701
12025	8701
12026	11102
12028	10882
12029	10882
12031	10613
12034	11012
12035	8710
12036	8695
12037	9199
12038	9199
12041	11131
12043	8979
12045	8664
12046	11132
12047	10463
12048	10463
12050	10657
12052	9313
12052	12051
12053	10631
12056	10793
12057	10487
12058	11055
12061	8323
12063	8365
12064	11011
12065	10652
12067	11190
12068	8575
12070	10603
12071	10645
12072	8214
12075	9442
12077	11177
12078	10671
12081	10640
12082	9032
12083	10978
12084	9104
12085	9302
12086	9068
12087	8729
12091	10817
12092	10817
12093	11190
12094	11201
12096	8969
12097	10683
12100	11157
12101	8343
12102	9670
12104	8233
12106	10549
12111	8981
12113	8563
12114	9132
12117	8704
12118	8704
12119	9380
12120	10925
12121	11062
12122	11062
12123	11110
12125	9686
12126	8827
12128	10907
12130	8802
12132	9424
12133	9424
12135	11091
12136	11062
12138	9044
12139	9044
12140	11049
12141	10457
12145	10601
12146	10601
12148	10645
12150	10767
12151	10567
12153	11171
12156	10762
12157	9351
12158	9351
12159	10926
12160	9191
12161	9250
12162	10819
12163	11312
12165	10508
12166	10815
12167	9759
12168	8520
12169	8520
12170	8413
12171	9115
12172	8382
12173	8382
12174	11282
12175	10472
12176	10914
12177	9614
12179	10630
12180	10630
12181	9798
12182	9798
12183	9682
12183	11347
12184	11094
12185	11246
12187	10983
12188	10983
12189	10983
12190	10945
12191	11292
12192	11356
12194	8990
12196	10769
12198	10701
12200	11432
12201	10541
12203	8927
12204	11298
12205	10805
12208	11349
12210	11496
12211	9796
12212	9796
12213	9998
12214	9938
12216	8431
12217	8431
12218	9364
12220	11347
12222	8649
12224	11194
12225	9392
12229	11209
12230	10696
12230	11882
12231	11082
12232	11199
12233	9102
12234	8577
12236	10978
12237	11455
12238	11262
12239	8559
12240	8500
12241	11574
12243	9199
12244	10120
12245	9727
12248	8633
12251	9809
12252	11308
12253	11308
12254	11308
12257	8478
12258	10004
12259	10081
12260	11549
12261	11359
12262	8658
12263	9342
12264	8666
12265	8666
12266	10961
12267	8893
12268	9433
12269	10546
12270	9137
12271	10998
12272	11645
12273	11356
12274	9824
12275	9036
12276	9750
12277	8703
12278	9276
12279	9297
12280	11145
12281	11369
12282	9733
12283	11209
12285	8891
12286	9327
12287	9246
12288	9864
12289	10821
12290	8469
12291	8603
12292	8603
12294	10504
12295	10013
12296	9843
12297	10667
12299	9008
12300	11200
12301	11255
12302	8235
12303	8692
12304	8509
12305	8509
12306	8509
12307	8449
12308	8851
12309	11716
12310	10745
12311	10569
12312	8821
12313	8538
12314	8413
12315	9307
12316	9674
12317	8452
12319	9493
12321	9842
12323	8600
12324	9794
12325	10250
12326	10955
12327	10356
12328	8734
12329	11696
12330	9716
12331	11668
12332	11696
12333	9211
12334	11634
12336	8701
12337	8836
12338	9658
12339	9491
12340	9747
12341	9780
12342	11185
12344	9773
12345	11454
12346	9848
12347	8299
12348	10772
12350	11788
12351	11792
12353	11792
12356	11800
12356	11799
12358	10457
12358	11786
12358	11787
12360	10525
12362	11789
12365	10496
12367	11845
12368	11845
12372	11819
12373	11819
12374	11836
12375	11824
12376	11824
12378	11863
12380	11825
12382	10843
12383	10843
12385	11801
12386	11801
12387	10677
12389	10677
12390	11875
12392	11824
12394	12393
12394	10461
12397	11944
12400	10843
12402	10740
12405	10586
12406	10586
12407	11792
12409	12001
12410	10688
12411	11944
12412	10784
12413	11878
12413	10510
12415	11836
12416	11836
12416	12414
12418	10558
12421	11898
12423	11859
12423	12422
12424	11999
12425	11102
12426	10829
12431	10643
12432	11990
12433	11827
12436	10624
12440	10518
12441	11808
12444	10639
12445	10491
12446	10726
12448	11269
12449	11799
12450	10524
12451	11841
12454	11986
12459	12008
12460	10746
12461	12051
12462	10513
12463	11829
12466	11788
12466	11789
12467	10729
12468	12134
12469	10760
12470	12054
12471	10583
12474	10796
12475	11012
12477	10676
12479	12017
12481	11073
12482	11057
12483	10867
12484	11471
12485	11471
12486	10583
12487	10709
12489	12055
12491	11079
12492	11784
12494	10900
12495	12055
12496	12049
12497	11964
12498	10804
12499	10804
12500	10824
12501	11329
12502	11329
12503	11964
12505	12105
12506	11318
12507	11358
12510	11787
12511	12199
12512	11029
12513	11135
12515	11181
12516	12223
12517	11806
12518	10891
12519	11315
12520	10652
12521	11297
12522	11392
12523	11470
12524	10989
12525	11522
12527	12195
12528	11994
12529	11369
12531	10695
12532	11970
12533	11970
12535	10989
12538	11115
12539	12069
12540	11396
12541	11396
12542	10628
12543	11606
12544	10871
12545	11511
12546	10577
12547	12088
12547	12089
12548	10867
12549	12129
12550	10932
12551	11411
12552	10825
12553	11423
12554	11713
12555	11495
12556	12107
12557	11484
12558	11649
12559	12033
12560	11506
12562	11792
12564	12352
12564	12561
12572	12384
12574	12393
12575	12361
12577	12370
12578	12357
12579	11856
12580	11859
12581	11941
12582	11897
12585	12066
12586	12066
12587	12066
12588	12349
12590	12453
12591	11804
12592	11850
12593	12408
12595	11874
12597	12127
12598	11784
12599	12013
12600	11929
12603	12060
12604	12060
12605	12080
12606	12438
12607	12073
12608	12098
12609	12414
12611	12403
12612	11909
12613	12223
12614	12124
12615	12401
12616	12298
12617	12142
12618	11918
12619	12002
12620	11930
12623	12352
12623	12561
12629	12357
12631	12357
12632	12369
12633	12447
12635	12566
12637	12438
12638	12438
12639	12395
12640	12570
12641	12570
12642	12576
12643	12589
12644	12442
12645	12589
12648	12627
12650	12569
12651	12628
12652	12646
12653	12646
