#
# hold-out likelihood (Sat Nov 29 15:17:25 2014)
#
# communities	likelihood
5	-17590
6	-16838.9
8	-15102.9
10	-15008
13	-15260.9
17	-14601.3
22	-15588.3
29	-16509.4
39	-15226.2
52	-14753.4
100	-21026.1
