9	0
11	0
12	0
12	2
12	42
14	0
14	43
15	0
16	0
22	51
22	5
24	57
24	4
24	53
28	4
29	2
35	8
36	1
38	3
39	10
41	1
42	2
42	12
43	14
44	3
45	13
46	2
47	6
53	24
57	24
58	21
59	18
60	21
61	30
62	37
63	25
68	50
69	30
71	54
73	65
74	51
