0	1
0	2
0	3
0	4
0	33
0	7
0	8
0	11
0	14
0	16
0	20
0	21
2	1
2	3
2	5
2	8
2	9
2	12
2	13
2	14
2	15
2	16
2	21
2	22
2	25
2	27
2	28
2	30
2	31
3	1
3	2
3	4
4	3
4	5
4	18
4	24
4	26
4	29
5	2
5	6
5	8
5	13
5	21
5	27
6	1
6	2
6	11
6	7
7	1
7	3
7	6
7	8
7	9
7	17
7	21
7	23
9	10
9	21
10	1
10	2
10	11
10	7
11	3
11	19
11	12
12	3
12	13
12	6
12	15
13	1
13	3
13	14
14	2
14	3
14	21
14	13
14	15
15	16
15	1
15	3
16	8
16	17
16	26
17	32
17	9
17	18
17	5
17	22
18	19
18	12
18	29
19	1
19	20
20	32
20	1
20	3
20	6
20	8
20	10
20	15
20	21
21	25
21	18
21	3
21	22
21	9
22	8
22	23
23	24
23	28
23	5
24	3
24	22
25	17
25	26
25	5
26	27
26	3
26	6
27	24
27	3
27	28
28	19
28	5
28	29
29	3
30	3
31	18
31	21
32	1
