513	344
514	452
514	126
515	285
516	294
517	187
518	170
520	285
521	140
522	345
523	133
524	296
525	205
526	345
527	123
528	294
18	0
534	413
536	286
540	529
540	462
542	337
543	362
544	439
546	467
550	299
552	320
554	320
555	365
556	495
557	373
581	566
559	512
560	347
561	319
530	369
530	462
563	467
564	330
54	8
54	2
568	532
568	566
57	0
57	8
57	2
572	537
61	0
61	22
575	529
576	459
577	457
66	6
579	431
68	0
68	21
69	2
69	5
69	37
70	2
70	12
584	532
584	566
585	571
74	13
587	567
588	545
589	570
78	2
78	3
79	2
580	457
84	0
84	21
84	22
87	40
87	19
89	0
89	35
89	20
94	0
94	13
95	4
98	0
98	2
98	5
98	30
99	0
99	22
99	23
102	13
103	26
103	20
104	5
105	8
108	15
109	0
109	29
109	22
110	15
111	0
111	3
111	8
111	22
111	24
111	25
111	58
111	29
115	17
115	6
117	0
118	0
120	2
120	37
131	58
131	22
573	434
145	129
145	26
147	19
147	28
158	129
158	26
167	28
173	26
175	73
175	21
177	17
181	23
183	35
185	19
185	134
188	40
188	178
189	40
196	25
196	3
197	58
198	75
200	47
207	14
209	19
209	28
212	19
213	71
216	12
218	178
218	13
220	31
221	37
224	24
225	5
226	40
227	27
228	125
228	22
229	21
229	124
229	13
229	77
230	80
232	23
233	64
234	3
235	24
235	148
235	22
236	20
236	4
237	14
238	77
240	37
241	13
244	48
245	112
245	25
245	3
246	42
247	86
248	29
250	10
251	24
252	32
253	178
253	13
254	71
255	97
258	37
260	76
262	46
263	48
264	184
264	53
265	88
265	39
267	65
267	26
268	138
268	22
269	53
270	129
270	26
271	60
272	7
273	92
274	101
275	24
275	162
275	22
276	25
276	3
277	92
278	24
278	25
278	172
280	14
281	33
282	92
283	22
283	23
293	76
562	334
306	160
308	29
309	126
314	154
316	151
317	125
318	291
318	133
324	135
325	148
328	143
332	81
333	132
335	156
338	134
339	113
340	81
341	72
342	162
342	148
343	47
348	155
349	154
354	186
356	242
356	134
357	132
358	168
359	184
360	129
363	133
364	298
364	223
366	194
367	133
371	201
372	154
374	166
376	136
377	146
378	33
379	123
380	163
380	86
381	113
381	205
382	126
384	37
387	52
388	116
388	134
390	142
391	194
393	160
396	136
397	135
398	184
400	25
401	130
402	143
404	202
405	222
406	34
407	146
408	134
409	60
410	132
412	132
414	72
415	193
416	35
417	187
417	36
418	195
419	208
422	151
423	81
424	51
425	135
426	23
427	107
428	385
428	116
429	113
430	256
436	122
586	535
451	144
454	301
458	153
460	337
460	290
460	134
463	287
466	211
470	163
472	346
473	166
569	529
475	242
476	285
477	290
477	134
478	174
479	231
482	128
483	132
485	202
486	242
487	323
488	373
489	138
490	413
491	285
492	137
492	433
493	122
494	128
496	242
497	389
499	284
500	329
501	156
502	296
502	464
503	385
504	286
505	163
506	292
507	291
507	133
508	296
508	464
509	210
510	284
511	302
