512	104
513	203
514	212
515	212
516	383
519	369
520	225
9	0
9	57
522	374
11	0
524	202
525	207
526	246
527	238
528	154
529	354
531	351
532	265
533	212
534	272
535	394
542	474
546	376
551	358
555	469
556	493
557	472
558	483
559	359
560	344
561	483
53	1
566	344
521	474
521	202
568	464
569	481
58	0
58	234
58	13
58	175
571	367
60	8
573	502
62	6
575	475
576	468
65	1
65	10
65	321
66	5
67	0
67	4
580	352
69	1
70	0
71	272
71	5
72	0
73	5
582	381
565	369
591	549
592	539
594	367
595	243
596	537
597	492
598	539
599	357
600	549
601	345
602	481
603	547
611	584
612	538
614	461
615	345
617	536
622	627
622	605
623	543
624	610
626	618
627	618
627	629
627	622
629	627
630	619
631	620
127	252
127	36
128	41
128	18
128	5
128	135
130	18
130	303
135	128
135	41
567	452
142	24
142	333
144	273
144	34
148	5
150	51
155	13
157	15
158	36
159	30
161	51
162	13
164	7
165	21
169	28
171	26
172	21
173	15
174	46
175	58
176	47
177	15
178	313
178	18
178	5
179	34
180	43
181	54
183	46
184	55
185	16
188	15
189	46
190	16
191	18
192	10
193	24
194	36
196	46
197	43
199	16
234	432
234	58
234	397
238	20
238	156
238	527
240	385
240	91
240	37
242	96
247	109
255	99
255	453
257	96
257	136
257	415
259	406
259	30
261	81
264	89
264	485
266	113
270	132
273	144
279	136
281	76
282	97
288	13
291	17
293	92
294	81
296	117
299	106
300	87
301	24
304	74
305	99
306	82
306	451
307	94
308	88
309	117
310	102
311	113
312	37
313	178
314	139
315	13
316	76
317	84
318	115
319	54
321	65
323	13
324	136
325	89
326	120
327	93
328	101
329	78
330	84
331	156
332	109
333	142
334	36
335	20
336	19
337	46
338	80
338	206
339	115
340	98
341	37
342	13
574	360
570	347
350	202
350	463
523	212
572	392
370	156
371	187
373	221
375	496
375	182
577	380
396	491
396	206
578	343
399	207
400	97
401	198
579	346
404	122
407	89
409	207
410	530
410	262
412	98
413	226
414	258
581	116
416	198
420	75
421	204
422	262
425	154
583	492
428	200
430	290
431	231
433	211
434	258
435	205
436	222
437	209
438	202
440	114
442	223
443	132
444	156
444	229
445	217
447	75
448	120
449	97
450	256
451	306
452	346
452	567
452	87
453	255
454	182
454	383
455	217
456	278
457	203
458	182
459	102
460	226
472	202
472	557
474	521
474	202
474	466
474	542
476	211
480	216
480	554
480	547
482	200
485	264
490	358
494	355
497	227
498	227
499	355
502	346
502	573
503	111
504	351
505	385
506	376
508	352
509	219
510	216
