0	19
0	1
0	35
0	4
0	5
0	38
0	65
0	43
0	12
0	13
0	46
0	15
0	11
0	17
0	67
0	21
0	23
0	36
0	28
0	61
0	63
1	2
1	7
1	39
2	3
2	39
2	44
2	48
2	18
2	20
2	28
2	29
3	12
3	4
3	1
3	15
4	32
4	1
4	5
5	34
5	29
5	6
6	2
6	69
6	7
7	8
7	59
7	12
7	30
8	64
8	9
8	15
9	10
9	42
10	1
10	11
10	33
11	33
11	4
11	69
11	38
11	1
11	8
11	41
11	12
11	46
11	15
11	50
11	19
11	57
12	1
12	55
12	13
12	47
13	40
13	68
13	14
14	1
14	68
14	9
14	12
14	22
14	25
14	4
15	16
15	51
15	55
16	1
16	49
16	47
16	17
16	25
16	58
16	62
17	33
17	3
17	18
17	51
17	22
17	62
18	1
18	19
18	12
19	24
19	3
19	20
20	1
20	59
20	21
21	22
21	15
21	48
21	18
21	54
21	23
21	58
23	24
23	50
23	20
24	17
24	15
24	25
25	65
25	26
25	59
26	64
26	27
26	37
27	1
27	3
27	28
28	3
28	29
28	6
29	8
29	30
29	54
30	56
30	42
30	31
31	32
31	35
31	5
32	33
32	12
32	11
32	44
32	45
32	18
33	34
33	53
33	6
34	32
34	1
34	35
34	37
34	40
34	63
35	1
35	36
36	27
36	35
36	37
37	56
37	12
37	60
37	38
37	1
38	2
38	3
39	40
39	35
39	14
40	52
40	59
40	12
40	41
41	10
41	42
41	31
42	1
42	43
43	33
43	3
43	44
44	33
44	23
45	1
45	12
45	46
46	17
46	55
46	13
46	47
47	48
47	3
47	66
47	67
47	22
48	17
48	60
48	49
49	24
49	50
49	12
50	16
50	18
50	51
51	41
51	52
51	62
52	34
52	53
52	23
53	30
53	54
53	22
54	16
54	57
54	55
54	13
54	47
55	56
55	38
55	31
56	57
56	12
56	55
57	17
57	58
57	22
58	66
58	8
58	41
58	21
58	26
58	59
59	49
59	38
60	1
60	61
61	17
61	18
61	52
61	62
61	23
62	1
62	35
63	64
63	9
63	27
64	1
64	26
65	48
65	59
66	48
66	1
67	14
67	15
68	12
68	7
