0	1
1	2
2	3
3	4
3	134
3	12
3	16
3	23
3	121
3	59
3	188
4	5
5	6
6	7
7	8
8	9
9	10
10	90
10	11
10	21
10	86
10	127
11	12
11	60
11	4
12	13
13	14
14	15
15	161
15	4
15	16
15	51
15	22
15	28
15	94
16	17
17	18
18	19
19	20
20	66
20	11
20	21
20	78
21	16
21	83
21	28
21	22
22	121
22	106
22	4
22	23
23	24
24	25
25	26
26	27
27	16
27	83
27	28
27	22
28	29
29	30
30	31
31	32
32	185
32	33
33	34
34	35
35	36
36	37
37	38
38	39
39	40
40	41
41	42
42	43
43	44
44	45
45	46
46	47
47	48
48	49
49	50
50	16
50	51
50	111
51	52
52	53
53	102
53	54
54	55
55	56
56	57
57	58
58	59
58	4
59	12
59	60
60	61
61	62
62	63
63	64
64	65
65	21
65	143
66	67
66	198
67	68
68	69
69	70
70	71
71	72
72	73
72	190
72	142
73	74
74	75
75	76
76	77
77	171
77	21
78	79
79	80
80	81
81	82
82	83
82	28
82	22
83	84
84	85
85	11
86	87
87	88
88	89
89	90
89	11
89	166
90	91
91	92
92	93
93	16
93	94
94	95
95	96
96	97
97	98
98	99
99	100
100	101
101	54
102	103
103	104
104	105
105	106
105	23
106	107
107	108
108	109
109	110
110	51
110	111
111	112
112	113
113	114
114	115
115	116
116	117
117	118
118	119
119	120
120	121
120	4
120	23
121	122
122	123
123	124
124	125
125	126
126	11
127	128
128	129
129	130
130	131
131	132
132	133
133	4
133	134
134	135
135	136
136	137
137	138
138	139
139	140
140	141
141	73
142	66
143	144
144	145
145	146
146	147
147	148
148	149
149	150
150	151
151	152
152	153
153	154
154	155
155	156
156	157
157	158
158	159
159	160
160	16
161	162
162	163
163	164
164	165
165	90
166	167
167	168
168	169
169	170
170	78
171	172
172	173
173	174
174	175
175	176
176	177
177	178
178	179
179	180
180	181
181	182
182	183
183	184
184	33
185	186
186	187
187	4
188	189
189	73
189	190
190	191
191	192
192	193
193	194
194	195
195	196
196	197
197	67
