#
# hold-out likelihood (Tue Nov 25 13:12:02 2014)
#
# communities	likelihood
5	-63786.2
6	-63190.2
8	-63465.6
10	-63152.9
13	-63147.1
17	-63038.1
22	-62413.8
29	-61315.2
39	-57936
52	-57769.9
100	-51508
