985	1035	1010	63	169	986	185	978	937	990	935	103	1002	933	1006	1008	928	1034	1005	1000	922	939	934	953	1044	1031	57	927	932	954	1015	1012	102	973	924	951	946	93	925	923	971	1018	1037	936	186	938	995	964	1042	1041	1007	941	968	976	992	942	956	929	1032	997	991	949	94	131	952	926	998	1029	1027	961	974	919	180	1040	966	188	12	969	187	1036	1028	136	983	972	170	192	55	993	162	981	930	947	1001	1022	944	132	66	65	28	1009	1016	1019	979	1003	1030	980	975	1011	1038	999	1020	178	1026	967	965	963	960	955	1004	931	1033	943	67	1021	962	921	920	181	918	940	172	984	125	948	1039	945	982	159	1043	996	958	957	114	977	126	950	13	14	183	164	88	970	143	68	189	171	64	989	988	987	
1282	1415	1080	1438	1197	1917	2136	1225	1721	1081	2077	1666	2076	2098	1562	1564	1565	1971	1675	1466	1461	1459	1334	1198	2097	1896	2093	1973	2070	1972	2069	1638	1667	1981	1333	1106	1816	2109	1097	1247	2059	1098	1633	1776	2108	1606	1980	1701	1631	1632	1840	1837	2110	1953	2046	2083	2112	1846	2133	2045	1460	1605	1757	1829	2026	2034	1839	1224	1920	1722	2137	1892	1610	1954	1639	1841	2138	1561	1849	1676	1703	1727	1964	2165	1575	1949	1332	2067	1758	1702	1650	1730	2131	1959	1929	1705	1704	1726	1611	2092	1464	1207	2084	1504	1814	1789	1930	2132	2183	1577	2091	1136	1769	1368	1706	1634	1530	1612	1300	1765	1856	1283	2096	1135	1904	1962	1467	
711	664	621	665	634	567	615	704	685	713	570	653	607	564	598	633	652	668	656	596	636	672	698	657	3780	599	568	617	655	662	601	670	702	720	605	619	627	623	688	565	694	715	722	629	625	3761	705	706	693	654	684	597	661	648	660	603	569	610	631	692	683	700	647	718	678	714	566	622	687	707	666	616	571	3845	649	695	699	721	671	663	606	637	716	682	691	600	602	624	620	679	723	628	689	635	712	677	667	630	608	673	609	686	703	701	626	659	658	669	719	632	618	3922	3923	3924	
4326	4372	4352	4340	4328	4337	4318	4368	4351	4320	4335	4361	4343	4344	4350	4319	4374	4400	4327	4316	4356	4358	4360	4323	4338	4390	4334	4401	4330	4379	4357	4312	4329	4347	4389	4404	4388	4403	4392	4395	4313	4339	4385	4376	4314	4377	4380	4359	4336	4367	4373	4331	4375	4402	4369	4370	4321	
1123	1065	1063	1062	1444	1162	1122	1109	1107	1494	1360	1124	1511	1320	1463	1212	1416	1348	1083	1998	1208	1922	1246	1990	1488	1066	1298	1401	1495	1372	1161	1177	1399	1585	1934	1313	2066	1173	1380	2033	1587	1921	1580	1327	1645	2020	1820	1996	1723	1151	2044	1658	1836	1476	1202	1402	2043	1490	1211	1975	1245	1766	1497	1671	1815	1738	1552	2179	1739	1551	1436	2090	1367	2149	1413	2054	2027	1989	1678	1844	1175	1595	2104	1061	1064	1301	1510	2103	1426	1967	1984	1116	1400	1999	1489	1835	1388	1677	1108	1843	1607	1125	1991	1129	1988	1445	1195	1128	2028	1299	1176	1833	1452	
2219	4580	4490	4643	4460	4541	2214	2220	4491	4520	2330	2371	4495	4809	4540	4635	4548	4622	4489	4584	2215	4487	4691	4474	4593	4606	4588	4526	4527	4662	4783	4582	4475	4521	4621	4667	4517	4687	4596	4507	4782	4566	2349	4551	4629	4459	4644	4790	4494	4613	4675	2350	4513	4525	2224	4778	4516	4615	4594	4514	4518	4610	4530	4488	4604	4587	4578	4493	4492	4780	4789	4784	3427	4628	4776	2397	4616	4485	4486	4623	2311	4812	4787	4788	4794	2280	2223	3426	4688	4804	4924	4810	4549	4923	4779	4668	4803	4589	2221	4583	2398	4805	4633	2281	2222	4781	2332	4605	4813	4785	4811	4795	2289	4653	4777	4786	
1522	1222	1622	1600	1060	1423	1264	1326	1202	1082	1736	2021	1381	1364	1743	1099	1613	1080	1802	1199	1687	1540	2022	1689	1278	1249	2015	1871	1963	1700	2006	2146	1644	1274	1200	1262	1859	1686	1100	1742	1623	1888	2024	1933	2057	1383	1688	1614	1717	1362	1936	1775	2023	1793	1794	1541	1762	1918	2145	2144	1830	1935	2016	1593	1805	1831	1716	2123	1763	1527	1528	1084	1363	1335	1803	1728	1592	1672	1394	1287	1332	1283	1879	1265	1382	2147	1059	1223	1085	1250	1337	1354	1493	1101	1102	1612	1745	1209	1847	1594	1336	1744	1919	1804	2007	1659	2124	1932	1361	1263	1886	1467	1966	
766	788	746	740	726	736	734	743	2401	753	756	776	744	774	729	748	4681	728	773	750	764	727	762	745	800	772	763	749	4927	760	735	755	4932	805	4929	4679	801	769	768	789	739	810	809	742	791	4926	2400	2239	771	792	806	783	751	738	4940	803	4934	4933	4928	804	4936	2338	4939	4935	2238	765	2404	798	4937	2310	741	767	737	2337	754	4938	758	2271	757	4566	761	775	770	807	799	793	4682	4680	747	784	782	4931	4930	752	802	2311	759	1183	
1013	4870	45	3319	4881	4884	4827	3347	3492	3398	4885	4922	4883	4852	3629	4886	3610	4855	3565	3613	3348	4920	4834	4828	3558	4874	3370	3557	3676	3694	3680	3318	3627	4833	4873	4909	4856	3576	3503	4823	3588	4869	3638	4897	3559	3399	3679	3493	3654	3423	4914	3556	4910	4854	3635	3589	4875	3504	3649	3567	3491	4908	3422	3560	3611	3683	3394	3623	3494	47	994	970	3349	3317	936	1037	4876	4872	170	4866	4853	4830	3575	993	3561	3717	4829	3684	2318	3633	1014	3626	4871	4921	3678	4912	1017	4911	3393	3615	3696	46	1025	3677	3695	3484	3612	3390	4882	1023	3400	3577	3401	3624	3315	4916	18	4891	4831	1024	3371	
79	137	120	139	119	24	2526	8	5	138	34	124	4449	4108	23	60	128	122	182	127	204	133	30	206	15	226	18	193	81	118	143	116	160	58	83	222	154	107	37	108	39	129	174	59	6	130	168	36	35	190	33	123	104	31	209	184	214	140	40	117	91	147	148	208	153	90	163	223	56	86	215	78	84	32	87	55	178	4878	134	114	207	2527	4450	109	10	224	121	217	227	11	80	82	205	52	9	179	142	4451	4308	144	141	146	77	4109	4448	7	145	221	4309	
110	70	3	19	195	193	25	72	155	54	175	149	161	198	99	76	115	74	96	158	118	157	53	29	95	89	85	50	211	107	61	38	218	202	212	0	166	165	16	179	18	73	4	71	194	176	173	196	51	156	92	62	220	210	3750	219	216	3764	150	177	97	49	105	109	52	3845	164	111	47	28	4091	86	26	203	201	112	217	197	101	152	199	225	200	213	100	167	141	142	17	20	21	113	75	221	143	1	2	191	186	151	106	98	77	22	27	
1315	1214	730	1339	1357	1241	1906	1305	1185	796	790	1114	1092	1071	1186	777	780	785	1338	1359	1096	808	1119	1358	1115	1072	1216	1455	1819	1304	1907	728	2002	1215	779	1818	1970	1248	1827	1242	1356	1553	1477	1327	1908	1244	2081	1832	1916	1169	1542	1174	794	2087	1468	1719	795	1240	1095	1873	1347	1733	1845	1732	1872	1756	1974	1799	1905	2122	1800	2032	1094	1184	1948	1061	1064	1183	1210	787	786	1316	2048	733	1067	2095	1388	801	778	765	731	1828	1243	781	1217	1969	797	799	1325	769	
4471	4634	4515	4586	4500	4501	4676	4624	4638	4639	4519	4465	4627	4635	4706	4574	4585	4818	4678	4704	4663	4701	4756	4508	4620	4532	4538	3341	4536	4568	4579	4472	4479	4468	4473	4512	4626	4677	4466	4537	4619	4617	4659	4531	4773	4655	4467	4625	4524	4591	4658	4511	4545	4666	4700	4510	4523	4462	4572	4718	4609	4641	4694	4573	4674	4820	4690	4699	4696	4695	4707	4698	4806	4636	4759	4697	4461	4814	4720	4650	4485	4616	4623	4486	4509	4772	4535	3342	4732	4769	4533	4705	3340	4819	4815	4683	4755	4692	4590	4760	4807	4595	4514	4801	4649	4637	4640	4470	
4362	4332	4371	4383	4381	4353	4360	4396	4316	4391	4355	4333	4378	4315	4345	4386	4323	4324	4329	4347	4363	4393	4354	4364	4349	4348	4342	4322	4365	4394	4387	4382	4397	4325	4346	4366	4317	4384	
3957	390	385	381	3935	418	393	379	1309	421	3934	1254	2250	423	1253	2207	399	1310	1386	447	1210	3932	3936	461	428	1170	1160	2320	2251	2289	383	395	398	426	3956	3988	1584	419	449	1209	3975	1312	2322	3933	3978	1311	1480	2321	1159	3992	463	3940	2319	2288	3989	2257	3976	2256	450	1158	464	1206	1325	407	2247	3960	3996	392	391	386	387	388	389	411	420	394	1413	380	422	400	1171	1455	1387	451	2281	1886	2252	3959	462	410	3993	3958	1156	4005	3969	
2459	2522	2482	2465	2593	2533	2440	2421	2545	2441	2544	2521	2483	2580	3251	2456	2474	2468	2978	2466	2976	2449	2460	2516	2548	2608	2575	2427	2471	2480	3235	3217	2445	3276	3274	2446	2433	2950	3003	3263	3187	3231	3275	3237	3196	3201	3211	3257	2969	2410	2561	3207	2461	2467	3208	2594	3232	2473	2519	3190	2578	2472	3277	2447	3236	3279	2518	2448	2481	2426	2565	3218	3278	2979	3209	2970	2581	3212	2475	2977	2595	2422	3258	2479	3198	3188	2423	3206	3227	3216	2546	3226	
2247	402	4023	3943	405	416	2352	3944	3966	2313	2393	4041	2245	459	454	458	2270	3974	2329	2355	432	4047	4021	2360	429	3987	4031	2370	412	3952	2269	4059	431	2248	2356	2268	4046	4048	4045	441	448	401	439	2242	433	3965	3967	2394	2346	2267	4044	2266	4042	4030	2361	2246	4038	411	3985	2323	2225	2226	442	2324	3946	3986	4043	4036	452	403	4009	404	3968	2314	456	4037	4024	410	3953	417	4053	4025	2271	2353	4022	430	383	4060	4061	425	2251	
3288	3320	3302	3307	3294	3640	3303	3299	3296	3292	3425	3386	3667	3295	4822	3315	4821	3531	3395	3300	3579	4895	3350	3616	4896	3388	3467	3674	3721	3717	3593	3639	3641	3509	3289	3552	3656	3637	3672	3533	3420	3668	3670	3671	4832	3364	3730	3665	4893	3397	3731	4925	3712	3498	3666	4892	3396	3563	3390	3580	4923	3327	3549	3435	3304	4581	3380	4639	3655	3344	3725	3392	3387	3634	3345	3391	3389	3617	3722	3532	3687	3718	3636	3564	3607	3577	3675	3466	3424	3723	3550	3308	
3102	3270	3105	2681	3103	3100	3104	3126	3101	3118	2755	3096	3097	
4007	2674	4063	2673	3979	4019	4016	4014	3949	4029	3937	4012	3995	2895	3972	3945	4055	4006	2672	4010	3265	3228	4018	3938	3981	3962	4003	3996	3951	3990	4009	4026	3941	4008	3999	4000	3983	4017	4062	2427	2678	3963	3964	4020	4054	3980	3994	3950	4028	3939	3982	4039	3934	4001	3984	4004	4002	4040	3971	3970	2631	2416	2676	4027	3991	3946	3933	3997	3205	3948	3947	2675	4057	3147	3998	3942	4056	4058	2632	4011	4013	
1260	1321	1053	1330	1229	1257	1306	1407	1901	1761	1292	1052	1550	1422	1573	1154	1983	1755	1531	1279	1643	1569	1113	1812	2162	1598	1811	1323	1228	1259	1408	1153	1414	1572	1582	1230	1597	1258	1112	1568	1047	1045	2148	2159	1534	1852	1615	1640	1583	1729	1574	1526	1915	1718	1046	1616	1609	1790	1925	2160	1465	1833	1789	1453	1322	1331	1509	1508	1307	1533	1224	2164	1532	1280	2163	2152	1881	1779	2166	1535	1368	1926	1454	1464	1360	1813	
817	835	4436	819	838	842	822	879	503	848	858	870	814	845	839	4446	853	875	813	855	906	880	4431	913	829	821	907	910	815	502	816	888	847	844	843	846	2526	868	881	836	818	865	841	885	861	135	876	820	833	824	4445	889	904	895	852	891	837	4438	856	859	892	883	4432	908	912	882	134	99	911	909	851	917	890	840	823	850	893	905	4437	894	
1379	1073	1498	1086	1378	1419	1441	1485	1440	1418	1417	1505	1051	1496	1945	1514	1557	1537	1912	1752	1681	1706	1400	1150	1050	1673	1887	1653	1617	1457	1708	2105	1635	1420	1421	2009	1368	1751	1900	1458	1636	1499	1624	1563	1513	1960	1946	1536	1682	2068	1567	1870	1961	1786	1780	1618	2088	1446	1571	1878	1807	1731	1947	2091	1103	1897	1075	1074	1518	1466	1087	1442	2025	1621	1258	1558	1683	1913	1957	1684	1944	1958	1525	1985	1730	1976	1874	1914	1940	1447	1798	1899	1854	
1126	1500	1456	1318	1232	1077	1297	1501	1234	1429	1268	1157	2119	1314	1396	1397	1164	1434	2099	1130	2118	1127	1296	1319	1439	1506	1076	1233	1432	1451	2161	1453	2055	1524	1986	2158	2167	2172	2042	1880	1138	2189	1374	1137	1834	2187	1454	2185	1646	1235	1116	2155	1503	1431	1430	1165	2111	1566	1647	2186	1699	1129	1128	1166	
41	4868	3513	3309	3460	3438	4890	4482	3317	3462	3366	3368	3512	3312	4867	4469	3365	4630	4528	3336	4660	3646	958	3310	3508	3618	3713	3439	4484	4483	4879	3719	3480	4481	3316	4889	3709	3645	3338	3553	3479	4480	3339	3358	3463	959	3458	4844	4843	3471	4631	4656	4529	3581	3601	3707	3728	4470	3627	4891	45	3311	3304	4863	3436	3461	4754	4753	4888	3369	3367	3337	4661	3648	3647	4552	3652	3564	3634	3464	3459	3602	4655	4618	4657	3708	4763	3633	3349	43	42	44	
1424	1409	1070	1271	1425	1410	1345	1069	2075	1370	2143	2176	2080	1806	2085	1272	2175	1411	1491	2140	1808	1473	2052	1376	1369	1252	2050	2173	2082	2053	2086	1426	2051	2074	2126	2102	2060	1273	2041	2071	2056	1523	2049	2115	2101	1657	1068	2061	2058	1474	2116	1842	1619	2114	2113	1152	1103	1699	2100	2181	2154	2177	2153	2073	1471	1371	1251	2151	1346	1151	2178	2019	2174	2150	
513	531	520	494	530	536	550	490	504	527	526	535	545	540	488	541	522	521	554	519	515	528	543	508	551	542	553	549	516	517	511	509	529	532	560	525	533	534	537	539	538	514	544	506	505	552	548	557	523	524	493	495	491	492	1449	1448	4195	547	546	559	555	512	507	4125	518	561	510	489	558	
2531	2418	2532	3161	2649	2505	2490	2564	2517	2892	2874	2829	2560	2920	2929	2953	2597	3137	3138	3184	3267	3011	3163	3167	3131	2549	2425	2599	2746	2692	3067	2839	2507	3122	3159	3010	2840	2436	2557	2484	2469	2865	2862	2538	2863	2605	2419	2420	2642	2641	2864	2767	3162	2602	2506	3175	2600	3268	3026	3269	3164	3168	2842	3081	2437	3009	3247	3025	2830	2841	
1433	2141	1625	1867	1928	1322	1923	1599	1205	1437	1591	1939	2127	1694	1451	1602	1698	1324	1601	1512	1853	1902	1046	1941	1863	1937	1462	1434	1626	2171	1693	2128	2129	1720	1165	2018	2011	1344	1911	1893	1876	1204	1810	1797	1982	1938	1343	1864	1769	1795	1796	1651	1768	1652	1992	2089	1909	2096	1869	2152	1868	1627	2047	1697	1414	1535	1987	1881	2111	2166	2155	1721	2130	1779	1331	1730	2148	1940	1910	1452	2092	
4175	4209	4136	4188	4156	4172	4089	4138	4180	4100	4064	4067	4075	4096	4167	4139	4120	4181	4118	4144	4072	4157	4195	4152	4187	4101	4166	4097	4142	4131	4113	4137	4112	4110	4227	4179	2587	2588	4257	4219	4176	4259	4258	4260	4255	4239	4221	4244	4245	4220	4069	4065	4275	4121	4234	4226	4123	4122	4238	4241	4153	4103	4102	4151	4211	4237	4111	4224	4168	4068	4240	4251	4178	4177	4228	4223	4256	4066	4289	
2364	2315	2316	2368	2369	2380	2405	2384	2367	2233	2366	2363	2365	2406	2308	2375	
1293	1475	1373	1977	1295	1116	1117	1190	1469	1057	1470	1328	1349	1191	1483	1890	1308	1862	1385	1350	1329	1058	1774	1281	1294	1351	2188	1707	1891	1997	1877	2008	1978	1586	1189	1715	1056	1172	1663	1543	1167	1951	2012	1875	1168	1968	1679	1711	2190	1765	1400	1677	1075	1399	1476	1482	1480	1374	1376	1151	1894	1617	1621	1473	1874	1484	1518	1372	1525	1352	2025	2186	1375	
2582	2431	2658	2738	2935	2484	2945	2635	3031	2848	2453	2579	2634	3115	3005	3034	3035	2552	2660	2851	2897	2550	2769	2975	2432	2486	2931	2659	3252	2847	2703	3004	2957	3215	3219	3229	3183	2987	2760	2772	3051	2988	2598	3055	2853	3045	2927	2854	3113	2856	3049	2529	2930	2506	2839	2602	2840	2739	3185	2962	3075	2636	3148	2852	2932	2773	3146	2986	3056	3186	2855	3046	3052	3114	3108	2857	3050	
1178	1284	2001	1180	2000	1393	1285	1384	1286	1544	1213	2029	2030	1784	1855	1695	1555	1943	1392	1478	427	1481	1156	1181	1554	1668	2180	1753	1596	1777	1480	1898	1680	1778	1669	1788	1860	2017	1545	1851	1785	1391	1155	1787	1670	1861	1547	1219	1709	1724	1548	1287	1394	1218	1179	1074	1692	1546	1288	1603	1942	426	1479	1950	1957	1734	1653	1897	1889	1725	1754	1850	1220	1710	2003	1207	1696	
4446	4302	4104	4147	4090	4205	4098	4162	556	470	4094	4077	4186	4159	4442	4439	4171	557	4191	4158	4130	4129	2587	4099	4076	471	4107	4197	4092	478	826	4249	4091	4109	2588	502	4456	4457	4447	4429	4458	4455	4105	4106	4253	4204	4163	89	4164	523	467	524	4243	4229	4305	4225	4206	4444	4443	4285	4440	4310	4441	4311	4236	4250	479	4093	4445	4448	827	815	840	
3779	3765	3778	3741	3762	3766	3899	3812	3856	3867	3755	3847	3770	3831	3838	3827	3900	3739	3870	3868	3733	3759	3795	3925	3767	3761	3858	3855	3830	3918	3794	3920	3915	3732	3826	3820	3873	3861	3892	3734	3898	3862	3760	3763	3772	3893	3917	3781	3844	3752	3813	3819	3756	3909	3782	3758	3744	3743	3742	3811	3926	3895	3816	3740	3869	3802	3863	
2624	2417	2915	2774	2794	2768	2900	2647	2933	2898	3182	2627	3076	2926	3107	2584	2438	3082	3125	3024	2923	2606	2643	2485	2824	2654	2861	3094	3139	3039	3089	2845	2670	2671	2921	2922	2661	2657	2544	2656	2592	2591	2901	2648	2934	2628	2439	2607	2655	3116	2416	
2198	2292	2197	2391	2376	2253	2297	2195	2331	2200	2377	2357	2284	2378	2312	2351	2325	2232	2199	2203	2208	2262	2389	2388	2290	2293	2306	2392	2299	2334	2326	2298	2192	2194	2333	2255	2247	2335	2358	2291	2205	2285	2254	2345	2206	2193	2390	2240	2249	2294	2296	2227	2295	2405	2305	2196	2207	2379	2274	2204	2283	2242	2241	2332	
2705	2795	2796	2729	2815	2693	2665	2694	2759	2470	3077	3129	2973	2748	2695	3032	3008	3059	3029	3061	3030	2664	3006	3033	3073	3071	2484	2706	3210	3234	3222	3047	3053	3057	2666	3144	3111	3041	3043	2469	2704	3040	3172	3078	3060	2696	3062	3083	2432	3072	3074	3143	3007	3058	3054	3253	3145	3048	3042	3112	3044	
1549	1927	1268	1144	1428	1398	1924	2117	1560	1426	1822	1993	1979	1559	2120	1277	1427	1269	1143	2063	2135	2065	1773	2064	1187	2121	2062	1302	1823	2169	2125	2037	2170	1270	1620	2168	1770	1432	2134	1412	1303	1235	1301	1510	2181	1396	2100	1145	1188	2073	1894	2184	2103	
1256	1267	1255	1266	1289	1201	1192	1121	2142	1199	1120	1502	1529	1443	1231	1342	2040	1110	1090	1340	1238	1520	1760	1290	1450	1261	1194	2010	1196	1486	1519	1317	1341	1111	1239	1570	1767	1604	1783	1637	1641	1487	2039	1093	1355	1353	1521	1642	1140	1337	1354	2553	2519	1590	1193	1091	2038	414	1817	1857	2031	1139	1147	
3412	3410	3445	3293	3314	3546	3452	3450	3448	3472	3485	3449	3444	3451	3418	3419	3548	3570	3416	3571	3578	3453	3455	3585	3292	3363	3489	3505	3673	3628	3700	3497	3454	3498	3499	3597	3572	3385	3483	3482	3430	3414	3413	3415	3417	3474	3411	3475	3446	3335	3434	3614	3547	3473	3443	3486	3714	3715	3481	3384	3506	3598	3573	3636	
2395	4708	4632	4713	4712	4719	4740	4737	4725	4742	4607	4726	2273	4743	4738	4774	4744	4709	4710	4739	4531	4611	4711	4721	4733	4714	4703	4735	4715	4727	4736	4731	4728	4722	4724	4702	4729	4723	4717	4734	4730	4716	2272	4693	2399	2396	2398	4765	4766	4732	4746	4741	2337	4745	4775	4747	4692	4802	2280	
2804	2646	2681	2892	2928	2936	3151	2766	2586	2735	3195	2981	2818	2816	2820	2878	2585	2505	2737	3020	2755	2803	2683	2956	3068	3012	2708	3069	2765	2680	2993	2994	3124	3123	2736	2469	2425	3171	3170	3036	3018	2742	2819	2821	3013	2817	2741	3019	2829	2961	
3286	3698	3326	3283	3525	3282	3650	3287	3304	3305	3605	3435	3517	3591	3436	3456	3407	3544	3521	3403	3516	3325	3651	3298	3697	3297	3526	3711	3379	3699	3406	3653	3574	3437	3622	3405	3596	3542	3594	3402	3429	3428	3527	3693	3606	3582	3545	3652	3457	3592	3404	3467	3394	3408	3543	3595	
1515	1903	1579	1576	1079	1404	1105	1649	1078	1182	2078	1538	1660	1539	1791	1801	2107	1589	1578	1517	1395	1792	1507	1674	1690	1995	2094	2182	1516	1605	1965	1838	1662	2036	1848	2035	1300	1142	1661	2139	1691	2106	1847	1577	1530	1634	1648	1556	1381	1405	1080	1750	2079	1561	2131	1141	1546	1493	
474	676	577	4433	472	640	481	573	475	484	708	724	611	69	562	696	469	465	480	3749	593	468	477	485	486	4449	473	4435	483	476	482	467	487	678	713	578	650	4093	690	579	4434	641	642	710	709	572	574	3750	612	563	466	697	49	725	594	203	
3321	4463	3329	3330	4476	4646	4608	4664	3332	4559	4665	4478	3490	3562	3568	4558	3681	4645	4600	3510	4642	3333	3331	4601	4560	4522	4477	4669	4654	3603	4539	4602	3691	4561	3334	3614	3292	4464	4459	4557	3495	3496	3710	4547	3569	3682	3534	4533	4599	3511	3727	4538	4497	4554	4498	3716	4563	4603	3692	3604	4564	
1066	1088	4419	1049	4421	4427	4405	4423	4425	323	1048	1389	4422	272	1118	1131	1472	1089	304	4417	1291	1764	4428	303	1581	1931	2072	1781	325	1782	1588	1390	1226	1884	4414	1608	4409	1064	1061	1315	1067	4420	1607	4424	4406	4426	324	273	1132	4408	1227	1883	326	4413	2048	1984	1495	
830	886	832	914	862	834	860	4452	884	913	831	897	878	828	867	877	915	866	811	898	901	864	887	869	916	849	857	859	812	868	4429	843	854	874	871	872	873	863	856	876	833	865	4453	4454	896	903	883	899	815	900	902	4430	
3875	3901	3806	3848	3838	3805	3881	3876	3840	3841	3891	3790	3807	3908	3851	3797	3746	3850	3814	3903	3910	3852	3771	3902	3894	3813	3849	3916	3839	3825	3808	3890	3809	3791	3798	3810	3859	3879	3880	3770	3783	3882	3796	3745	3883	3912	3929	3860	
2502	2413	2907	2780	2686	2619	2788	2792	2790	2775	2786	2823	3189	2503	2905	3250	3157	2412	3085	2717	2494	3152	2958	3028	2751	2637	2508	2995	3156	3023	2789	2791	3155	2793	2787	2906	
2732	2731	2430	2730	2924	2424	2550	2967	2963	2972	2433	2974	2724	2745	2733	2551	2867	2431	2769	2925	3120	2990	2748	2964	2625	2849	2410	2561	2529	2975	2887	1139	3142	3098	3249	2723	3273	2868	2553	2740	2850	2965	2411	2530	2562	
2833	2838	2762	2948	2797	2487	2524	2770	2822	2596	3095	3130	2858	2488	2711	2497	2764	3180	2763	2477	2996	2991	2949	2563	3080	2989	2741	2757	3119	3079	2515	3093	3233	2904	2859	2498	2677	2656	2889	
2542	2454	2572	2653	2428	2455	2434	2534	3255	3109	3110	2573	2539	2547	2620	2784	2937	3021	3088	2591	2592	2617	2540	2899	2414	2939	2535	2782	2415	2416	2485	2483	2456	2742	3063	2523	2429	2435	2860	2541	2785	2629	2870	2938	3015	3132	2783	3087	2771	2623	2559	2869	
2543	2834	2682	3176	2633	2843	2667	3197	2674	2960	3213	3065	3181	3136	2679	2707	2930	2542	2869	2837	3177	3179	3178	2844	2631	3014	
2494	2554	2496	2968	2556	2457	2462	2495	2776	2778	2477	2528	2721	2689	2687	2464	2717	3158	3135	2478	2622	2688	2719	2621	2709	3085	2980	2716	2555	3150	2904	2714	2713	2715	2722	2846	2779	2777	2691	3214	2690	2720	2626	2710	
4084	4193	4127	4132	4082	4189	4078	4128	4154	4290	4033	3954	4160	4133	4196	4086	4124	4051	4087	4052	4034	3930	4032	4035	3955	3977	3931	4169	4126	4079	4085	4293	4297	4294	4296	4295	4291	4271	4268	4083	4266	4272	4267	4155	4292	4265	4161	3973	4088	4170	4125	3960	
3815	3887	3747	3775	3767	3822	3842	3864	3821	3787	3793	3853	3906	3761	3792	3889	3788	3817	3818	3748	3837	3843	3865	3857	3874	3783	3921	3742	3883	3872	3854	3897	3888	3879	3880	3780	3816	3746	3743	3776	3768	3907	3836	
374	413	375	384	373	382	396	436	376	444	406	445	415	446	440	408	437	407	434	435	2196	2276	460	455	457	443	424	453	2191	385	425	452	411	3968	414	378	377	2377	397	448	409	438	787	2305	
2571	2570	2489	2512	2652	2577	2503	2451	3165	2452	2575	2583	2618	2916	2501	2569	2757	2514	2515	2520	2999	2572	2915	2746	2692	2813	2984	2992	2814	2985	2877	4204	2669	2668	2701	3269	3166	2576	2436	2982	2917	2931	2758	2998	2519	
2340	4824	498	4550	4845	2282	4826	2343	4880	4858	4848	3961	2344	4894	501	2339	2342	4464	2341	496	4823	2327	4015	4857	4049	4846	2336	2209	4859	4849	4050	825	2201	4866	823	4825	4837	499	500	4571	4570	4548	4847	4850	2387	4863	3973	2202	497	4878	4640	
2888	2697	2450	2508	3000	2718	3152	3002	2798	2509	2699	2619	2838	2711	2805	2914	2983	2891	2463	2698	3016	2701	2412	2524	2510	2806	2511	2716	3001	3173	3070	3153	2700	2702	
4860	4670	4576	4543	3281	4851	4652	4542	4761	3306	3660	3487	4752	4857	4673	4671	3280	3500	4672	4575	4544	4751	3724	3590	4748	4770	3659	4762	3488	4771	3657	4862	4828	4459	4861	4796	4797	4798	4923	3343	4503	4800	3425	4799	3285	3729	4817	4816	3658	4764	
2681	2499	2504	2866	2801	2517	2650	3271	3066	2500	2826	2827	2825	2743	2879	2651	2876	2761	3149	2744	3037	2572	2501	3097	2802	3096	2559	3272	3038	2831	2880	2828	2832	2961	2514	
2809	2810	2871	2513	3133	3262	2893	2894	3106	3099	2997	2882	2514	2807	2808	3261	2499	3264	3266	2872	2524	2812	2811	3134	3117	2955	2881	
3354	3351	3328	3642	3702	3502	3501	3468	3355	3705	3441	3514	3327	3431	3643	3515	3685	3701	3669	3631	3538	3361	3537	3478	3686	3356	3357	3469	3353	3644	3352	3346	3704	3703	3539	3540	3597	3442	3549	3440	3706	3470	3409	3432	3433	3632	3687	3477	
2875	2491	2492	2557	2873	2536	2493	3086	2885	2884	2883	2685	2684	2558	2651	3160	2744	2890	2601	3022	2866	2559	3256	2725	2726	2537	2886	3140	3141	2683	2605	
3773	3757	3789	3886	3769	3735	3800	3905	3799	3913	3884	3801	3738	3752	3823	3834	3904	3833	3871	3885	3914	3896	3768	3877	3774	3756	3758	3866	3928	3852	3910	3736	3895	3873	3737	3861	3824	3835	3863	3802	3751	3844	3878	3771	
4502	4546	4505	4534	4553	4597	4569	4684	4598	4499	4749	4567	4562	4647	4592	4506	3529	4556	4577	4612	4757	4685	4497	3528	4793	4503	4791	4504	4792	4547	4689	4651	4554	4555	4750	4686	4767	4614	4648	4599	4498	4564	4563	4492	4768	4565	3530	4808	4758	4496	
298	260	237	288	261	264	276	286	297	265	349	235	277	290	289	287	236	
1628	1366	2013	1629	2156	1955	1492	1895	1655	1771	1377	1824	1885	1630	1656	1654	1714	1825	1956	2005	1858	1276	1737	1882	1866	2004	1740	1275	1685	1713	1865	1821	1735	1759	1712	1826	1741	1493	1365	2014	2157	1772	1879	1994	
3301	3523	3284	3362	3447	3290	3313	3586	3507	3421	3524	3522	3608	3609	3625	3314	3291	3465	3661	3551	3534	3540	3334	3539	3409	3535	3600	3599	3285	3382	3383	3644	3445	3361	3440	3380	3280	3587	3725	3417	3550	
4202	4165	4149	4194	4150	4173	4073	4172	4198	4286	4070	4269	4246	4284	4156	4192	4174	4071	4179	4204	4203	4283	4280	4281	4282	4300	4299	4301	4298	4252	4095	4074	4287	4288	4306	4303	4248	4247	4307	4304	
2754	2749	2751	2958	3193	2750	2946	2951	2775	3127	3204	3238	2943	2637	2942	3128	2903	2752	2902	2753	2959	3154	2952	2947	2944	2638	
2383	2218	2354	2307	2216	2386	2384	2385	
2835	3090	3084	2836	2653	3169	3121	3230	2837	
302	265	230	267	1133	290	228	243	242	1134	314	281	356	324	292	355	316	317	347	277	282	301	266	354	231	353	1221	1068	1346	1301	315	369	291	366	
2980	2630	2971	2968	2747	2589	3203	2476	2525	2458	2711	2954	2603	2590	2781	3191	3254	2457	2712	2524	3091	3092	2657	2464	2463	3017	2604	2727	2756	3027	2716	
4182	3784	4190	4143	3785	4201	3786	3777	3754	3804	3828	4212	3919	3911	3927	4076	4072	3753	3832	3888	3767	4187	4184	3746	4183	4191	4254	3921	3776	3803	3836	3829	
1055	1148	1747	1274	1236	1054	1163	1149	1403	1746	1146	1435	1237	1749	1664	1952	1406	1203	1748	1404	1665	1275	1522	1736	1365	1648	1492	1290	1809	1147	1193	1141	1750	1332	1200	
580	638	587	591	639	576	680	589	674	645	613	640	650	583	585	604	581	586	584	582	590	588	593	592	595	643	644	717	575	675	681	646	614	651	
2614	2612	2615	2616	2611	2610	2443	2613	2442	2444	2441	2467	2461	3200	3199	3241	3244	3240	3242	3245	3243	3223	3224	3246	3260	3259	3221	3220	3194	3239	2609	
244	278	234	367	321	296	279	295	232	361	358	371	349	245	334	333	249	281	282	332	280	363	368	322	317	233	246	
2566	2640	2911	2913	2910	2574	2568	2567	2908	2912	2523	3064	2644	3248	2918	2569	2542	2662	2639	3202	3192	2909	2734	2663	2837	2553	2919	
4838	4835	4899	4865	4864	4906	4898	4877	4907	4919	4887	4913	4903	4904	4917	4905	4902	4901	4900	1017	4879	4839	4840	4833	4836	4897	4888	4873	4876	4915	4918	
254	352	327	293	311	285	274	252	350	257	329	335	328	283	259	256	255	258	281	294	310	312	253	351	322	275	362	370	284	
2234	2233	2363	2309	2236	2235	2403	2237	
2347	2211	2258	2307	2374	2381	2244	4841	2359	2259	2382	4894	2286	2287	2275	2408	2217	2216	2348	2213	2212	2260	2308	2301	2243	4837	4842	2409	2274	2375	
3322	3554	3377	3381	3518	3690	3519	3541	3520	3630	3476	3720	3688	3689	3324	3599	3323	3664	3555	3378	3334	3474	3475	3434	
342	345	330	319	344	343	229	299	331	346	300	318	301	4411	4416	313	364	4410	332	348	228	4412	4418	4415	
2372	2263	2228	2210	2277	2278	2348	2373	2317	2402	2279	2318	2328	2362	2366	2264	2265	2231	2229	2343	2230	2407	2406	2403	
238	240	305	360	241	239	307	4398	271	309	357	306	308	4341	365	324	4407	303	4399	4364	4322	4342	
4134	4261	4146	4276	4148	4081	4135	4132	4099	4200	4199	4270	4262	4263	4264	4147	4277	4278	4279	4273	4210	4080	4274	4079	
248	247	320	336	339	338	359	270	262	263	250	251	269	372	249	341	337	340	231	268	
2300	2302	2210	2367	2199	2303	2261	2279	2362	2328	2301	2407	2282	382	2304	2260	2203	
4117	4207	4231	4116	4230	4185	4205	4233	4232	
3373	3619	3360	3323	3583	3359	3566	3664	3535	3662	3375	3376	3374	3621	3620	3600	3372	3584	3536	3663	
4141	4140	4119	4115	4118	4144	4145	4215	4217	4214	4208	4218	4213	4216	4242	4222	4114	4235	
2799	2940	2966	2645	2728	2941	2896	2800	3174	2644	
