#
<<<<<<< HEAD
# hold-out likelihood (Mon Dec  8 23:50:01 2014)
=======
# hold-out likelihood (Mon Dec  8 22:20:30 2014)
>>>>>>> 4fb72c4c1da1773f28895afa49de40ba2006ce47
#

set title "hold-out likelihood"
set key bottom right
set autoscale
set grid
set xlabel "communities"
set ylabel "likelihood"
set tics scale 2
set terminal png size 1000,800
set output 'data/powergrid/ff/FF_powergrid.CV.likelihood.png'
plot 	"data/powergrid/ff/FF_powergrid.CV.likelihood.tab" using 1:2 title "" with linespoints pt 6
