0	1
<<<<<<< HEAD
1	2
2	3
2	372
3	347
3	4
4	5
5	6
6	340
6	7
7	8
8	9
9	10
9	303
10	11
10	44
11	152
11	12
11	15
12	13
13	14
14	12
14	15
15	16
16	168
16	17
16	49
17	18
17	390
18	208
18	224
18	19
18	204
19	97
19	138
19	188
19	20
20	21
21	22
22	148
22	23
23	24
23	341
24	25
24	158
24	199
25	26
26	27
27	28
28	252
28	29
29	30
30	31
31	32
31	289
31	78
31	179
31	406
31	189
31	62
32	65
32	52
32	33
33	34
33	78
33	223
34	35
35	99
35	36
36	259
36	37
36	334
36	375
37	333
37	38
38	39
39	40
39	107
39	187
40	41
41	42
42	43
42	319
43	162
43	11
43	44
43	141
43	230
44	45
45	46
46	201
46	301
46	47
47	48
47	353
47	238
48	386
48	387
48	17
48	231
48	49
48	88
49	392
49	50
49	159
49	255
50	51
51	33
51	123
51	52
51	196
51	127
52	53
53	380
53	54
54	321
54	323
54	55
55	56
56	57
57	58
58	265
58	59
58	332
58	309
59	60
60	61
61	32
61	62
62	63
63	64
64	65
64	300
64	308
64	33
65	66
66	67
67	68
68	200
68	69
69	268
69	206
69	70
70	89
70	322
70	71
71	72
72	73
73	74
73	324
74	402
74	75
75	76
76	77
77	32
77	34
77	150
77	78
78	284
78	364
78	79
79	80
79	225
79	242
79	236
79	161
=======
0	97
1	2
2	3
3	4
3	23
4	123
4	5
5	6
6	7
6	335
7	64
7	8
8	9
8	165
8	161
9	10
10	112
10	202
10	11
10	45
10	55
11	208
11	12
12	13
12	327
13	343
13	14
13	375
14	15
15	16
16	17
16	234
16	396
16	85
16	134
17	18
18	19
19	20
20	21
21	22
22	4
22	398
22	23
23	72
23	24
24	25
25	26
26	322
26	330
26	62
26	376
26	27
26	28
26	190
28	29
29	30
30	74
30	31
31	32
32	33
32	371
33	304
33	34
33	164
34	35
35	36
36	37
37	38
38	39
39	40
40	41
41	42
42	43
43	44
44	11
45	46
46	130
46	278
46	47
47	48
48	192
48	171
48	292
48	102
48	177
48	297
48	299
48	205
48	49
48	118
49	50
50	51
51	249
51	298
51	75
51	52
52	367
52	324
52	53
52	287
53	54
54	11
55	56
56	57
56	170
57	58
58	59
58	196
58	387
58	103
59	60
60	61
61	347
61	295
61	76
61	403
61	117
61	27
61	28
61	62
62	63
63	64
63	8
64	65
64	124
65	66
66	67
66	309
67	68
68	69
68	174
68	109
69	70
70	377
70	71
71	24
71	72
71	107
71	308
72	73
73	74
73	101
73	31
74	75
74	52
75	62
76	77
77	100
77	78
78	79
79	80
>>>>>>> 4fb72c4c1da1773f28895afa49de40ba2006ce47
80	81
81	82
82	83
83	84
<<<<<<< HEAD
84	85
85	86
86	87
87	88
87	49
87	118
88	89
88	71
89	293
89	136
89	114
89	278
89	90
89	126
90	91
91	92
92	93
93	94
93	399
94	295
94	95
95	96
96	97
96	266
96	20
96	276
97	98
98	99
98	36
99	100
100	379
100	101
101	102
102	338
102	103
103	104
104	105
105	106
106	40
106	107
107	108
=======
84	17
84	370
84	85
84	86
84	143
86	87
87	88
88	89
88	247
89	90
90	332
90	91
90	364
90	405
90	195
91	92
92	99
92	260
92	93
92	254
93	98
93	94
94	328
94	131
94	270
94	95
95	96
96	1
96	97
97	94
98	99
98	93
98	303
99	321
99	100
99	213
99	78
99	151
100	74
100	101
101	49
102	59
102	381
102	103
103	104
104	105
105	217
105	106
105	223
106	72
106	107
107	108
108	69
108	174
>>>>>>> 4fb72c4c1da1773f28895afa49de40ba2006ce47
108	109
109	110
110	111
111	112
<<<<<<< HEAD
112	113
112	405
113	90
113	114
113	198
113	398
114	115
115	176
115	193
115	139
115	116
115	382
116	117
117	88
117	118
118	283
=======
111	137
111	11
112	113
113	114
114	115
115	116
116	62
117	49
>>>>>>> 4fb72c4c1da1773f28895afa49de40ba2006ce47
118	119
119	120
120	121
121	122
<<<<<<< HEAD
122	123
122	52
123	124
124	125
125	90
125	302
125	126
126	52
126	127
127	128
128	129
129	130
129	366
130	131
131	132
132	133
133	134
134	135
135	90
136	393
136	185
136	291
136	356
136	137
137	138
137	20
138	139
138	116
139	256
139	177
139	140
139	360
140	44
141	142
=======
121	382
121	245
121	350
122	266
122	123
122	5
123	65
123	258
123	124
124	312
124	125
125	126
126	127
127	128
128	129
128	237
129	130
129	47
129	407
129	181
129	199
130	95
131	132
132	133
133	17
133	378
133	134
134	313
134	211
134	135
135	136
136	112
136	137
137	138
138	139
139	212
139	379
139	140
140	141
141	142
142	337
142	85
>>>>>>> 4fb72c4c1da1773f28895afa49de40ba2006ce47
142	143
143	144
144	145
145	146
146	147
147	148
<<<<<<< HEAD
147	23
148	149
149	150
149	78
150	151
151	152
151	12
=======
148	149
149	150
150	100
150	151
151	152
>>>>>>> 4fb72c4c1da1773f28895afa49de40ba2006ce47
152	153
153	154
154	155
155	156
156	157
<<<<<<< HEAD
157	25
157	158
157	337
158	50
158	159
159	160
159	336
160	80
161	162
161	44
162	163
162	213
163	331
163	164
163	197
164	354
164	165
165	166
166	167
167	17
168	169
169	170
170	171
171	172
172	173
173	174
174	175
175	176
175	116
175	358
176	177
176	140
177	178
178	32
178	179
179	180
180	181
181	182
182	183
183	184
184	185
184	356
184	137
185	186
186	40
186	187
187	188
187	20
188	32
188	189
189	190
190	191
191	192
192	193
192	116
193	194
194	195
195	52
196	164
196	197
197	114
197	234
197	198
198	25
198	199
199	69
200	47
201	202
202	339
202	203
203	316
203	19
203	204
204	205
205	206
205	70
206	207
207	19
208	209
209	210
210	211
211	212
212	163
212	213
213	320
213	350
213	214
214	215
215	216
216	217
217	218
218	219
219	220
220	221
221	330
221	222
222	34
223	19
224	80
=======
156	215
157	158
158	175
158	348
158	159
159	160
159	385
159	306
159	399
160	9
160	161
161	392
161	162
162	163
163	34
163	164
164	9
164	165
165	166
166	167
167	168
168	169
169	57
170	49
170	171
171	172
172	173
173	69
173	174
173	109
174	159
175	176
176	49
177	178
178	179
179	180
179	310
180	130
180	181
181	274
181	182
182	400
182	183
183	184
184	185
185	186
186	187
187	188
188	189
189	27
189	284
189	190
190	236
190	261
190	191
191	192
191	49
192	193
193	194
194	91
194	195
195	59
195	196
196	197
197	198
197	295
198	130
198	199
199	200
200	201
201	202
201	11
202	203
203	204
204	49
204	205
205	206
206	207
207	208
207	12
208	209
209	210
210	211
210	135
211	212
211	140
212	100
213	214
214	157
214	215
215	216
216	217
216	106
217	218
217	221
218	219
219	220
220	218
220	221
221	222
222	106
222	223
223	224
>>>>>>> 4fb72c4c1da1773f28895afa49de40ba2006ce47
224	225
225	226
226	227
227	228
228	229
<<<<<<< HEAD
229	44
229	230
230	288
230	49
230	231
231	232
232	233
233	198
234	235
235	80
235	236
236	237
237	48
=======
229	230
230	231
231	232
231	402
232	233
233	17
233	234
233	244
234	235
234	262
235	236
235	191
236	129
236	237
>>>>>>> 4fb72c4c1da1773f28895afa49de40ba2006ce47
237	238
238	239
239	240
240	241
<<<<<<< HEAD
240	247
241	80
241	242
242	243
243	244
244	245
245	257
245	246
246	241
247	248
248	249
249	250
250	251
251	252
251	29
252	253
253	254
254	50
254	255
255	140
256	344
256	257
256	374
256	246
257	258
258	259
258	37
259	260
260	261
261	262
262	263
263	264
264	59
265	97
265	266
266	267
267	70
268	269
268	381
269	270
270	271
271	272
272	273
273	274
274	275
275	97
276	277
277	90
278	279
279	280
280	281
280	389
281	282
282	119
283	284
283	79
284	285
285	286
286	287
287	288
287	231
288	32
289	290
290	137
290	291
291	292
292	90
293	294
294	95
295	296
296	297
297	298
298	299
299	65
299	300
300	301
300	47
301	302
301	126
302	10
303	304
304	305
305	306
306	307
307	65
307	308
308	59
308	309
308	327
309	310
310	311
311	312
312	313
313	314
314	315
315	316
315	204
316	317
317	318
318	43
318	319
319	214
320	55
321	322
321	71
322	55
323	328
323	74
323	324
324	325
325	326
326	309
327	324
328	329
329	222
330	331
330	164
331	59
332	333
332	38
333	37
333	334
334	335
335	160
336	337
336	158
337	338
337	103
338	203
339	340
339	7
340	24
340	341
341	342
342	343
343	257
344	345
345	346
346	4
347	348
348	349
349	214
350	351
351	352
352	48
353	165
354	355
355	185
355	137
356	357
357	176
358	359
359	140
360	361
361	362
362	363
363	79
364	365
365	130
366	367
367	368
368	369
369	370
370	371
371	3
372	373
373	257
374	37
374	375
375	376
376	377
377	378
378	379
378	101
379	54
380	269
381	116
382	383
383	384
384	385
385	49
386	49
387	388
388	281
389	18
390	391
391	50
392	137
393	394
394	395
395	396
396	397
397	114
398	94
399	400
400	401
401	75
402	403
403	404
404	113
405	32
=======
241	242
241	254
242	243
243	234
243	244
244	122
244	245
245	246
246	89
247	248
248	249
248	52
249	250
250	251
251	252
252	253
253	242
253	93
253	254
254	255
255	256
256	257
257	124
258	259
259	260
259	93
260	191
261	235
261	262
262	263
263	264
264	265
265	123
266	267
267	268
268	269
269	270
269	95
270	271
271	272
272	273
273	182
274	275
275	276
276	277
277	47
278	279
279	280
279	302
280	281
281	282
282	283
283	190
284	285
285	286
286	53
287	288
288	289
289	290
290	291
291	49
292	293
293	294
294	404
294	198
294	62
294	295
295	296
296	49
297	52
298	49
299	300
300	301
301	280
302	99
303	34
304	305
305	160
305	306
306	307
307	72
307	308
308	67
308	309
309	180
310	311
311	125
312	313
312	135
313	314
314	315
315	316
316	317
317	318
318	319
319	320
320	100
321	322
321	27
322	323
323	53
324	325
325	326
326	13
327	328
327	95
328	329
329	27
330	331
331	380
331	91
331	332
332	333
333	334
334	7
334	335
335	336
336	143
337	338
338	339
339	340
340	341
341	342
342	14
343	86
344	345
345	346
346	62
347	159
348	349
349	122
350	351
351	352
352	353
353	354
354	355
355	356
356	357
357	358
358	359
359	360
360	361
361	362
362	363
363	91
364	365
365	366
366	53
367	368
368	369
369	85
370	33
371	394
371	372
372	373
373	374
374	14
375	27
376	71
377	134
378	140
379	380
379	332
380	103
381	122
382	383
383	384
384	160
385	386
386	59
386	387
387	388
388	28
389	390
390	391
391	162
392	393
393	372
394	395
395	17
396	397
397	23
398	160
399	183
400	401
401	232
402	62
403	295
404	91
405	406
406	130
406	407
>>>>>>> 4fb72c4c1da1773f28895afa49de40ba2006ce47
