#
# hold-out likelihood (Tue Dec  9 19:16:35 2014)
#

set title "hold-out likelihood"
set key bottom right
set autoscale
set grid
set xlabel "communities"
set ylabel "likelihood"
set tics scale 2
set terminal png size 1000,800
set output 'data/imdb/real//imdb.CV.likelihood.png'
plot 	"data/imdb/real//imdb.CV.likelihood.tab" using 1:2 title "" with linespoints pt 6
