#
# hold-out likelihood (Mon Nov 24 21:01:43 2014)
#

set title "hold-out likelihood"
set key bottom right
set autoscale
set grid
set xlabel "communities"
set ylabel "likelihood"
set tics scale 2
set terminal png size 1000,800
set output 'data/facebook_combined/real/facebook_combined.CV.likelihood.png'
plot 	"data/facebook_combined/real/facebook_combined.CV.likelihood.tab" using 1:2 title "" with linespoints pt 6
