#
# hold-out likelihood (Tue Nov 25 13:05:27 2014)
#
# communities	likelihood
5	-358.303
6	-337.654
8	-1319.04
10	-653.994
13	-964.077
17	-441.463
22	-1517.25
29	-766.434
39	-2000.99
52	-995.104
100	-3298
